Record Length,2.500000e+03,,  -0.009200000000,  -0.02000,
Sample Interval,4.000000e-05,,  -0.009160000000,   0.00000,
Trigger Point,2.300000000000e+02,,  -0.009120000000,  -0.02000,
,,,  -0.009080000000,   0.00000,
,,,  -0.009040000000,   0.00000,
,,,  -0.009000000000,  -0.02000,
Source,CH2,,  -0.008960000000,   0.00000,
Vertical Units,V,,  -0.008920000000,  -0.02000,
Vertical Scale,5.000000e-01,,  -0.008880000000,  -0.02000,
Vertical Offset,-1.000000e+00,,  -0.008840000000,   0.00000,
Horizontal Units,s,,  -0.008800000000,  -0.02000,
Horizontal Scale,1.000000e-02,,  -0.008760000000,   0.00000,
Pt Fmt,Y,,  -0.008720000000,   0.00000,
Yzero,0.000000e+00,,  -0.008680000000,   0.00000,
Probe Atten,1.000000e+00,,  -0.008640000000,  -0.02000,
Model Number,TBS1052B-EDU,,  -0.008600000000,  -0.02000,
Serial Number,C012629,,  -0.008560000000,   0.00000,
Firmware Version,FV:v2.52,,  -0.008520000000,   0.00000,
,,,-00.008480000000,   0.00000,
,,,-00.008440000000,   0.00000,
,,,-00.008400000000,   0.00000,
,,,-00.008360000000,  -0.02000,
,,,-00.008320000000,   0.00000,
,,,-00.008280000000,   0.00000,
,,,-00.008240000000,  -0.02000,
,,,-00.008200000000,  -0.02000,
,,,-00.008160000000,  -0.02000,
,,,-00.008120000000,   0.00000,
,,,-00.008080000000,  -0.02000,
,,,-00.008040000000,  -0.02000,
,,,-00.008000000000,  -0.02000,
,,,-00.007960000000,   0.00000,
,,,-00.007920000000,   0.00000,
,,,-00.007880000000,   0.00000,
,,,-00.007840000000,   0.00000,
,,,-00.007800000000,   0.00000,
,,,-00.007760000000,  -0.02000,
,,,-00.007720000000,  -0.02000,
,,,-00.007680000000,  -0.02000,
,,,-00.007640000000,   0.00000,
,,,-00.007600000000,  -0.02000,
,,,-00.007560000000,  -0.02000,
,,,-00.007520000000,  -0.02000,
,,,-00.007480000000,   0.00000,
,,,-00.007440000000,   0.00000,
,,,-00.007400000000,   0.00000,
,,,-00.007360000000,  -0.02000,
,,,-00.007320000000,  -0.02000,
,,,-00.007280000000,  -0.02000,
,,,-00.007240000000,   0.00000,
,,,-00.007200000000,  -0.02000,
,,,-00.007160000000,  -0.02000,
,,,-00.007120000000,  -0.02000,
,,,-00.007080000000,  -0.02000,
,,,-00.007040000000,   0.00000,
,,,-00.007000000000,   0.00000,
,,,-00.006960000000,   0.00000,
,,,-00.006920000000,   0.00000,
,,,-00.006880000000,   0.00000,
,,,-00.006840000000,   0.00000,
,,,-00.006800000000,  -0.02000,
,,,-00.006760000000,  -0.02000,
,,,-00.006720000000,  -0.02000,
,,,-00.006680000000,   0.00000,
,,,-00.006640000000,  -0.02000,
,,,-00.006600000000,   0.00000,
,,,-00.006560000000,   0.00000,
,,,-00.006520000000,  -0.02000,
,,,-00.006480000000,  -0.02000,
,,,-00.006440000000,   0.00000,
,,,-00.006400000000,   0.00000,
,,,-00.006360000000,   0.00000,
,,,-00.006320000000,   0.00000,
,,,-00.006280000000,   0.00000,
,,,-00.006240000000,  -0.02000,
,,,-00.006200000000,  -0.02000,
,,,-00.006160000000,   0.00000,
,,,-00.006120000000,   0.00000,
,,,-00.006080000000,  -0.02000,
,,,-00.006040000000,   0.00000,
,,,-00.006000000000,  -0.02000,
,,,-00.005960000000,  -0.02000,
,,,-00.005920000000,   0.00000,
,,,-00.005880000000,   0.00000,
,,,-00.005840000000,   0.00000,
,,,-00.005800000000,  -0.02000,
,,,-00.005760000000,  -0.02000,
,,,-00.005720000000,  -0.02000,
,,,-00.005680000000,  -0.02000,
,,,-00.005640000000,  -0.02000,
,,,-00.005600000000,   0.00000,
,,,-00.005560000000,  -0.02000,
,,,-00.005520000000,  -0.02000,
,,,-00.005480000000,  -0.02000,
,,,-00.005440000000,   0.00000,
,,,-00.005400000000,  -0.02000,
,,,-00.005360000000,   0.00000,
,,,-00.005320000000,   0.00000,
,,,-00.005280000000,  -0.02000,
,,,-00.005240000000,   0.00000,
,,,-00.005200000000,   0.00000,
,,,-00.005160000000,  -0.02000,
,,,-00.005120000000,   0.00000,
,,,-00.005080000000,   0.00000,
,,,-00.005040000000,   0.00000,
,,,-00.005000000000,   0.00000,
,,,-00.004960000000,  -0.02000,
,,,-00.004920000000,   0.00000,
,,,-00.004880000000,  -0.02000,
,,,-00.004840000000,  -0.02000,
,,,-00.004800000000,   0.00000,
,,,-00.004760000000,   0.00000,
,,,-00.004720000000,   0.00000,
,,,-00.004680000000,   0.00000,
,,,-00.004640000000,  -0.02000,
,,,-00.004600000000,  -0.02000,
,,,-00.004560000000,  -0.02000,
,,,-00.004520000000,  -0.02000,
,,,-00.004480000000,  -0.02000,
,,,-00.004440000000,  -0.02000,
,,,-00.004400000000,  -0.02000,
,,,-00.004360000000,  -0.02000,
,,,-00.004320000000,   0.00000,
,,,-00.004280000000,   0.00000,
,,,-00.004240000000,  -0.02000,
,,,-00.004200000000,  -0.02000,
,,,-00.004160000000,   0.00000,
,,,-00.004120000000,   0.00000,
,,,-00.004080000000,   0.00000,
,,,-00.004040000000,   0.00000,
,,,-00.004000000000,  -0.02000,
,,,-00.003960000000,  -0.02000,
,,,-00.003920000000,   0.00000,
,,,-00.003880000000,  -0.02000,
,,,-00.003840000000,   0.00000,
,,,-00.003800000000,  -0.02000,
,,,-00.003760000000,  -0.02000,
,,,-00.003720000000,   0.00000,
,,,-00.003680000000,   0.00000,
,,,-00.003640000000,  -0.02000,
,,,-00.003600000000,  -0.02000,
,,,-00.003560000000,   0.00000,
,,,-00.003520000000,  -0.02000,
,,,-00.003480000000,   0.00000,
,,,-00.003440000000,  -0.02000,
,,,-00.003400000000,  -0.02000,
,,,-00.003360000000,   0.00000,
,,,-00.003320000000,   0.00000,
,,,-00.003280000000,  -0.02000,
,,,-00.003240000000,  -0.02000,
,,,-00.003200000000,   0.00000,
,,,-00.003160000000,  -0.02000,
,,,-00.003120000000,   0.00000,
,,,-00.003080000000,  -0.02000,
,,,-00.003040000000,  -0.02000,
,,,-00.003000000000,   0.00000,
,,,-00.002960000000,  -0.02000,
,,,-00.002920000000,  -0.02000,
,,,-00.002880000000,  -0.02000,
,,,-00.002840000000,   0.00000,
,,,-00.002800000000,   0.00000,
,,,-00.002760000000,   0.00000,
,,,-00.002720000000,  -0.02000,
,,,-00.002680000000,   0.00000,
,,,-00.002640000000,   0.00000,
,,,-00.002600000000,  -0.02000,
,,,-00.002560000000,   0.00000,
,,,-00.002520000000,   0.00000,
,,,-00.002480000000,  -0.02000,
,,,-00.002440000000,  -0.02000,
,,,-00.002400000000,   0.00000,
,,,-00.002360000000,  -0.02000,
,,,-00.002320000000,  -0.02000,
,,,-00.002280000000,   0.00000,
,,,-00.002240000000,   0.00000,
,,,-00.002200000000,   0.00000,
,,,-00.002160000000,   0.00000,
,,,-00.002120000000,   0.00000,
,,,-00.002080000000,   0.00000,
,,,-00.002040000000,   0.00000,
,,,-00.002000000000,   0.00000,
,,,-00.001960000000,  -0.02000,
,,,-00.001920000000,   0.00000,
,,,-00.001880000000,   0.00000,
,,,-00.001840000000,  -0.02000,
,,,-00.001800000000,   0.00000,
,,,-00.001760000000,   0.00000,
,,,-00.001720000000,   0.00000,
,,,-00.001680000000,   0.00000,
,,,-00.001640000000,   0.00000,
,,,-00.001600000000,   0.00000,
,,,-00.001560000000,  -0.02000,
,,,-00.001520000000,  -0.02000,
,,,-00.001480000000,  -0.02000,
,,,-00.001440000000,  -0.02000,
,,,-00.001400000000,  -0.02000,
,,,-00.001360000000,   0.00000,
,,,-00.001320000000,   0.00000,
,,,-00.001280000000,  -0.02000,
,,,-00.001240000000,   0.00000,
,,,-00.001200000000,   0.00000,
,,,-00.001160000000,   0.00000,
,,,-00.001120000000,  -0.02000,
,,,-00.001080000000,   0.00000,
,,,-00.001040000000,   0.00000,
,,,-00.001000000000,  -0.02000,
,,,-00.000960000000,   0.00000,
,,,-00.000920000000,  -0.02000,
,,,-00.000880000000,   0.00000,
,,,-00.000840000000,  -0.02000,
,,,-00.000800000000,   0.00000,
,,,-00.000760000000,   0.00000,
,,,-00.000720000000,  -0.02000,
,,,-00.000680000000,   0.00000,
,,,-00.000640000000,   0.00000,
,,,-00.000600000000,  -0.02000,
,,,-00.000560000000,   0.00000,
,,,-00.000520000000,   0.00000,
,,,-00.000480000000,   0.00000,
,,,-00.000440000000,   0.00000,
,,,-00.000400000000,   0.00000,
,,,-00.000360000000,  -0.02000,
,,,-00.000320000000,  -0.02000,
,,,-00.000280000000,  -0.02000,
,,,-00.000240000000,   0.00000,
,,,-00.000200000000,   0.00000,
,,,-00.000160000000,  -0.02000,
,,,-00.000120000000,  -0.02000,
,,,-00.000080000000,   0.00000,
,,,-00.000040000000,  -0.02000,
,,,-00.000000000000,  -0.52000,
,,,00.000040000000,  -0.82000,
,,,00.000080000000,  -0.82000,
,,,00.000120000000,  -0.78000,
,,,00.000160000000,  -0.74000,
,,,00.000200000000,  -0.70000,
,,,00.000240000000,  -0.66000,
,,,00.000280000000,  -0.56000,
,,,00.000320000000,  -0.48000,
,,,00.000360000000,  -0.38000,
,,,00.000400000000,  -0.28000,
,,,00.000440000000,  -0.20000,
,,,00.000480000000,  -0.16000,
,,,00.000520000000,  -0.08000,
,,,00.000560000000,  -0.02000,
,,,00.000600000000,   0.00000,
,,,00.000640000000,   0.02000,
,,,00.000680000000,   0.06000,
,,,00.000720000000,   0.08000,
,,,00.000760000000,   0.08000,
,,,00.000800000000,   0.08000,
,,,00.000840000000,   0.06000,
,,,00.000880000000,   0.08000,
,,,00.000920000000,   0.08000,
,,,00.000960000000,   0.06000,
,,,00.001000000000,   0.04000,
,,,00.001040000000,   0.02000,
,,,00.001080000000,   0.00000,
,,,00.001120000000,  -0.02000,
,,,00.001160000000,  -0.04000,
,,,00.001200000000,  -0.06000,
,,,00.001240000000,  -0.06000,
,,,00.001280000000,  -0.06000,
,,,00.001320000000,  -0.08000,
,,,00.001360000000,  -0.08000,
,,,00.001400000000,  -0.06000,
,,,00.001440000000,  -0.06000,
,,,00.001480000000,  -0.06000,
,,,00.001520000000,  -0.04000,
,,,00.001560000000,  -0.04000,
,,,00.001600000000,  -0.04000,
,,,00.001640000000,  -0.02000,
,,,00.001680000000,  -0.02000,
,,,00.001720000000,  -0.02000,
,,,00.001760000000,  -0.02000,
,,,00.001800000000,   0.02000,
,,,00.001840000000,   0.02000,
,,,00.001880000000,   0.00000,
,,,00.001920000000,   0.02000,
,,,00.001960000000,   0.02000,
,,,00.002000000000,   0.00000,
,,,00.002040000000,   0.02000,
,,,00.002080000000,   0.02000,
,,,00.002120000000,   0.02000,
,,,00.002160000000,   0.02000,
,,,00.002200000000,   0.02000,
,,,00.002240000000,   0.00000,
,,,00.002280000000,   0.00000,
,,,00.002320000000,   0.00000,
,,,00.002360000000,   0.00000,
,,,00.002400000000,   0.00000,
,,,00.002440000000,   0.00000,
,,,00.002480000000,   0.00000,
,,,00.002520000000,   0.00000,
,,,00.002560000000,   0.00000,
,,,00.002600000000,  -0.02000,
,,,00.002640000000,  -0.02000,
,,,00.002680000000,  -0.02000,
,,,00.002720000000,  -0.02000,
,,,00.002760000000,  -0.02000,
,,,00.002800000000,  -0.02000,
,,,00.002840000000,  -0.02000,
,,,00.002880000000,  -0.02000,
,,,00.002920000000,   0.00000,
,,,00.002960000000,  -0.02000,
,,,00.003000000000,  -0.02000,
,,,00.003040000000,  -0.02000,
,,,00.003080000000,  -0.02000,
,,,00.003120000000,   0.00000,
,,,00.003160000000,  -0.02000,
,,,00.003200000000,   0.00000,
,,,00.003240000000,   0.00000,
,,,00.003280000000,   0.00000,
,,,00.003320000000,   0.00000,
,,,00.003360000000,   0.02000,
,,,00.003400000000,   0.02000,
,,,00.003440000000,   0.00000,
,,,00.003480000000,   0.02000,
,,,00.003520000000,   0.00000,
,,,00.003560000000,   0.00000,
,,,00.003600000000,   0.02000,
,,,00.003640000000,   0.00000,
,,,00.003680000000,   0.00000,
,,,00.003720000000,   0.00000,
,,,00.003760000000,   0.00000,
,,,00.003800000000,  -0.02000,
,,,00.003840000000,  -0.02000,
,,,00.003880000000,  -0.02000,
,,,00.003920000000,  -0.02000,
,,,00.003960000000,  -0.02000,
,,,00.004000000000,  -0.02000,
,,,00.004040000000,  -0.02000,
,,,00.004080000000,  -0.02000,
,,,00.004120000000,  -0.02000,
,,,00.004160000000,  -0.02000,
,,,00.004200000000,  -0.02000,
,,,00.004240000000,  -0.02000,
,,,00.004280000000,   0.00000,
,,,00.004320000000,   0.00000,
,,,00.004360000000,  -0.02000,
,,,00.004400000000,  -0.02000,
,,,00.004440000000,  -0.02000,
,,,00.004480000000,  -0.02000,
,,,00.004520000000,  -0.02000,
,,,00.004560000000,   0.00000,
,,,00.004600000000,   0.00000,
,,,00.004640000000,   0.00000,
,,,00.004680000000,   0.00000,
,,,00.004720000000,   0.00000,
,,,00.004760000000,   0.00000,
,,,00.004800000000,   0.00000,
,,,00.004840000000,   0.00000,
,,,00.004880000000,   0.00000,
,,,00.004920000000,   0.00000,
,,,00.004960000000,  -0.02000,
,,,00.005000000000,   0.00000,
,,,00.005040000000,  -0.02000,
,,,00.005080000000,   0.00000,
,,,00.005120000000,   0.00000,
,,,00.005160000000,   0.00000,
,,,00.005200000000,   0.00000,
,,,00.005240000000,  -0.02000,
,,,00.005280000000,   0.00000,
,,,00.005320000000,  -0.02000,
,,,00.005360000000,  -0.02000,
,,,00.005400000000,   0.00000,
,,,00.005440000000,   0.00000,
,,,00.005480000000,   0.00000,
,,,00.005520000000,   0.00000,
,,,00.005560000000,  -0.02000,
,,,00.005600000000,   0.00000,
,,,00.005640000000,  -0.02000,
,,,00.005680000000,  -0.02000,
,,,00.005720000000,  -0.02000,
,,,00.005760000000,   0.00000,
,,,00.005800000000,  -0.02000,
,,,00.005840000000,   0.00000,
,,,00.005880000000,   0.00000,
,,,00.005920000000,   0.00000,
,,,00.005960000000,   0.00000,
,,,00.006000000000,  -0.02000,
,,,00.006040000000,   0.00000,
,,,00.006080000000,   0.00000,
,,,00.006120000000,   0.00000,
,,,00.006160000000,  -0.02000,
,,,00.006200000000,  -0.02000,
,,,00.006240000000,   0.00000,
,,,00.006280000000,  -0.02000,
,,,00.006320000000,  -0.02000,
,,,00.006360000000,   0.00000,
,,,00.006400000000,  -0.02000,
,,,00.006440000000,   0.00000,
,,,00.006480000000,  -0.02000,
,,,00.006520000000,   0.00000,
,,,00.006560000000,  -0.02000,
,,,00.006600000000,  -0.02000,
,,,00.006640000000,  -0.02000,
,,,00.006680000000,   0.00000,
,,,00.006720000000,  -0.02000,
,,,00.006760000000,  -0.02000,
,,,00.006800000000,  -0.02000,
,,,00.006840000000,  -0.02000,
,,,00.006880000000,  -0.02000,
,,,00.006920000000,   0.00000,
,,,00.006960000000,   0.00000,
,,,00.007000000000,  -0.02000,
,,,00.007040000000,  -0.02000,
,,,00.007080000000,   0.00000,
,,,00.007120000000,   0.00000,
,,,00.007160000000,   0.00000,
,,,00.007200000000,  -0.02000,
,,,00.007240000000,   0.00000,
,,,00.007280000000,   0.00000,
,,,00.007320000000,   0.00000,
,,,00.007360000000,   0.00000,
,,,00.007400000000,  -0.02000,
,,,00.007440000000,   0.00000,
,,,00.007480000000,  -0.02000,
,,,00.007520000000,   0.00000,
,,,00.007560000000,   0.00000,
,,,00.007600000000,   0.00000,
,,,00.007640000000,   0.00000,
,,,00.007680000000,   0.00000,
,,,00.007720000000,   0.00000,
,,,00.007760000000,   0.00000,
,,,00.007800000000,   0.00000,
,,,00.007840000000,   0.00000,
,,,00.007880000000,  -0.02000,
,,,00.007920000000,  -0.02000,
,,,00.007960000000,  -0.02000,
,,,00.008000000000,  -0.02000,
,,,00.008040000000,  -0.02000,
,,,00.008080000000,   0.00000,
,,,00.008120000000,  -0.02000,
,,,00.008160000000,  -0.02000,
,,,00.008200000000,  -0.02000,
,,,00.008240000000,   0.00000,
,,,00.008280000000,  -0.02000,
,,,00.008320000000,  -0.02000,
,,,00.008360000000,  -0.02000,
,,,00.008400000000,  -0.02000,
,,,00.008440000000,  -0.02000,
,,,00.008480000000,   0.00000,
,,,00.008520000000,   0.00000,
,,,00.008560000000,  -0.02000,
,,,00.008600000000,   0.00000,
,,,00.008640000000,   0.00000,
,,,00.008680000000,   0.00000,
,,,00.008720000000,   0.00000,
,,,00.008760000000,   0.00000,
,,,00.008800000000,   0.00000,
,,,00.008840000000,  -0.02000,
,,,00.008880000000,  -0.02000,
,,,00.008920000000,   0.00000,
,,,00.008960000000,   0.00000,
,,,00.009000000000,   0.00000,
,,,00.009040000000,  -0.02000,
,,,00.009080000000,   0.00000,
,,,00.009120000000,   0.00000,
,,,00.009160000000,   0.00000,
,,,00.009200000000,  -0.02000,
,,,00.009240000000,  -0.02000,
,,,00.009280000000,   0.00000,
,,,00.009320000000,  -0.02000,
,,,00.009360000000,  -0.02000,
,,,00.009400000000,   0.00000,
,,,00.009440000000,  -0.02000,
,,,00.009480000000,  -0.02000,
,,,00.009520000000,  -0.02000,
,,,00.009560000000,   0.00000,
,,,00.009600000000,   0.00000,
,,,00.009640000000,  -0.02000,
,,,00.009680000000,   0.00000,
,,,00.009720000000,   0.00000,
,,,00.009760000000,  -0.02000,
,,,00.009800000000,   0.00000,
,,,00.009840000000,  -0.02000,
,,,00.009880000000,   0.00000,
,,,00.009920000000,   0.00000,
,,,00.009960000000,  -0.02000,
,,,00.010000000000,  -0.02000,
,,,00.010040000000,   0.00000,
,,,00.010080000000,   0.00000,
,,,00.010120000000,  -0.02000,
,,,00.010160000000,  -0.02000,
,,,00.010200000000,   0.00000,
,,,00.010240000000,  -0.02000,
,,,00.010280000000,  -0.02000,
,,,00.010320000000,   0.00000,
,,,00.010360000000,   0.00000,
,,,00.010400000000,   0.00000,
,,,00.010440000000,   0.00000,
,,,00.010480000000,   0.00000,
,,,00.010520000000,   0.00000,
,,,00.010560000000,  -0.02000,
,,,00.010600000000,   0.00000,
,,,00.010640000000,   0.00000,
,,,00.010680000000,   0.00000,
,,,00.010720000000,  -0.02000,
,,,00.010760000000,  -0.02000,
,,,00.010800000000,  -0.02000,
,,,00.010840000000,  -0.02000,
,,,00.010880000000,  -0.02000,
,,,00.010920000000,  -0.02000,
,,,00.010960000000,  -0.02000,
,,,00.011000000000,  -0.02000,
,,,00.011040000000,  -0.02000,
,,,00.011080000000,  -0.02000,
,,,00.011120000000,  -0.02000,
,,,00.011160000000,  -0.02000,
,,,00.011200000000,   0.00000,
,,,00.011240000000,  -0.02000,
,,,00.011280000000,   0.00000,
,,,00.011320000000,  -0.02000,
,,,00.011360000000,   0.00000,
,,,00.011400000000,   0.00000,
,,,00.011440000000,   0.00000,
,,,00.011480000000,  -0.02000,
,,,00.011520000000,  -0.02000,
,,,00.011560000000,   0.00000,
,,,00.011600000000,  -0.02000,
,,,00.011640000000,  -0.02000,
,,,00.011680000000,  -0.02000,
,,,00.011720000000,  -0.02000,
,,,00.011760000000,   0.00000,
,,,00.011800000000,  -0.02000,
,,,00.011840000000,  -0.02000,
,,,00.011880000000,  -0.02000,
,,,00.011920000000,   0.00000,
,,,00.011960000000,   0.00000,
,,,00.012000000000,  -0.02000,
,,,00.012040000000,  -0.02000,
,,,00.012080000000,  -0.02000,
,,,00.012120000000,  -0.02000,
,,,00.012160000000,   0.00000,
,,,00.012200000000,  -0.02000,
,,,00.012240000000,   0.00000,
,,,00.012280000000,  -0.02000,
,,,00.012320000000,   0.00000,
,,,00.012360000000,  -0.02000,
,,,00.012400000000,   0.00000,
,,,00.012440000000,  -0.02000,
,,,00.012480000000,   0.00000,
,,,00.012520000000,  -0.02000,
,,,00.012560000000,   0.00000,
,,,00.012600000000,  -0.02000,
,,,00.012640000000,  -0.02000,
,,,00.012680000000,   0.00000,
,,,00.012720000000,  -0.02000,
,,,00.012760000000,   0.00000,
,,,00.012800000000,  -0.02000,
,,,00.012840000000,   0.00000,
,,,00.012880000000,  -0.02000,
,,,00.012920000000,  -0.02000,
,,,00.012960000000,  -0.02000,
,,,00.013000000000,   0.00000,
,,,00.013040000000,  -0.02000,
,,,00.013080000000,  -0.02000,
,,,00.013120000000,  -0.02000,
,,,00.013160000000,   0.00000,
,,,00.013200000000,   0.00000,
,,,00.013240000000,  -0.02000,
,,,00.013280000000,   0.00000,
,,,00.013320000000,   0.00000,
,,,00.013360000000,  -0.02000,
,,,00.013400000000,   0.00000,
,,,00.013440000000,   0.00000,
,,,00.013480000000,   0.00000,
,,,00.013520000000,  -0.02000,
,,,00.013560000000,  -0.02000,
,,,00.013600000000,   0.00000,
,,,00.013640000000,   0.00000,
,,,00.013680000000,   0.00000,
,,,00.013720000000,   0.00000,
,,,00.013760000000,   0.00000,
,,,00.013800000000,   0.00000,
,,,00.013840000000,   0.00000,
,,,00.013880000000,  -0.02000,
,,,00.013920000000,   0.00000,
,,,00.013960000000,   0.00000,
,,,00.014000000000,  -0.02000,
,,,00.014040000000,   0.00000,
,,,00.014080000000,  -0.02000,
,,,00.014120000000,   0.00000,
,,,00.014160000000,   0.00000,
,,,00.014200000000,   0.00000,
,,,00.014240000000,   0.00000,
,,,00.014280000000,   0.00000,
,,,00.014320000000,   0.00000,
,,,00.014360000000,  -0.02000,
,,,00.014400000000,  -0.02000,
,,,00.014440000000,  -0.02000,
,,,00.014480000000,  -0.02000,
,,,00.014520000000,  -0.02000,
,,,00.014560000000,   0.00000,
,,,00.014600000000,  -0.02000,
,,,00.014640000000,   0.00000,
,,,00.014680000000,  -0.02000,
,,,00.014720000000,  -0.02000,
,,,00.014760000000,  -0.02000,
,,,00.014800000000,   0.00000,
,,,00.014840000000,   0.00000,
,,,00.014880000000,   0.00000,
,,,00.014920000000,  -0.02000,
,,,00.014960000000,   0.00000,
,,,00.015000000000,  -0.02000,
,,,00.015040000000,   0.00000,
,,,00.015080000000,  -0.02000,
,,,00.015120000000,   0.00000,
,,,00.015160000000,   0.00000,
,,,00.015200000000,   0.00000,
,,,00.015240000000,   0.00000,
,,,00.015280000000,  -0.02000,
,,,00.015320000000,  -0.02000,
,,,00.015360000000,  -0.02000,
,,,00.015400000000,  -0.02000,
,,,00.015440000000,  -0.02000,
,,,00.015480000000,  -0.02000,
,,,00.015520000000,  -0.02000,
,,,00.015560000000,  -0.02000,
,,,00.015600000000,   0.00000,
,,,00.015640000000,   0.00000,
,,,00.015680000000,  -0.02000,
,,,00.015720000000,  -0.02000,
,,,00.015760000000,  -0.02000,
,,,00.015800000000,  -0.02000,
,,,00.015840000000,   0.00000,
,,,00.015880000000,  -0.02000,
,,,00.015920000000,   0.00000,
,,,00.015960000000,  -0.02000,
,,,00.016000000000,  -0.02000,
,,,00.016040000000,   0.00000,
,,,00.016080000000,  -0.02000,
,,,00.016120000000,   0.00000,
,,,00.016160000000,  -0.02000,
,,,00.016200000000,   0.00000,
,,,00.016240000000,   0.00000,
,,,00.016280000000,   0.00000,
,,,00.016320000000,   0.00000,
,,,00.016360000000,   0.00000,
,,,00.016400000000,  -0.02000,
,,,00.016440000000,  -0.02000,
,,,00.016480000000,  -0.02000,
,,,00.016520000000,  -0.02000,
,,,00.016560000000,   0.00000,
,,,00.016600000000,   0.00000,
,,,00.016640000000,  -0.02000,
,,,00.016680000000,   0.00000,
,,,00.016720000000,   0.00000,
,,,00.016760000000,  -0.02000,
,,,00.016800000000,   0.00000,
,,,00.016840000000,  -0.02000,
,,,00.016880000000,  -0.02000,
,,,00.016920000000,  -0.02000,
,,,00.016960000000,  -0.02000,
,,,00.017000000000,  -0.02000,
,,,00.017040000000,   0.00000,
,,,00.017080000000,   0.00000,
,,,00.017120000000,   0.00000,
,,,00.017160000000,  -0.02000,
,,,00.017200000000,   0.00000,
,,,00.017240000000,   0.00000,
,,,00.017280000000,  -0.02000,
,,,00.017320000000,  -0.02000,
,,,00.017360000000,   0.00000,
,,,00.017400000000,   0.00000,
,,,00.017440000000,  -0.02000,
,,,00.017480000000,  -0.02000,
,,,00.017520000000,  -0.02000,
,,,00.017560000000,   0.00000,
,,,00.017600000000,  -0.02000,
,,,00.017640000000,   0.00000,
,,,00.017680000000,   0.00000,
,,,00.017720000000,  -0.02000,
,,,00.017760000000,  -0.02000,
,,,00.017800000000,   0.00000,
,,,00.017840000000,  -0.02000,
,,,00.017880000000,  -0.02000,
,,,00.017920000000,  -0.02000,
,,,00.017960000000,  -0.02000,
,,,00.018000000000,  -0.02000,
,,,00.018040000000,   0.00000,
,,,00.018080000000,  -0.02000,
,,,00.018120000000,  -0.02000,
,,,00.018160000000,  -0.02000,
,,,00.018200000000,  -0.02000,
,,,00.018240000000,  -0.02000,
,,,00.018280000000,   0.00000,
,,,00.018320000000,  -0.02000,
,,,00.018360000000,   0.00000,
,,,00.018400000000,   0.00000,
,,,00.018440000000,   0.00000,
,,,00.018480000000,   0.00000,
,,,00.018520000000,  -0.02000,
,,,00.018560000000,  -0.02000,
,,,00.018600000000,   0.00000,
,,,00.018640000000,  -0.02000,
,,,00.018680000000,  -0.02000,
,,,00.018720000000,   0.00000,
,,,00.018760000000,  -0.02000,
,,,00.018800000000,  -0.02000,
,,,00.018840000000,   0.00000,
,,,00.018880000000,  -0.02000,
,,,00.018920000000,  -0.02000,
,,,00.018960000000,  -0.02000,
,,,00.019000000000,   0.00000,
,,,00.019040000000,  -0.02000,
,,,00.019080000000,   0.00000,
,,,00.019120000000,   0.00000,
,,,00.019160000000,   0.00000,
,,,00.019200000000,  -0.02000,
,,,00.019240000000,   0.00000,
,,,00.019280000000,  -0.02000,
,,,00.019320000000,   0.00000,
,,,00.019360000000,  -0.02000,
,,,00.019400000000,   0.00000,
,,,00.019440000000,  -0.02000,
,,,00.019480000000,   0.00000,
,,,00.019520000000,   0.00000,
,,,00.019560000000,  -0.02000,
,,,00.019600000000,  -0.02000,
,,,00.019640000000,   0.00000,
,,,00.019680000000,  -0.02000,
,,,00.019720000000,  -0.02000,
,,,00.019760000000,   0.00000,
,,,00.019800000000,  -0.02000,
,,,00.019840000000,  -0.02000,
,,,00.019880000000,   0.00000,
,,,00.019920000000,   0.00000,
,,,00.019960000000,   0.00000,
,,,00.020000000000,   0.00000,
,,,00.020040000000,   0.00000,
,,,00.020080000000,   0.00000,
,,,00.020120000000,  -0.02000,
,,,00.020160000000,   0.00000,
,,,00.020200000000,  -0.02000,
,,,00.020240000000,   0.00000,
,,,00.020280000000,  -0.02000,
,,,00.020320000000,  -0.02000,
,,,00.020360000000,   0.00000,
,,,00.020400000000,  -0.02000,
,,,00.020440000000,   0.00000,
,,,00.020480000000,  -0.02000,
,,,00.020520000000,   0.00000,
,,,00.020560000000,   0.00000,
,,,00.020600000000,  -0.02000,
,,,00.020640000000,  -0.02000,
,,,00.020680000000,  -0.02000,
,,,00.020720000000,  -0.02000,
,,,00.020760000000,   0.00000,
,,,00.020800000000,  -0.02000,
,,,00.020840000000,   0.00000,
,,,00.020880000000,  -0.02000,
,,,00.020920000000,  -0.02000,
,,,00.020960000000,   0.00000,
,,,00.021000000000,   0.00000,
,,,00.021040000000,   0.00000,
,,,00.021080000000,  -0.02000,
,,,00.021120000000,   0.00000,
,,,00.021160000000,   0.00000,
,,,00.021200000000,   0.00000,
,,,00.021240000000,  -0.02000,
,,,00.021280000000,  -0.02000,
,,,00.021320000000,   0.02000,
,,,00.021360000000,  -0.02000,
,,,00.021400000000,  -0.02000,
,,,00.021440000000,   0.00000,
,,,00.021480000000,   0.00000,
,,,00.021520000000,  -0.02000,
,,,00.021560000000,  -0.02000,
,,,00.021600000000,   0.00000,
,,,00.021640000000,  -0.02000,
,,,00.021680000000,  -0.02000,
,,,00.021720000000,  -0.02000,
,,,00.021760000000,   0.00000,
,,,00.021800000000,  -0.02000,
,,,00.021840000000,  -0.02000,
,,,00.021880000000,  -0.02000,
,,,00.021920000000,   0.00000,
,,,00.021960000000,  -0.02000,
,,,00.022000000000,   0.00000,
,,,00.022040000000,  -0.02000,
,,,00.022080000000,   0.00000,
,,,00.022120000000,   0.00000,
,,,00.022160000000,   0.00000,
,,,00.022200000000,   0.00000,
,,,00.022240000000,  -0.02000,
,,,00.022280000000,   0.00000,
,,,00.022320000000,  -0.02000,
,,,00.022360000000,   0.00000,
,,,00.022400000000,   0.00000,
,,,00.022440000000,  -0.02000,
,,,00.022480000000,  -0.02000,
,,,00.022520000000,   0.00000,
,,,00.022560000000,   0.00000,
,,,00.022600000000,  -0.02000,
,,,00.022640000000,  -0.02000,
,,,00.022680000000,   0.00000,
,,,00.022720000000,  -0.02000,
,,,00.022760000000,  -0.02000,
,,,00.022800000000,   0.00000,
,,,00.022840000000,   0.00000,
,,,00.022880000000,   0.00000,
,,,00.022920000000,   0.00000,
,,,00.022960000000,  -0.02000,
,,,00.023000000000,  -0.02000,
,,,00.023040000000,   0.00000,
,,,00.023080000000,  -0.02000,
,,,00.023120000000,   0.00000,
,,,00.023160000000,  -0.02000,
,,,00.023200000000,   0.00000,
,,,00.023240000000,   0.00000,
,,,00.023280000000,  -0.02000,
,,,00.023320000000,   0.00000,
,,,00.023360000000,   0.00000,
,,,00.023400000000,   0.00000,
,,,00.023440000000,   0.00000,
,,,00.023480000000,  -0.02000,
,,,00.023520000000,  -0.02000,
,,,00.023560000000,   0.00000,
,,,00.023600000000,   0.00000,
,,,00.023640000000,   0.00000,
,,,00.023680000000,   0.00000,
,,,00.023720000000,   0.00000,
,,,00.023760000000,  -0.02000,
,,,00.023800000000,   0.00000,
,,,00.023840000000,   0.00000,
,,,00.023880000000,   0.00000,
,,,00.023920000000,  -0.02000,
,,,00.023960000000,   0.00000,
,,,00.024000000000,   0.00000,
,,,00.024040000000,   0.00000,
,,,00.024080000000,  -0.02000,
,,,00.024120000000,   0.00000,
,,,00.024160000000,  -0.02000,
,,,00.024200000000,  -0.02000,
,,,00.024240000000,   0.00000,
,,,00.024280000000,   0.00000,
,,,00.024320000000,  -0.02000,
,,,00.024360000000,   0.00000,
,,,00.024400000000,  -0.02000,
,,,00.024440000000,   0.00000,
,,,00.024480000000,  -0.02000,
,,,00.024520000000,  -0.02000,
,,,00.024560000000,  -0.02000,
,,,00.024600000000,  -0.02000,
,,,00.024640000000,  -0.02000,
,,,00.024680000000,   0.00000,
,,,00.024720000000,   0.00000,
,,,00.024760000000,  -0.02000,
,,,00.024800000000,  -0.02000,
,,,00.024840000000,   0.00000,
,,,00.024880000000,  -0.02000,
,,,00.024920000000,   0.00000,
,,,00.024960000000,   0.00000,
,,,00.025000000000,  -0.02000,
,,,00.025040000000,   0.00000,
,,,00.025080000000,  -0.02000,
,,,00.025120000000,   0.00000,
,,,00.025160000000,  -0.02000,
,,,00.025200000000,   0.00000,
,,,00.025240000000,   0.00000,
,,,00.025280000000,   0.00000,
,,,00.025320000000,   0.00000,
,,,00.025360000000,   0.00000,
,,,00.025400000000,  -0.02000,
,,,00.025440000000,  -0.02000,
,,,00.025480000000,   0.00000,
,,,00.025520000000,   0.00000,
,,,00.025560000000,   0.00000,
,,,00.025600000000,  -0.02000,
,,,00.025640000000,   0.00000,
,,,00.025680000000,  -0.02000,
,,,00.025720000000,  -0.02000,
,,,00.025760000000,   0.00000,
,,,00.025800000000,  -0.02000,
,,,00.025840000000,  -0.02000,
,,,00.025880000000,  -0.02000,
,,,00.025920000000,   0.00000,
,,,00.025960000000,   0.00000,
,,,00.026000000000,   0.00000,
,,,00.026040000000,  -0.02000,
,,,00.026080000000,  -0.02000,
,,,00.026120000000,   0.00000,
,,,00.026160000000,  -0.02000,
,,,00.026200000000,  -0.02000,
,,,00.026240000000,  -0.02000,
,,,00.026280000000,   0.00000,
,,,00.026320000000,   0.00000,
,,,00.026360000000,  -0.02000,
,,,00.026400000000,   0.00000,
,,,00.026440000000,  -0.02000,
,,,00.026480000000,  -0.02000,
,,,00.026520000000,   0.00000,
,,,00.026560000000,   0.00000,
,,,00.026600000000,  -0.02000,
,,,00.026640000000,  -0.02000,
,,,00.026680000000,  -0.02000,
,,,00.026720000000,  -0.02000,
,,,00.026760000000,   0.00000,
,,,00.026800000000,   0.00000,
,,,00.026840000000,   0.00000,
,,,00.026880000000,   0.00000,
,,,00.026920000000,   0.00000,
,,,00.026960000000,   0.00000,
,,,00.027000000000,   0.00000,
,,,00.027040000000,   0.00000,
,,,00.027080000000,  -0.02000,
,,,00.027120000000,   0.00000,
,,,00.027160000000,   0.00000,
,,,00.027200000000,   0.00000,
,,,00.027240000000,   0.00000,
,,,00.027280000000,  -0.02000,
,,,00.027320000000,  -0.02000,
,,,00.027360000000,  -0.02000,
,,,00.027400000000,  -0.02000,
,,,00.027440000000,  -0.02000,
,,,00.027480000000,   0.00000,
,,,00.027520000000,  -0.02000,
,,,00.027560000000,   0.00000,
,,,00.027600000000,  -0.02000,
,,,00.027640000000,   0.00000,
,,,00.027680000000,   0.00000,
,,,00.027720000000,  -0.02000,
,,,00.027760000000,   0.00000,
,,,00.027800000000,  -0.02000,
,,,00.027840000000,   0.00000,
,,,00.027880000000,  -0.02000,
,,,00.027920000000,  -0.02000,
,,,00.027960000000,   0.00000,
,,,00.028000000000,  -0.02000,
,,,00.028040000000,   0.00000,
,,,00.028080000000,   0.00000,
,,,00.028120000000,  -0.02000,
,,,00.028160000000,  -0.02000,
,,,00.028200000000,   0.00000,
,,,00.028240000000,   0.00000,
,,,00.028280000000,   0.00000,
,,,00.028320000000,   0.00000,
,,,00.028360000000,   0.00000,
,,,00.028400000000,  -0.02000,
,,,00.028440000000,  -0.02000,
,,,00.028480000000,   0.00000,
,,,00.028520000000,   0.00000,
,,,00.028560000000,   0.00000,
,,,00.028600000000,   0.00000,
,,,00.028640000000,  -0.02000,
,,,00.028680000000,   0.00000,
,,,00.028720000000,  -0.02000,
,,,00.028760000000,   0.00000,
,,,00.028800000000,   0.00000,
,,,00.028840000000,  -0.02000,
,,,00.028880000000,  -0.02000,
,,,00.028920000000,  -0.02000,
,,,00.028960000000,   0.00000,
,,,00.029000000000,   0.00000,
,,,00.029040000000,  -0.02000,
,,,00.029080000000,   0.00000,
,,,00.029120000000,  -0.02000,
,,,00.029160000000,   0.00000,
,,,00.029200000000,  -0.02000,
,,,00.029240000000,   0.00000,
,,,00.029280000000,   0.00000,
,,,00.029320000000,   0.00000,
,,,00.029360000000,   0.00000,
,,,00.029400000000,   0.00000,
,,,00.029440000000,   0.00000,
,,,00.029480000000,  -0.02000,
,,,00.029520000000,   0.00000,
,,,00.029560000000,  -0.02000,
,,,00.029600000000,  -0.02000,
,,,00.029640000000,   0.00000,
,,,00.029680000000,   0.00000,
,,,00.029720000000,   0.00000,
,,,00.029760000000,  -0.02000,
,,,00.029800000000,  -0.02000,
,,,00.029840000000,  -0.02000,
,,,00.029880000000,  -0.02000,
,,,00.029920000000,   0.00000,
,,,00.029960000000,   0.00000,
,,,00.030000000000,   0.00000,
,,,00.030040000000,   0.00000,
,,,00.030080000000,  -0.02000,
,,,00.030120000000,   0.00000,
,,,00.030160000000,  -0.02000,
,,,00.030200000000,  -0.02000,
,,,00.030240000000,  -0.02000,
,,,00.030280000000,   0.00000,
,,,00.030320000000,  -0.02000,
,,,00.030360000000,  -0.02000,
,,,00.030400000000,   0.00000,
,,,00.030440000000,  -0.02000,
,,,00.030480000000,  -0.02000,
,,,00.030520000000,  -0.02000,
,,,00.030560000000,  -0.02000,
,,,00.030600000000,   0.00000,
,,,00.030640000000,   0.00000,
,,,00.030680000000,   0.00000,
,,,00.030720000000,   0.00000,
,,,00.030760000000,  -0.02000,
,,,00.030800000000,   0.00000,
,,,00.030840000000,   0.00000,
,,,00.030880000000,  -0.02000,
,,,00.030920000000,  -0.02000,
,,,00.030960000000,   0.00000,
,,,00.031000000000,   0.00000,
,,,00.031040000000,   0.00000,
,,,00.031080000000,   0.00000,
,,,00.031120000000,  -0.02000,
,,,00.031160000000,   0.00000,
,,,00.031200000000,   0.00000,
,,,00.031240000000,  -0.02000,
,,,00.031280000000,   0.00000,
,,,00.031320000000,  -0.02000,
,,,00.031360000000,  -0.02000,
,,,00.031400000000,   0.00000,
,,,00.031440000000,  -0.02000,
,,,00.031480000000,   0.00000,
,,,00.031520000000,  -0.02000,
,,,00.031560000000,  -0.02000,
,,,00.031600000000,  -0.02000,
,,,00.031640000000,   0.00000,
,,,00.031680000000,   0.00000,
,,,00.031720000000,  -0.02000,
,,,00.031760000000,  -0.02000,
,,,00.031800000000,   0.00000,
,,,00.031840000000,  -0.02000,
,,,00.031880000000,  -0.02000,
,,,00.031920000000,   0.00000,
,,,00.031960000000,  -0.02000,
,,,00.032000000000,  -0.02000,
,,,00.032040000000,  -0.02000,
,,,00.032080000000,  -0.02000,
,,,00.032120000000,   0.00000,
,,,00.032160000000,  -0.02000,
,,,00.032200000000,   0.00000,
,,,00.032240000000,   0.00000,
,,,00.032280000000,   0.00000,
,,,00.032320000000,   0.00000,
,,,00.032360000000,   0.00000,
,,,00.032400000000,   0.00000,
,,,00.032440000000,  -0.02000,
,,,00.032480000000,  -0.02000,
,,,00.032520000000,  -0.02000,
,,,00.032560000000,  -0.02000,
,,,00.032600000000,  -0.02000,
,,,00.032640000000,   0.00000,
,,,00.032680000000,  -0.02000,
,,,00.032720000000,   0.00000,
,,,00.032760000000,  -0.02000,
,,,00.032800000000,   0.00000,
,,,00.032840000000,  -0.02000,
,,,00.032880000000,   0.00000,
,,,00.032920000000,  -0.02000,
,,,00.032960000000,   0.00000,
,,,00.033000000000,   0.00000,
,,,00.033040000000,   0.00000,
,,,00.033080000000,  -0.02000,
,,,00.033120000000,  -0.02000,
,,,00.033160000000,   0.00000,
,,,00.033200000000,  -0.02000,
,,,00.033240000000,   0.00000,
,,,00.033280000000,   0.00000,
,,,00.033320000000,   0.00000,
,,,00.033360000000,   0.00000,
,,,00.033400000000,   0.00000,
,,,00.033440000000,   0.00000,
,,,00.033480000000,   0.00000,
,,,00.033520000000,  -0.02000,
,,,00.033560000000,   0.00000,
,,,00.033600000000,  -0.02000,
,,,00.033640000000,   0.00000,
,,,00.033680000000,  -0.02000,
,,,00.033720000000,   0.00000,
,,,00.033760000000,   0.00000,
,,,00.033800000000,  -0.02000,
,,,00.033840000000,  -0.02000,
,,,00.033880000000,   0.00000,
,,,00.033920000000,   0.00000,
,,,00.033960000000,  -0.02000,
,,,00.034000000000,   0.00000,
,,,00.034040000000,   0.00000,
,,,00.034080000000,  -0.02000,
,,,00.034120000000,  -0.02000,
,,,00.034160000000,  -0.02000,
,,,00.034200000000,   0.00000,
,,,00.034240000000,   0.00000,
,,,00.034280000000,   0.00000,
,,,00.034320000000,   0.00000,
,,,00.034360000000,   0.00000,
,,,00.034400000000,   0.00000,
,,,00.034440000000,  -0.02000,
,,,00.034480000000,  -0.02000,
,,,00.034520000000,  -0.02000,
,,,00.034560000000,  -0.02000,
,,,00.034600000000,  -0.02000,
,,,00.034640000000,  -0.02000,
,,,00.034680000000,  -0.02000,
,,,00.034720000000,  -0.02000,
,,,00.034760000000,   0.00000,
,,,00.034800000000,   0.00000,
,,,00.034840000000,  -0.02000,
,,,00.034880000000,  -0.02000,
,,,00.034920000000,   0.00000,
,,,00.034960000000,  -0.02000,
,,,00.035000000000,  -0.02000,
,,,00.035040000000,   0.00000,
,,,00.035080000000,   0.00000,
,,,00.035120000000,   0.00000,
,,,00.035160000000,   0.00000,
,,,00.035200000000,   0.00000,
,,,00.035240000000,   0.00000,
,,,00.035280000000,   0.00000,
,,,00.035320000000,   0.00000,
,,,00.035360000000,  -0.02000,
,,,00.035400000000,  -0.02000,
,,,00.035440000000,   0.00000,
,,,00.035480000000,  -0.02000,
,,,00.035520000000,   0.00000,
,,,00.035560000000,   0.00000,
,,,00.035600000000,   0.00000,
,,,00.035640000000,   0.00000,
,,,00.035680000000,   0.00000,
,,,00.035720000000,   0.00000,
,,,00.035760000000,  -0.02000,
,,,00.035800000000,   0.00000,
,,,00.035840000000,  -0.02000,
,,,00.035880000000,   0.00000,
,,,00.035920000000,  -0.02000,
,,,00.035960000000,  -0.02000,
,,,00.036000000000,  -0.02000,
,,,00.036040000000,  -0.02000,
,,,00.036080000000,   0.00000,
,,,00.036120000000,  -0.02000,
,,,00.036160000000,   0.00000,
,,,00.036200000000,  -0.02000,
,,,00.036240000000,  -0.02000,
,,,00.036280000000,  -0.02000,
,,,00.036320000000,   0.00000,
,,,00.036360000000,  -0.02000,
,,,00.036400000000,  -0.02000,
,,,00.036440000000,  -0.02000,
,,,00.036480000000,   0.00000,
,,,00.036520000000,   0.00000,
,,,00.036560000000,  -0.02000,
,,,00.036600000000,  -0.02000,
,,,00.036640000000,  -0.02000,
,,,00.036680000000,   0.00000,
,,,00.036720000000,  -0.02000,
,,,00.036760000000,   0.00000,
,,,00.036800000000,   0.00000,
,,,00.036840000000,   0.00000,
,,,00.036880000000,  -0.02000,
,,,00.036920000000,  -0.02000,
,,,00.036960000000,   0.00000,
,,,00.037000000000,  -0.08000,
,,,00.037040000000,  -0.18000,
,,,00.037080000000,  -0.16000,
,,,00.037120000000,  -0.18000,
,,,00.037160000000,  -0.18000,
,,,00.037200000000,  -0.18000,
,,,00.037240000000,  -0.16000,
,,,00.037280000000,  -0.16000,
,,,00.037320000000,  -0.14000,
,,,00.037360000000,  -0.14000,
,,,00.037400000000,  -0.12000,
,,,00.037440000000,  -0.08000,
,,,00.037480000000,  -0.08000,
,,,00.037520000000,  -0.06000,
,,,00.037560000000,  -0.08000,
,,,00.037600000000,  -0.06000,
,,,00.037640000000,  -0.02000,
,,,00.037680000000,  -0.02000,
,,,00.037720000000,   0.00000,
,,,00.037760000000,   0.00000,
,,,00.037800000000,   0.00000,
,,,00.037840000000,   0.00000,
,,,00.037880000000,   0.00000,
,,,00.037920000000,   0.00000,
,,,00.037960000000,   0.02000,
,,,00.038000000000,   0.02000,
,,,00.038040000000,   0.02000,
,,,00.038080000000,   0.00000,
,,,00.038120000000,   0.00000,
,,,00.038160000000,   0.00000,
,,,00.038200000000,   0.00000,
,,,00.038240000000,   0.00000,
,,,00.038280000000,   0.00000,
,,,00.038320000000,   0.00000,
,,,00.038360000000,  -0.02000,
,,,00.038400000000,   0.00000,
,,,00.038440000000,  -0.02000,
,,,00.038480000000,   0.00000,
,,,00.038520000000,  -0.02000,
,,,00.038560000000,  -0.02000,
,,,00.038600000000,   0.00000,
,,,00.038640000000,  -0.02000,
,,,00.038680000000,  -0.02000,
,,,00.038720000000,  -0.02000,
,,,00.038760000000,  -0.02000,
,,,00.038800000000,   0.00000,
,,,00.038840000000,  -0.02000,
,,,00.038880000000,  -0.02000,
,,,00.038920000000,  -0.02000,
,,,00.038960000000,  -0.02000,
,,,00.039000000000,  -0.02000,
,,,00.039040000000,  -0.02000,
,,,00.039080000000,  -0.02000,
,,,00.039120000000,   0.00000,
,,,00.039160000000,  -0.02000,
,,,00.039200000000,   0.00000,
,,,00.039240000000,  -0.02000,
,,,00.039280000000,   0.00000,
,,,00.039320000000,   0.00000,
,,,00.039360000000,   0.00000,
,,,00.039400000000,   0.00000,
,,,00.039440000000,   0.00000,
,,,00.039480000000,   0.00000,
,,,00.039520000000,  -0.02000,
,,,00.039560000000,   0.00000,
,,,00.039600000000,   0.00000,
,,,00.039640000000,  -0.02000,
,,,00.039680000000,   0.00000,
,,,00.039720000000,   0.00000,
,,,00.039760000000,  -0.02000,
,,,00.039800000000,   0.00000,
,,,00.039840000000,  -0.02000,
,,,00.039880000000,   0.00000,
,,,00.039920000000,  -0.02000,
,,,00.039960000000,   0.00000,
,,,00.040000000000,   0.00000,
,,,00.040040000000,   0.00000,
,,,00.040080000000,   0.00000,
,,,00.040120000000,   0.00000,
,,,00.040160000000,   0.00000,
,,,00.040200000000,   0.00000,
,,,00.040240000000,  -0.02000,
,,,00.040280000000,  -0.02000,
,,,00.040320000000,  -0.02000,
,,,00.040360000000,  -0.02000,
,,,00.040400000000,  -0.02000,
,,,00.040440000000,   0.00000,
,,,00.040480000000,   0.00000,
,,,00.040520000000,   0.00000,
,,,00.040560000000,   0.00000,
,,,00.040600000000,   0.00000,
,,,00.040640000000,   0.00000,
,,,00.040680000000,  -0.02000,
,,,00.040720000000,   0.00000,
,,,00.040760000000,   0.00000,
,,,00.040800000000,  -0.02000,
,,,00.040840000000,   0.00000,
,,,00.040880000000,   0.00000,
,,,00.040920000000,   0.00000,
,,,00.040960000000,   0.00000,
,,,00.041000000000,  -0.02000,
,,,00.041040000000,  -0.02000,
,,,00.041080000000,   0.00000,
,,,00.041120000000,   0.00000,
,,,00.041160000000,   0.00000,
,,,00.041200000000,  -0.02000,
,,,00.041240000000,   0.00000,
,,,00.041280000000,  -0.02000,
,,,00.041320000000,  -0.02000,
,,,00.041360000000,  -0.02000,
,,,00.041400000000,  -0.02000,
,,,00.041440000000,   0.00000,
,,,00.041480000000,   0.00000,
,,,00.041520000000,  -0.02000,
,,,00.041560000000,   0.00000,
,,,00.041600000000,  -0.02000,
,,,00.041640000000,  -0.02000,
,,,00.041680000000,  -0.02000,
,,,00.041720000000,   0.00000,
,,,00.041760000000,  -0.02000,
,,,00.041800000000,   0.00000,
,,,00.041840000000,   0.00000,
,,,00.041880000000,   0.00000,
,,,00.041920000000,   0.00000,
,,,00.041960000000,  -0.02000,
,,,00.042000000000,  -0.02000,
,,,00.042040000000,   0.00000,
,,,00.042080000000,   0.00000,
,,,00.042120000000,  -0.02000,
,,,00.042160000000,  -0.02000,
,,,00.042200000000,   0.00000,
,,,00.042240000000,   0.00000,
,,,00.042280000000,  -0.02000,
,,,00.042320000000,  -0.02000,
,,,00.042360000000,   0.00000,
,,,00.042400000000,  -0.02000,
,,,00.042440000000,   0.00000,
,,,00.042480000000,  -0.02000,
,,,00.042520000000,  -0.02000,
,,,00.042560000000,  -0.02000,
,,,00.042600000000,   0.00000,
,,,00.042640000000,   0.00000,
,,,00.042680000000,  -0.02000,
,,,00.042720000000,   0.00000,
,,,00.042760000000,   0.00000,
,,,00.042800000000,  -0.02000,
,,,00.042840000000,   0.00000,
,,,00.042880000000,   0.00000,
,,,00.042920000000,   0.00000,
,,,00.042960000000,   0.00000,
,,,00.043000000000,  -0.02000,
,,,00.043040000000,  -0.02000,
,,,00.043080000000,  -0.02000,
,,,00.043120000000,   0.00000,
,,,00.043160000000,   0.00000,
,,,00.043200000000,   0.00000,
,,,00.043240000000,  -0.02000,
,,,00.043280000000,   0.00000,
,,,00.043320000000,  -0.02000,
,,,00.043360000000,   0.00000,
,,,00.043400000000,   0.00000,
,,,00.043440000000,   0.00000,
,,,00.043480000000,  -0.02000,
,,,00.043520000000,  -0.02000,
,,,00.043560000000,  -0.02000,
,,,00.043600000000,   0.00000,
,,,00.043640000000,   0.00000,
,,,00.043680000000,  -0.02000,
,,,00.043720000000,  -0.02000,
,,,00.043760000000,   0.00000,
,,,00.043800000000,  -0.02000,
,,,00.043840000000,   0.00000,
,,,00.043880000000,   0.00000,
,,,00.043920000000,   0.00000,
,,,00.043960000000,  -0.02000,
,,,00.044000000000,   0.00000,
,,,00.044040000000,   0.00000,
,,,00.044080000000,  -0.02000,
,,,00.044120000000,  -0.02000,
,,,00.044160000000,  -0.02000,
,,,00.044200000000,  -0.02000,
,,,00.044240000000,   0.00000,
,,,00.044280000000,   0.00000,
,,,00.044320000000,   0.00000,
,,,00.044360000000,   0.00000,
,,,00.044400000000,   0.00000,
,,,00.044440000000,  -0.02000,
,,,00.044480000000,   0.00000,
,,,00.044520000000,   0.00000,
,,,00.044560000000,   0.00000,
,,,00.044600000000,   0.00000,
,,,00.044640000000,  -0.02000,
,,,00.044680000000,   0.00000,
,,,00.044720000000,   0.00000,
,,,00.044760000000,  -0.02000,
,,,00.044800000000,   0.00000,
,,,00.044840000000,  -0.02000,
,,,00.044880000000,  -0.02000,
,,,00.044920000000,   0.00000,
,,,00.044960000000,   0.00000,
,,,00.045000000000,  -0.02000,
,,,00.045040000000,   0.00000,
,,,00.045080000000,  -0.02000,
,,,00.045120000000,   0.00000,
,,,00.045160000000,  -0.02000,
,,,00.045200000000,  -0.02000,
,,,00.045240000000,   0.00000,
,,,00.045280000000,  -0.02000,
,,,00.045320000000,  -0.02000,
,,,00.045360000000,  -0.02000,
,,,00.045400000000,   0.00000,
,,,00.045440000000,   0.00000,
,,,00.045480000000,   0.00000,
,,,00.045520000000,  -0.02000,
,,,00.045560000000,  -0.02000,
,,,00.045600000000,   0.00000,
,,,00.045640000000,   0.00000,
,,,00.045680000000,  -0.02000,
,,,00.045720000000,  -0.02000,
,,,00.045760000000,  -0.02000,
,,,00.045800000000,   0.00000,
,,,00.045840000000,  -0.02000,
,,,00.045880000000,   0.00000,
,,,00.045920000000,   0.00000,
,,,00.045960000000,   0.00000,
,,,00.046000000000,   0.00000,
,,,00.046040000000,   0.00000,
,,,00.046080000000,   0.00000,
,,,00.046120000000,   0.00000,
,,,00.046160000000,   0.00000,
,,,00.046200000000,  -0.02000,
,,,00.046240000000,   0.00000,
,,,00.046280000000,   0.00000,
,,,00.046320000000,   0.00000,
,,,00.046360000000,   0.00000,
,,,00.046400000000,   0.00000,
,,,00.046440000000,  -0.02000,
,,,00.046480000000,   0.00000,
,,,00.046520000000,   0.00000,
,,,00.046560000000,  -0.02000,
,,,00.046600000000,  -0.02000,
,,,00.046640000000,   0.00000,
,,,00.046680000000,  -0.02000,
,,,00.046720000000,  -0.02000,
,,,00.046760000000,  -0.02000,
,,,00.046800000000,  -0.02000,
,,,00.046840000000,   0.00000,
,,,00.046880000000,   0.00000,
,,,00.046920000000,  -0.02000,
,,,00.046960000000,   0.00000,
,,,00.047000000000,  -0.02000,
,,,00.047040000000,   0.00000,
,,,00.047080000000,   0.00000,
,,,00.047120000000,   0.00000,
,,,00.047160000000,  -0.02000,
,,,00.047200000000,   0.00000,
,,,00.047240000000,  -0.02000,
,,,00.047280000000,   0.00000,
,,,00.047320000000,   0.00000,
,,,00.047360000000,  -0.02000,
,,,00.047400000000,   0.00000,
,,,00.047440000000,   0.00000,
,,,00.047480000000,  -0.02000,
,,,00.047520000000,  -0.02000,
,,,00.047560000000,  -0.02000,
,,,00.047600000000,   0.00000,
,,,00.047640000000,   0.00000,
,,,00.047680000000,   0.00000,
,,,00.047720000000,  -0.02000,
,,,00.047760000000,   0.00000,
,,,00.047800000000,  -0.02000,
,,,00.047840000000,  -0.02000,
,,,00.047880000000,  -0.02000,
,,,00.047920000000,  -0.02000,
,,,00.047960000000,  -0.02000,
,,,00.048000000000,  -0.02000,
,,,00.048040000000,   0.00000,
,,,00.048080000000,   0.00000,
,,,00.048120000000,  -0.02000,
,,,00.048160000000,   0.00000,
,,,00.048200000000,  -0.02000,
,,,00.048240000000,   0.00000,
,,,00.048280000000,  -0.02000,
,,,00.048320000000,   0.00000,
,,,00.048360000000,  -0.02000,
,,,00.048400000000,   0.00000,
,,,00.048440000000,  -0.02000,
,,,00.048480000000,  -0.02000,
,,,00.048520000000,   0.00000,
,,,00.048560000000,  -0.02000,
,,,00.048600000000,   0.00000,
,,,00.048640000000,  -0.02000,
,,,00.048680000000,  -0.02000,
,,,00.048720000000,   0.00000,
,,,00.048760000000,  -0.02000,
,,,00.048800000000,   0.00000,
,,,00.048840000000,  -0.02000,
,,,00.048880000000,  -0.02000,
,,,00.048920000000,  -0.02000,
,,,00.048960000000,   0.00000,
,,,00.049000000000,   0.00000,
,,,00.049040000000,   0.00000,
,,,00.049080000000,   0.00000,
,,,00.049120000000,  -0.02000,
,,,00.049160000000,   0.00000,
,,,00.049200000000,   0.00000,
,,,00.049240000000,  -0.02000,
,,,00.049280000000,   0.00000,
,,,00.049320000000,  -0.02000,
,,,00.049360000000,   0.00000,
,,,00.049400000000,   0.00000,
,,,00.049440000000,  -0.02000,
,,,00.049480000000,   0.00000,
,,,00.049520000000,   0.00000,
,,,00.049560000000,  -0.02000,
,,,00.049600000000,  -0.02000,
,,,00.049640000000,  -0.02000,
,,,00.049680000000,  -0.02000,
,,,00.049720000000,   0.00000,
,,,00.049760000000,   0.00000,
,,,00.049800000000,  -0.02000,
,,,00.049840000000,   0.00000,
,,,00.049880000000,  -0.02000,
,,,00.049920000000,   0.00000,
,,,00.049960000000,   0.00000,
,,,00.050000000000,  -0.02000,
,,,00.050040000000,  -0.02000,
,,,00.050080000000,  -0.02000,
,,,00.050120000000,  -0.02000,
,,,00.050160000000,   0.00000,
,,,00.050200000000,  -0.02000,
,,,00.050240000000,   0.00000,
,,,00.050280000000,   0.00000,
,,,00.050320000000,  -0.02000,
,,,00.050360000000,  -0.02000,
,,,00.050400000000,  -0.02000,
,,,00.050440000000,   0.00000,
,,,00.050480000000,   0.00000,
,,,00.050520000000,   0.00000,
,,,00.050560000000,  -0.02000,
,,,00.050600000000,  -0.02000,
,,,00.050640000000,  -0.02000,
,,,00.050680000000,  -0.02000,
,,,00.050720000000,   0.00000,
,,,00.050760000000,   0.00000,
,,,00.050800000000,   0.00000,
,,,00.050840000000,  -0.02000,
,,,00.050880000000,   0.00000,
,,,00.050920000000,  -0.02000,
,,,00.050960000000,   0.00000,
,,,00.051000000000,  -0.02000,
,,,00.051040000000,  -0.02000,
,,,00.051080000000,   0.00000,
,,,00.051120000000,   0.00000,
,,,00.051160000000,  -0.02000,
,,,00.051200000000,  -0.02000,
,,,00.051240000000,  -0.02000,
,,,00.051280000000,   0.00000,
,,,00.051320000000,   0.00000,
,,,00.051360000000,  -0.02000,
,,,00.051400000000,   0.00000,
,,,00.051440000000,  -0.02000,
,,,00.051480000000,  -0.02000,
,,,00.051520000000,   0.00000,
,,,00.051560000000,   0.00000,
,,,00.051600000000,   0.00000,
,,,00.051640000000,  -0.02000,
,,,00.051680000000,   0.00000,
,,,00.051720000000,   0.00000,
,,,00.051760000000,   0.00000,
,,,00.051800000000,  -0.02000,
,,,00.051840000000,  -0.02000,
,,,00.051880000000,  -0.02000,
,,,00.051920000000,  -0.02000,
,,,00.051960000000,  -0.02000,
,,,00.052000000000,  -0.02000,
,,,00.052040000000,   0.00000,
,,,00.052080000000,   0.00000,
,,,00.052120000000,  -0.02000,
,,,00.052160000000,   0.00000,
,,,00.052200000000,   0.00000,
,,,00.052240000000,   0.00000,
,,,00.052280000000,   0.00000,
,,,00.052320000000,   0.00000,
,,,00.052360000000,  -0.02000,
,,,00.052400000000,   0.00000,
,,,00.052440000000,  -0.02000,
,,,00.052480000000,  -0.02000,
,,,00.052520000000,  -0.02000,
,,,00.052560000000,   0.00000,
,,,00.052600000000,   0.00000,
,,,00.052640000000,   0.00000,
,,,00.052680000000,   0.00000,
,,,00.052720000000,  -0.02000,
,,,00.052760000000,   0.00000,
,,,00.052800000000,   0.00000,
,,,00.052840000000,   0.00000,
,,,00.052880000000,  -0.02000,
,,,00.052920000000,   0.00000,
,,,00.052960000000,  -0.02000,
,,,00.053000000000,   0.00000,
,,,00.053040000000,  -0.02000,
,,,00.053080000000,  -0.02000,
,,,00.053120000000,  -0.02000,
,,,00.053160000000,  -0.02000,
,,,00.053200000000,  -0.02000,
,,,00.053240000000,   0.00000,
,,,00.053280000000,  -0.02000,
,,,00.053320000000,   0.00000,
,,,00.053360000000,  -0.02000,
,,,00.053400000000,  -0.02000,
,,,00.053440000000,   0.00000,
,,,00.053480000000,   0.00000,
,,,00.053520000000,   0.00000,
,,,00.053560000000,   0.00000,
,,,00.053600000000,   0.00000,
,,,00.053640000000,  -0.02000,
,,,00.053680000000,   0.00000,
,,,00.053720000000,   0.00000,
,,,00.053760000000,  -0.02000,
,,,00.053800000000,   0.00000,
,,,00.053840000000,  -0.02000,
,,,00.053880000000,   0.00000,
,,,00.053920000000,   0.00000,
,,,00.053960000000,   0.00000,
,,,00.054000000000,  -0.02000,
,,,00.054040000000,   0.00000,
,,,00.054080000000,   0.00000,
,,,00.054120000000,   0.00000,
,,,00.054160000000,   0.00000,
,,,00.054200000000,  -0.02000,
,,,00.054240000000,   0.00000,
,,,00.054280000000,  -0.02000,
,,,00.054320000000,  -0.02000,
,,,00.054360000000,   0.00000,
,,,00.054400000000,  -0.02000,
,,,00.054440000000,   0.00000,
,,,00.054480000000,   0.00000,
,,,00.054520000000,   0.00000,
,,,00.054560000000,   0.00000,
,,,00.054600000000,  -0.02000,
,,,00.054640000000,   0.00000,
,,,00.054680000000,  -0.02000,
,,,00.054720000000,  -0.02000,
,,,00.054760000000,   0.00000,
,,,00.054800000000,  -0.02000,
,,,00.054840000000,  -0.02000,
,,,00.054880000000,  -0.02000,
,,,00.054920000000,  -0.02000,
,,,00.054960000000,  -0.02000,
,,,00.055000000000,   0.00000,
,,,00.055040000000,   0.00000,
,,,00.055080000000,  -0.02000,
,,,00.055120000000,  -0.02000,
,,,00.055160000000,   0.00000,
,,,00.055200000000,  -0.02000,
,,,00.055240000000,  -0.02000,
,,,00.055280000000,   0.00000,
,,,00.055320000000,  -0.02000,
,,,00.055360000000,  -0.02000,
,,,00.055400000000,   0.00000,
,,,00.055440000000,   0.00000,
,,,00.055480000000,   0.00000,
,,,00.055520000000,   0.00000,
,,,00.055560000000,  -0.02000,
,,,00.055600000000,   0.00000,
,,,00.055640000000,   0.00000,
,,,00.055680000000,   0.00000,
,,,00.055720000000,   0.00000,
,,,00.055760000000,   0.00000,
,,,00.055800000000,   0.00000,
,,,00.055840000000,  -0.02000,
,,,00.055880000000,  -0.02000,
,,,00.055920000000,  -0.02000,
,,,00.055960000000,  -0.02000,
,,,00.056000000000,   0.00000,
,,,00.056040000000,   0.00000,
,,,00.056080000000,   0.00000,
,,,00.056120000000,   0.00000,
,,,00.056160000000,  -0.02000,
,,,00.056200000000,   0.00000,
,,,00.056240000000,   0.00000,
,,,00.056280000000,   0.00000,
,,,00.056320000000,  -0.02000,
,,,00.056360000000,  -0.02000,
,,,00.056400000000,  -0.02000,
,,,00.056440000000,  -0.02000,
,,,00.056480000000,  -0.02000,
,,,00.056520000000,  -0.02000,
,,,00.056560000000,   0.00000,
,,,00.056600000000,  -0.02000,
,,,00.056640000000,  -0.02000,
,,,00.056680000000,   0.00000,
,,,00.056720000000,  -0.02000,
,,,00.056760000000,  -0.02000,
,,,00.056800000000,  -0.02000,
,,,00.056840000000,  -0.02000,
,,,00.056880000000,  -0.02000,
,,,00.056920000000,   0.00000,
,,,00.056960000000,   0.00000,
,,,00.057000000000,   0.00000,
,,,00.057040000000,  -0.02000,
,,,00.057080000000,  -0.02000,
,,,00.057120000000,   0.00000,
,,,00.057160000000,  -0.02000,
,,,00.057200000000,   0.00000,
,,,00.057240000000,  -0.02000,
,,,00.057280000000,  -0.02000,
,,,00.057320000000,   0.00000,
,,,00.057360000000,   0.00000,
,,,00.057400000000,  -0.02000,
,,,00.057440000000,  -0.02000,
,,,00.057480000000,  -0.02000,
,,,00.057520000000,  -0.02000,
,,,00.057560000000,   0.00000,
,,,00.057600000000,   0.00000,
,,,00.057640000000,   0.00000,
,,,00.057680000000,   0.00000,
,,,00.057720000000,   0.00000,
,,,00.057760000000,   0.00000,
,,,00.057800000000,   0.00000,
,,,00.057840000000,  -0.02000,
,,,00.057880000000,  -0.02000,
,,,00.057920000000,   0.00000,
,,,00.057960000000,   0.00000,
,,,00.058000000000,  -0.02000,
,,,00.058040000000,   0.00000,
,,,00.058080000000,  -0.02000,
,,,00.058120000000,   0.00000,
,,,00.058160000000,   0.00000,
,,,00.058200000000,   0.00000,
,,,00.058240000000,  -0.02000,
,,,00.058280000000,   0.00000,
,,,00.058320000000,   0.00000,
,,,00.058360000000,   0.00000,
,,,00.058400000000,   0.00000,
,,,00.058440000000,   0.00000,
,,,00.058480000000,  -0.02000,
,,,00.058520000000,   0.00000,
,,,00.058560000000,  -0.02000,
,,,00.058600000000,   0.00000,
,,,00.058640000000,   0.00000,
,,,00.058680000000,  -0.02000,
,,,00.058720000000,   0.00000,
,,,00.058760000000,   0.00000,
,,,00.058800000000,   0.00000,
,,,00.058840000000,  -0.02000,
,,,00.058880000000,   0.00000,
,,,00.058920000000,   0.00000,
,,,00.058960000000,   0.00000,
,,,00.059000000000,  -0.02000,
,,,00.059040000000,  -0.02000,
,,,00.059080000000,  -0.02000,
,,,00.059120000000,  -0.02000,
,,,00.059160000000,   0.00000,
,,,00.059200000000,  -0.02000,
,,,00.059240000000,  -0.02000,
,,,00.059280000000,  -0.02000,
,,,00.059320000000,  -0.02000,
,,,00.059360000000,  -0.02000,
,,,00.059400000000,   0.00000,
,,,00.059440000000,   0.00000,
,,,00.059480000000,   0.00000,
,,,00.059520000000,   0.00000,
,,,00.059560000000,  -0.02000,
,,,00.059600000000,  -0.02000,
,,,00.059640000000,   0.00000,
,,,00.059680000000,  -0.02000,
,,,00.059720000000,   0.00000,
,,,00.059760000000,   0.00000,
,,,00.059800000000,  -0.02000,
,,,00.059840000000,   0.00000,
,,,00.059880000000,   0.00000,
,,,00.059920000000,  -0.02000,
,,,00.059960000000,  -0.02000,
,,,00.060000000000,  -0.02000,
,,,00.060040000000,  -0.02000,
,,,00.060080000000,  -0.02000,
,,,00.060120000000,  -0.02000,
,,,00.060160000000,   0.00000,
,,,00.060200000000,   0.00000,
,,,00.060240000000,   0.00000,
,,,00.060280000000,  -0.02000,
,,,00.060320000000,   0.00000,
,,,00.060360000000,  -0.02000,
,,,00.060400000000,  -0.02000,
,,,00.060440000000,  -0.02000,
,,,00.060480000000,   0.00000,
,,,00.060520000000,  -0.02000,
,,,00.060560000000,  -0.02000,
,,,00.060600000000,   0.00000,
,,,00.060640000000,  -0.02000,
,,,00.060680000000,  -0.02000,
,,,00.060720000000,  -0.02000,
,,,00.060760000000,   0.00000,
,,,00.060800000000,   0.00000,
,,,00.060840000000,  -0.02000,
,,,00.060880000000,  -0.02000,
,,,00.060920000000,  -0.02000,
,,,00.060960000000,   0.00000,
,,,00.061000000000,   0.00000,
,,,00.061040000000,   0.00000,
,,,00.061080000000,  -0.02000,
,,,00.061120000000,  -0.02000,
,,,00.061160000000,   0.00000,
,,,00.061200000000,   0.00000,
,,,00.061240000000,  -0.02000,
,,,00.061280000000,  -0.02000,
,,,00.061320000000,  -0.02000,
,,,00.061360000000,   0.00000,
,,,00.061400000000,   0.00000,
,,,00.061440000000,  -0.02000,
,,,00.061480000000,   0.00000,
,,,00.061520000000,  -0.02000,
,,,00.061560000000,  -0.02000,
,,,00.061600000000,  -0.02000,
,,,00.061640000000,   0.00000,
,,,00.061680000000,   0.00000,
,,,00.061720000000,  -0.02000,
,,,00.061760000000,  -0.02000,
,,,00.061800000000,   0.00000,
,,,00.061840000000,   0.00000,
,,,00.061880000000,   0.00000,
,,,00.061920000000,   0.00000,
,,,00.061960000000,  -0.02000,
,,,00.062000000000,  -0.02000,
,,,00.062040000000,   0.00000,
,,,00.062080000000,   0.00000,
,,,00.062120000000,  -0.02000,
,,,00.062160000000,  -0.02000,
,,,00.062200000000,   0.00000,
,,,00.062240000000,   0.00000,
,,,00.062280000000,   0.00000,
,,,00.062320000000,   0.00000,
,,,00.062360000000,   0.00000,
,,,00.062400000000,   0.00000,
,,,00.062440000000,   0.00000,
,,,00.062480000000,   0.00000,
,,,00.062520000000,  -0.04000,
,,,00.062560000000,  -0.02000,
,,,00.062600000000,  -0.02000,
,,,00.062640000000,   0.00000,
,,,00.062680000000,   0.00000,
,,,00.062720000000,  -0.02000,
,,,00.062760000000,  -0.02000,
,,,00.062800000000,  -0.02000,
,,,00.062840000000,  -0.02000,
,,,00.062880000000,   0.00000,
,,,00.062920000000,   0.00000,
,,,00.062960000000,   0.00000,
,,,00.063000000000,   0.00000,
,,,00.063040000000,   0.00000,
,,,00.063080000000,  -0.02000,
,,,00.063120000000,   0.00000,
,,,00.063160000000,   0.00000,
,,,00.063200000000,   0.00000,
,,,00.063240000000,   0.00000,
,,,00.063280000000,  -0.02000,
,,,00.063320000000,   0.00000,
,,,00.063360000000,  -0.02000,
,,,00.063400000000,  -0.02000,
,,,00.063440000000,  -0.02000,
,,,00.063480000000,  -0.02000,
,,,00.063520000000,   0.00000,
,,,00.063560000000,  -0.02000,
,,,00.063600000000,  -0.02000,
,,,00.063640000000,  -0.02000,
,,,00.063680000000,  -0.02000,
,,,00.063720000000,   0.00000,
,,,00.063760000000,   0.00000,
,,,00.063800000000,  -0.02000,
,,,00.063840000000,  -0.02000,
,,,00.063880000000,   0.00000,
,,,00.063920000000,   0.00000,
,,,00.063960000000,   0.00000,
,,,00.064000000000,  -0.02000,
,,,00.064040000000,  -0.02000,
,,,00.064080000000,  -0.02000,
,,,00.064120000000,  -0.02000,
,,,00.064160000000,   0.00000,
,,,00.064200000000,  -0.02000,
,,,00.064240000000,   0.00000,
,,,00.064280000000,  -0.02000,
,,,00.064320000000,   0.00000,
,,,00.064360000000,   0.00000,
,,,00.064400000000,   0.00000,
,,,00.064440000000,   0.00000,
,,,00.064480000000,   0.00000,
,,,00.064520000000,   0.00000,
,,,00.064560000000,  -0.02000,
,,,00.064600000000,  -0.02000,
,,,00.064640000000,  -0.02000,
,,,00.064680000000,   0.00000,
,,,00.064720000000,   0.00000,
,,,00.064760000000,  -0.02000,
,,,00.064800000000,   0.00000,
,,,00.064840000000,   0.00000,
,,,00.064880000000,   0.00000,
,,,00.064920000000,   0.00000,
,,,00.064960000000,  -0.02000,
,,,00.065000000000,   0.00000,
,,,00.065040000000,  -0.02000,
,,,00.065080000000,   0.00000,
,,,00.065120000000,  -0.02000,
,,,00.065160000000,  -0.02000,
,,,00.065200000000,   0.00000,
,,,00.065240000000,   0.00000,
,,,00.065280000000,   0.00000,
,,,00.065320000000,  -0.02000,
,,,00.065360000000,   0.00000,
,,,00.065400000000,  -0.02000,
,,,00.065440000000,   0.00000,
,,,00.065480000000,  -0.02000,
,,,00.065520000000,  -0.02000,
,,,00.065560000000,   0.00000,
,,,00.065600000000,   0.00000,
,,,00.065640000000,  -0.02000,
,,,00.065680000000,  -0.02000,
,,,00.065720000000,  -0.02000,
,,,00.065760000000,   0.00000,
,,,00.065800000000,   0.00000,
,,,00.065840000000,   0.00000,
,,,00.065880000000,   0.00000,
,,,00.065920000000,   0.00000,
,,,00.065960000000,  -0.02000,
,,,00.066000000000,  -0.02000,
,,,00.066040000000,  -0.02000,
,,,00.066080000000,  -0.02000,
,,,00.066120000000,  -0.02000,
,,,00.066160000000,  -0.02000,
,,,00.066200000000,   0.00000,
,,,00.066240000000,   0.00000,
,,,00.066280000000,   0.00000,
,,,00.066320000000,  -0.02000,
,,,00.066360000000,   0.00000,
,,,00.066400000000,  -0.02000,
,,,00.066440000000,  -0.02000,
,,,00.066480000000,   0.00000,
,,,00.066520000000,   0.00000,
,,,00.066560000000,  -0.02000,
,,,00.066600000000,   0.00000,
,,,00.066640000000,   0.00000,
,,,00.066680000000,   0.00000,
,,,00.066720000000,  -0.02000,
,,,00.066760000000,  -0.02000,
,,,00.066800000000,   0.00000,
,,,00.066840000000,  -0.02000,
,,,00.066880000000,   0.00000,
,,,00.066920000000,   0.00000,
,,,00.066960000000,   0.00000,
,,,00.067000000000,   0.00000,
,,,00.067040000000,   0.00000,
,,,00.067080000000,  -0.02000,
,,,00.067120000000,  -0.02000,
,,,00.067160000000,   0.00000,
,,,00.067200000000,  -0.02000,
,,,00.067240000000,   0.00000,
,,,00.067280000000,   0.00000,
,,,00.067320000000,  -0.02000,
,,,00.067360000000,  -0.02000,
,,,00.067400000000,   0.00000,
,,,00.067440000000,  -0.02000,
,,,00.067480000000,   0.00000,
,,,00.067520000000,  -0.02000,
,,,00.067560000000,  -0.02000,
,,,00.067600000000,  -0.02000,
,,,00.067640000000,  -0.02000,
,,,00.067680000000,   0.00000,
,,,00.067720000000,  -0.02000,
,,,00.067760000000,  -0.02000,
,,,00.067800000000,   0.00000,
,,,00.067840000000,  -0.02000,
,,,00.067880000000,   0.00000,
,,,00.067920000000,   0.00000,
,,,00.067960000000,  -0.02000,
,,,00.068000000000,   0.00000,
,,,00.068040000000,  -0.02000,
,,,00.068080000000,  -0.02000,
,,,00.068120000000,  -0.02000,
,,,00.068160000000,  -0.02000,
,,,00.068200000000,  -0.02000,
,,,00.068240000000,   0.00000,
,,,00.068280000000,   0.00000,
,,,00.068320000000,  -0.02000,
,,,00.068360000000,  -0.02000,
,,,00.068400000000,  -0.02000,
,,,00.068440000000,   0.00000,
,,,00.068480000000,   0.00000,
,,,00.068520000000,  -0.02000,
,,,00.068560000000,   0.00000,
,,,00.068600000000,  -0.02000,
,,,00.068640000000,  -0.02000,
,,,00.068680000000,   0.00000,
,,,00.068720000000,   0.00000,
,,,00.068760000000,   0.00000,
,,,00.068800000000,   0.00000,
,,,00.068840000000,   0.00000,
,,,00.068880000000,  -0.02000,
,,,00.068920000000,   0.00000,
,,,00.068960000000,   0.00000,
,,,00.069000000000,  -0.02000,
,,,00.069040000000,   0.00000,
,,,00.069080000000,   0.00000,
,,,00.069120000000,   0.00000,
,,,00.069160000000,   0.00000,
,,,00.069200000000,   0.00000,
,,,00.069240000000,  -0.02000,
,,,00.069280000000,   0.00000,
,,,00.069320000000,  -0.02000,
,,,00.069360000000,  -0.02000,
,,,00.069400000000,  -0.02000,
,,,00.069440000000,  -0.02000,
,,,00.069480000000,  -0.02000,
,,,00.069520000000,  -0.02000,
,,,00.069560000000,  -0.02000,
,,,00.069600000000,  -0.02000,
,,,00.069640000000,   0.00000,
,,,00.069680000000,  -0.02000,
,,,00.069720000000,  -0.02000,
,,,00.069760000000,   0.00000,
,,,00.069800000000,   0.00000,
,,,00.069840000000,   0.00000,
,,,00.069880000000,   0.00000,
,,,00.069920000000,   0.00000,
,,,00.069960000000,  -0.02000,
,,,00.070000000000,  -0.02000,
,,,00.070040000000,   0.00000,
,,,00.070080000000,  -0.02000,
,,,00.070120000000,   0.00000,
,,,00.070160000000,   0.00000,
,,,00.070200000000,  -0.02000,
,,,00.070240000000,   0.00000,
,,,00.070280000000,   0.00000,
,,,00.070320000000,  -0.02000,
,,,00.070360000000,   0.00000,
,,,00.070400000000,   0.00000,
,,,00.070440000000,   0.00000,
,,,00.070480000000,   0.00000,
,,,00.070520000000,  -0.02000,
,,,00.070560000000,  -0.02000,
,,,00.070600000000,   0.00000,
,,,00.070640000000,   0.00000,
,,,00.070680000000,   0.00000,
,,,00.070720000000,   0.00000,
,,,00.070760000000,  -0.02000,
,,,00.070800000000,  -0.02000,
,,,00.070840000000,   0.00000,
,,,00.070880000000,  -0.02000,
,,,00.070920000000,   0.00000,
,,,00.070960000000,  -0.02000,
,,,00.071000000000,  -0.02000,
,,,00.071040000000,  -0.02000,
,,,00.071080000000,  -0.02000,
,,,00.071120000000,  -0.02000,
,,,00.071160000000,  -0.02000,
,,,00.071200000000,  -0.02000,
,,,00.071240000000,   0.00000,
,,,00.071280000000,  -0.02000,
,,,00.071320000000,  -0.02000,
,,,00.071360000000,  -0.02000,
,,,00.071400000000,  -0.02000,
,,,00.071440000000,   0.00000,
,,,00.071480000000,   0.00000,
,,,00.071520000000,   0.00000,
,,,00.071560000000,  -0.02000,
,,,00.071600000000,  -0.02000,
,,,00.071640000000,   0.00000,
,,,00.071680000000,  -0.02000,
,,,00.071720000000,   0.00000,
,,,00.071760000000,  -0.02000,
,,,00.071800000000,  -0.02000,
,,,00.071840000000,   0.00000,
,,,00.071880000000,  -0.02000,
,,,00.071920000000,  -0.02000,
,,,00.071960000000,  -0.02000,
,,,00.072000000000,  -0.02000,
,,,00.072040000000,  -0.02000,
,,,00.072080000000,  -0.02000,
,,,00.072120000000,   0.00000,
,,,00.072160000000,   0.00000,
,,,00.072200000000,  -0.02000,
,,,00.072240000000,   0.00000,
,,,00.072280000000,  -0.02000,
,,,00.072320000000,  -0.02000,
,,,00.072360000000,  -0.02000,
,,,00.072400000000,   0.00000,
,,,00.072440000000,   0.00000,
,,,00.072480000000,   0.00000,
,,,00.072520000000,  -0.02000,
,,,00.072560000000,   0.00000,
,,,00.072600000000,   0.00000,
,,,00.072640000000,   0.00000,
,,,00.072680000000,   0.00000,
,,,00.072720000000,   0.00000,
,,,00.072760000000,  -0.02000,
,,,00.072800000000,  -0.02000,
,,,00.072840000000,  -0.02000,
,,,00.072880000000,  -0.02000,
,,,00.072920000000,   0.00000,
,,,00.072960000000,  -0.02000,
,,,00.073000000000,  -0.02000,
,,,00.073040000000,   0.00000,
,,,00.073080000000,   0.00000,
,,,00.073120000000,  -0.02000,
,,,00.073160000000,  -0.02000,
,,,00.073200000000,  -0.02000,
,,,00.073240000000,  -0.02000,
,,,00.073280000000,  -0.02000,
,,,00.073320000000,  -0.02000,
,,,00.073360000000,  -0.02000,
,,,00.073400000000,  -0.02000,
,,,00.073440000000,  -0.02000,
,,,00.073480000000,   0.00000,
,,,00.073520000000,   0.00000,
,,,00.073560000000,   0.00000,
,,,00.073600000000,   0.00000,
,,,00.073640000000,   0.02000,
,,,00.073680000000,   0.02000,
,,,00.073720000000,   0.04000,
,,,00.073760000000,   0.02000,
,,,00.073800000000,   0.04000,
,,,00.073840000000,   0.04000,
,,,00.073880000000,   0.06000,
,,,00.073920000000,   0.06000,
,,,00.073960000000,   0.06000,
,,,00.074000000000,   0.06000,
,,,00.074040000000,   0.06000,
,,,00.074080000000,   0.06000,
,,,00.074120000000,   0.04000,
,,,00.074160000000,   0.04000,
,,,00.074200000000,   0.04000,
,,,00.074240000000,   0.02000,
,,,00.074280000000,   0.04000,
,,,00.074320000000,   0.00000,
,,,00.074360000000,   0.00000,
,,,00.074400000000,  -0.02000,
,,,00.074440000000,   0.00000,
,,,00.074480000000,   0.00000,
,,,00.074520000000,   0.00000,
,,,00.074560000000,  -0.02000,
,,,00.074600000000,   0.00000,
,,,00.074640000000,  -0.02000,
,,,00.074680000000,  -0.02000,
,,,00.074720000000,   0.00000,
,,,00.074760000000,   0.00000,
,,,00.074800000000,  -0.02000,
,,,00.074840000000,   0.00000,
,,,00.074880000000,  -0.02000,
,,,00.074920000000,   0.00000,
,,,00.074960000000,   0.00000,
,,,00.075000000000,   0.00000,
,,,00.075040000000,   0.00000,
,,,00.075080000000,  -0.02000,
,,,00.075120000000,   0.00000,
,,,00.075160000000,  -0.02000,
,,,00.075200000000,   0.00000,
,,,00.075240000000,   0.00000,
,,,00.075280000000,   0.00000,
,,,00.075320000000,   0.00000,
,,,00.075360000000,   0.00000,
,,,00.075400000000,   0.00000,
,,,00.075440000000,   0.00000,
,,,00.075480000000,  -0.02000,
,,,00.075520000000,   0.00000,
,,,00.075560000000,  -0.02000,
,,,00.075600000000,  -0.02000,
,,,00.075640000000,   0.00000,
,,,00.075680000000,   0.00000,
,,,00.075720000000,   0.00000,
,,,00.075760000000,   0.00000,
,,,00.075800000000,  -0.02000,
,,,00.075840000000,   0.00000,
,,,00.075880000000,   0.00000,
,,,00.075920000000,  -0.02000,
,,,00.075960000000,   0.00000,
,,,00.076000000000,   0.00000,
,,,00.076040000000,  -0.02000,
,,,00.076080000000,  -0.02000,
,,,00.076120000000,  -0.02000,
,,,00.076160000000,  -0.02000,
,,,00.076200000000,   0.00000,
,,,00.076240000000,   0.00000,
,,,00.076280000000,   0.00000,
,,,00.076320000000,   0.00000,
,,,00.076360000000,  -0.02000,
,,,00.076400000000,  -0.02000,
,,,00.076440000000,  -0.02000,
,,,00.076480000000,   0.00000,
,,,00.076520000000,   0.00000,
,,,00.076560000000,  -0.02000,
,,,00.076600000000,  -0.02000,
,,,00.076640000000,   0.00000,
,,,00.076680000000,  -0.02000,
,,,00.076720000000,  -0.02000,
,,,00.076760000000,   0.00000,
,,,00.076800000000,   0.00000,
,,,00.076840000000,   0.00000,
,,,00.076880000000,   0.00000,
,,,00.076920000000,   0.00000,
,,,00.076960000000,   0.00000,
,,,00.077000000000,  -0.02000,
,,,00.077040000000,  -0.02000,
,,,00.077080000000,   0.00000,
,,,00.077120000000,   0.00000,
,,,00.077160000000,  -0.02000,
,,,00.077200000000,   0.00000,
,,,00.077240000000,   0.00000,
,,,00.077280000000,   0.00000,
,,,00.077320000000,   0.00000,
,,,00.077360000000,   0.00000,
,,,00.077400000000,   0.00000,
,,,00.077440000000,  -0.02000,
,,,00.077480000000,   0.00000,
,,,00.077520000000,   0.00000,
,,,00.077560000000,   0.00000,
,,,00.077600000000,  -0.02000,
,,,00.077640000000,   0.00000,
,,,00.077680000000,   0.00000,
,,,00.077720000000,  -0.02000,
,,,00.077760000000,  -0.02000,
,,,00.077800000000,  -0.02000,
,,,00.077840000000,   0.00000,
,,,00.077880000000,   0.00000,
,,,00.077920000000,   0.00000,
,,,00.077960000000,   0.00000,
,,,00.078000000000,   0.00000,
,,,00.078040000000,   0.00000,
,,,00.078080000000,   0.00000,
,,,00.078120000000,  -0.02000,
,,,00.078160000000,   0.00000,
,,,00.078200000000,  -0.02000,
,,,00.078240000000,  -0.02000,
,,,00.078280000000,  -0.02000,
,,,00.078320000000,   0.00000,
,,,00.078360000000,   0.00000,
,,,00.078400000000,   0.00000,
,,,00.078440000000,   0.00000,
,,,00.078480000000,   0.00000,
,,,00.078520000000,  -0.02000,
,,,00.078560000000,  -0.02000,
,,,00.078600000000,   0.00000,
,,,00.078640000000,   0.00000,
,,,00.078680000000,  -0.02000,
,,,00.078720000000,  -0.02000,
,,,00.078760000000,  -0.02000,
,,,00.078800000000,  -0.02000,
,,,00.078840000000,  -0.02000,
,,,00.078880000000,   0.00000,
,,,00.078920000000,  -0.02000,
,,,00.078960000000,  -0.02000,
,,,00.079000000000,  -0.02000,
,,,00.079040000000,  -0.02000,
,,,00.079080000000,  -0.02000,
,,,00.079120000000,   0.00000,
,,,00.079160000000,  -0.02000,
,,,00.079200000000,   0.00000,
,,,00.079240000000,  -0.02000,
,,,00.079280000000,  -0.02000,
,,,00.079320000000,   0.00000,
,,,00.079360000000,  -0.02000,
,,,00.079400000000,   0.00000,
,,,00.079440000000,  -0.02000,
,,,00.079480000000,  -0.02000,
,,,00.079520000000,  -0.02000,
,,,00.079560000000,   0.00000,
,,,00.079600000000,  -0.02000,
,,,00.079640000000,  -0.02000,
,,,00.079680000000,   0.00000,
,,,00.079720000000,  -0.02000,
,,,00.079760000000,  -0.02000,
,,,00.079800000000,  -0.02000,
,,,00.079840000000,   0.00000,
,,,00.079880000000,  -0.02000,
,,,00.079920000000,   0.00000,
,,,00.079960000000,   0.00000,
,,,00.080000000000,   0.00000,
,,,00.080040000000,   0.00000,
,,,00.080080000000,   0.00000,
,,,00.080120000000,  -0.02000,
,,,00.080160000000,  -0.02000,
,,,00.080200000000,  -0.02000,
,,,00.080240000000,  -0.02000,
,,,00.080280000000,  -0.02000,
,,,00.080320000000,  -0.02000,
,,,00.080360000000,   0.00000,
,,,00.080400000000,  -0.02000,
,,,00.080440000000,  -0.02000,
,,,00.080480000000,   0.00000,
,,,00.080520000000,  -0.02000,
,,,00.080560000000,   0.00000,
,,,00.080600000000,   0.00000,
,,,00.080640000000,   0.00000,
,,,00.080680000000,   0.00000,
,,,00.080720000000,  -0.02000,
,,,00.080760000000,  -0.02000,
,,,00.080800000000,   0.00000,
,,,00.080840000000,   0.00000,
,,,00.080880000000,  -0.02000,
,,,00.080920000000,   0.00000,
,,,00.080960000000,   0.00000,
,,,00.081000000000,  -0.02000,
,,,00.081040000000,   0.00000,
,,,00.081080000000,  -0.02000,
,,,00.081120000000,   0.00000,
,,,00.081160000000,  -0.02000,
,,,00.081200000000,  -0.02000,
,,,00.081240000000,   0.00000,
,,,00.081280000000,   0.00000,
,,,00.081320000000,  -0.02000,
,,,00.081360000000,  -0.02000,
,,,00.081400000000,  -0.02000,
,,,00.081440000000,  -0.02000,
,,,00.081480000000,   0.00000,
,,,00.081520000000,  -0.02000,
,,,00.081560000000,  -0.02000,
,,,00.081600000000,   0.00000,
,,,00.081640000000,   0.00000,
,,,00.081680000000,  -0.02000,
,,,00.081720000000,  -0.02000,
,,,00.081760000000,   0.00000,
,,,00.081800000000,   0.00000,
,,,00.081840000000,  -0.02000,
,,,00.081880000000,   0.00000,
,,,00.081920000000,   0.00000,
,,,00.081960000000,   0.00000,
,,,00.082000000000,  -0.02000,
,,,00.082040000000,  -0.02000,
,,,00.082080000000,   0.00000,
,,,00.082120000000,  -0.02000,
,,,00.082160000000,   0.00000,
,,,00.082200000000,   0.00000,
,,,00.082240000000,   0.00000,
,,,00.082280000000,   0.00000,
,,,00.082320000000,  -0.02000,
,,,00.082360000000,  -0.02000,
,,,00.082400000000,   0.00000,
,,,00.082440000000,   0.00000,
,,,00.082480000000,   0.00000,
,,,00.082520000000,  -0.02000,
,,,00.082560000000,   0.00000,
,,,00.082600000000,  -0.02000,
,,,00.082640000000,   0.00000,
,,,00.082680000000,  -0.02000,
,,,00.082720000000,   0.00000,
,,,00.082760000000,   0.00000,
,,,00.082800000000,   0.00000,
,,,00.082840000000,   0.00000,
,,,00.082880000000,  -0.02000,
,,,00.082920000000,   0.00000,
,,,00.082960000000,   0.00000,
,,,00.083000000000,  -0.02000,
,,,00.083040000000,  -0.02000,
,,,00.083080000000,  -0.02000,
,,,00.083120000000,   0.00000,
,,,00.083160000000,  -0.02000,
,,,00.083200000000,   0.00000,
,,,00.083240000000,  -0.02000,
,,,00.083280000000,  -0.02000,
,,,00.083320000000,  -0.02000,
,,,00.083360000000,   0.00000,
,,,00.083400000000,   0.00000,
,,,00.083440000000,  -0.02000,
,,,00.083480000000,  -0.02000,
,,,00.083520000000,   0.00000,
,,,00.083560000000,  -0.02000,
,,,00.083600000000,   0.00000,
,,,00.083640000000,   0.00000,
,,,00.083680000000,   0.00000,
,,,00.083720000000,  -0.02000,
,,,00.083760000000,   0.00000,
,,,00.083800000000,  -0.02000,
,,,00.083840000000,  -0.02000,
,,,00.083880000000,   0.00000,
,,,00.083920000000,   0.00000,
,,,00.083960000000,   0.00000,
,,,00.084000000000,   0.00000,
,,,00.084040000000,   0.00000,
,,,00.084080000000,  -0.02000,
,,,00.084120000000,   0.00000,
,,,00.084160000000,  -0.02000,
,,,00.084200000000,   0.00000,
,,,00.084240000000,  -0.02000,
,,,00.084280000000,  -0.02000,
,,,00.084320000000,  -0.02000,
,,,00.084360000000,  -0.02000,
,,,00.084400000000,   0.00000,
,,,00.084440000000,  -0.02000,
,,,00.084480000000,  -0.02000,
,,,00.084520000000,   0.00000,
,,,00.084560000000,  -0.02000,
,,,00.084600000000,   0.00000,
,,,00.084640000000,   0.00000,
,,,00.084680000000,  -0.02000,
,,,00.084720000000,  -0.02000,
,,,00.084760000000,   0.00000,
,,,00.084800000000,  -0.02000,
,,,00.084840000000,   0.00000,
,,,00.084880000000,   0.00000,
,,,00.084920000000,   0.00000,
,,,00.084960000000,   0.00000,
,,,00.085000000000,   0.00000,
,,,00.085040000000,  -0.02000,
,,,00.085080000000,   0.00000,
,,,00.085120000000,  -0.02000,
,,,00.085160000000,   0.00000,
,,,00.085200000000,  -0.02000,
,,,00.085240000000,   0.00000,
,,,00.085280000000,  -0.02000,
,,,00.085320000000,   0.00000,
,,,00.085360000000,   0.00000,
,,,00.085400000000,  -0.02000,
,,,00.085440000000,  -0.02000,
,,,00.085480000000,  -0.02000,
,,,00.085520000000,   0.00000,
,,,00.085560000000,  -0.02000,
,,,00.085600000000,   0.00000,
,,,00.085640000000,   0.00000,
,,,00.085680000000,  -0.02000,
,,,00.085720000000,  -0.02000,
,,,00.085760000000,  -0.02000,
,,,00.085800000000,  -0.02000,
,,,00.085840000000,  -0.02000,
,,,00.085880000000,   0.00000,
,,,00.085920000000,  -0.02000,
,,,00.085960000000,   0.00000,
,,,00.086000000000,   0.00000,
,,,00.086040000000,  -0.02000,
,,,00.086080000000,   0.00000,
,,,00.086120000000,  -0.02000,
,,,00.086160000000,   0.00000,
,,,00.086200000000,   0.00000,
,,,00.086240000000,   0.00000,
,,,00.086280000000,  -0.02000,
,,,00.086320000000,  -0.02000,
,,,00.086360000000,  -0.02000,
,,,00.086400000000,  -0.02000,
,,,00.086440000000,  -0.02000,
,,,00.086480000000,   0.00000,
,,,00.086520000000,  -0.02000,
,,,00.086560000000,   0.00000,
,,,00.086600000000,   0.00000,
,,,00.086640000000,   0.00000,
,,,00.086680000000,   0.00000,
,,,00.086720000000,   0.00000,
,,,00.086760000000,   0.00000,
,,,00.086800000000,  -0.02000,
,,,00.086840000000,  -0.02000,
,,,00.086880000000,   0.00000,
,,,00.086920000000,   0.00000,
,,,00.086960000000,  -0.02000,
,,,00.087000000000,  -0.02000,
,,,00.087040000000,   0.00000,
,,,00.087080000000,  -0.02000,
,,,00.087120000000,  -0.02000,
,,,00.087160000000,  -0.02000,
,,,00.087200000000,   0.00000,
,,,00.087240000000,  -0.02000,
,,,00.087280000000,  -0.02000,
,,,00.087320000000,   0.00000,
,,,00.087360000000,  -0.02000,
,,,00.087400000000,   0.00000,
,,,00.087440000000,   0.00000,
,,,00.087480000000,   0.00000,
,,,00.087520000000,   0.00000,
,,,00.087560000000,   0.00000,
,,,00.087600000000,   0.00000,
,,,00.087640000000,   0.00000,
,,,00.087680000000,   0.00000,
,,,00.087720000000,   0.00000,
,,,00.087760000000,  -0.02000,
,,,00.087800000000,  -0.02000,
,,,00.087840000000,   0.00000,
,,,00.087880000000,   0.00000,
,,,00.087920000000,  -0.02000,
,,,00.087960000000,   0.00000,
,,,00.088000000000,   0.00000,
,,,00.088040000000,  -0.02000,
,,,00.088080000000,   0.00000,
,,,00.088120000000,  -0.02000,
,,,00.088160000000,  -0.02000,
,,,00.088200000000,  -0.02000,
,,,00.088240000000,  -0.02000,
,,,00.088280000000,   0.00000,
,,,00.088320000000,  -0.02000,
,,,00.088360000000,  -0.02000,
,,,00.088400000000,   0.00000,
,,,00.088440000000,   0.00000,
,,,00.088480000000,   0.00000,
,,,00.088520000000,  -0.02000,
,,,00.088560000000,  -0.02000,
,,,00.088600000000,   0.00000,
,,,00.088640000000,   0.00000,
,,,00.088680000000,  -0.02000,
,,,00.088720000000,   0.00000,
,,,00.088760000000,   0.00000,
,,,00.088800000000,   0.00000,
,,,00.088840000000,   0.00000,
,,,00.088880000000,   0.00000,
,,,00.088920000000,  -0.02000,
,,,00.088960000000,   0.00000,
,,,00.089000000000,  -0.02000,
,,,00.089040000000,  -0.02000,
,,,00.089080000000,   0.00000,
,,,00.089120000000,  -0.02000,
,,,00.089160000000,  -0.02000,
,,,00.089200000000,  -0.02000,
,,,00.089240000000,  -0.02000,
,,,00.089280000000,  -0.02000,
,,,00.089320000000,   0.00000,
,,,00.089360000000,  -0.02000,
,,,00.089400000000,   0.00000,
,,,00.089440000000,   0.00000,
,,,00.089480000000,   0.00000,
,,,00.089520000000,  -0.02000,
,,,00.089560000000,  -0.02000,
,,,00.089600000000,   0.00000,
,,,00.089640000000,   0.00000,
,,,00.089680000000,  -0.02000,
,,,00.089720000000,  -0.02000,
,,,00.089760000000,  -0.02000,
,,,00.089800000000,  -0.02000,
,,,00.089840000000,   0.00000,
,,,00.089880000000,  -0.02000,
,,,00.089920000000,   0.00000,
,,,00.089960000000,   0.00000,
,,,00.090000000000,  -0.02000,
,,,00.090040000000,  -0.02000,
,,,00.090080000000,   0.00000,
,,,00.090120000000,  -0.02000,
,,,00.090160000000,  -0.02000,
,,,00.090200000000,   0.00000,
,,,00.090240000000,   0.00000,
,,,00.090280000000,  -0.02000,
,,,00.090320000000,  -0.02000,
,,,00.090360000000,   0.00000,
,,,00.090400000000,  -0.02000,
,,,00.090440000000,  -0.02000,
,,,00.090480000000,  -0.02000,
,,,00.090520000000,   0.00000,
,,,00.090560000000,  -0.02000,
,,,00.090600000000,   0.00000,
,,,00.090640000000,  -0.02000,
,,,00.090680000000,  -0.02000,
,,,00.090720000000,  -0.02000,
,,,00.090760000000,  -0.02000,
