Record Length,2.500000e+03,,  -0.002200000000,   0.00000,
Sample Interval,2.000000e-05,,  -0.002180000000,  -0.02000,
Trigger Point,1.100000000000e+02,,  -0.002160000000,   0.00000,
,,,  -0.002140000000,  -0.02000,
,,,  -0.002120000000,   0.00000,
,,,  -0.002100000000,   0.00000,
Source,CH2,,  -0.002080000000,  -0.02000,
Vertical Units,V,,  -0.002060000000,  -0.02000,
Vertical Scale,5.000000e-01,,  -0.002040000000,   0.00000,
Vertical Offset,-1.000000e+00,,  -0.002020000000,  -0.02000,
Horizontal Units,s,,  -0.002000000000,  -0.02000,
Horizontal Scale,5.000000e-03,,  -0.001980000000,  -0.02000,
Pt Fmt,Y,,  -0.001960000000,  -0.02000,
Yzero,0.000000e+00,,  -0.001940000000,  -0.02000,
Probe Atten,1.000000e+00,,  -0.001920000000,  -0.02000,
Model Number,TBS1052B-EDU,,  -0.001900000000,  -0.02000,
Serial Number,C012629,,  -0.001880000000,   0.00000,
Firmware Version,FV:v2.52,,  -0.001860000000,  -0.02000,
,,,-00.001840000000,  -0.02000,
,,,-00.001820000000,   0.00000,
,,,-00.001800000000,   0.00000,
,,,-00.001780000000,  -0.02000,
,,,-00.001760000000,  -0.02000,
,,,-00.001740000000,  -0.02000,
,,,-00.001720000000,   0.00000,
,,,-00.001700000000,   0.00000,
,,,-00.001680000000,   0.00000,
,,,-00.001660000000,   0.00000,
,,,-00.001640000000,  -0.02000,
,,,-00.001620000000,   0.00000,
,,,-00.001600000000,   0.00000,
,,,-00.001580000000,  -0.02000,
,,,-00.001560000000,   0.00000,
,,,-00.001540000000,   0.00000,
,,,-00.001520000000,  -0.02000,
,,,-00.001500000000,   0.00000,
,,,-00.001480000000,   0.00000,
,,,-00.001460000000,   0.00000,
,,,-00.001440000000,  -0.02000,
,,,-00.001420000000,  -0.02000,
,,,-00.001400000000,  -0.02000,
,,,-00.001380000000,  -0.02000,
,,,-00.001360000000,  -0.02000,
,,,-00.001340000000,  -0.02000,
,,,-00.001320000000,   0.00000,
,,,-00.001300000000,  -0.02000,
,,,-00.001280000000,   0.00000,
,,,-00.001260000000,   0.00000,
,,,-00.001240000000,   0.00000,
,,,-00.001220000000,   0.00000,
,,,-00.001200000000,   0.00000,
,,,-00.001180000000,  -0.02000,
,,,-00.001160000000,  -0.02000,
,,,-00.001140000000,   0.00000,
,,,-00.001120000000,  -0.02000,
,,,-00.001100000000,   0.00000,
,,,-00.001080000000,   0.00000,
,,,-00.001060000000,  -0.02000,
,,,-00.001040000000,  -0.02000,
,,,-00.001020000000,   0.00000,
,,,-00.001000000000,  -0.02000,
,,,-00.000980000000,   0.00000,
,,,-00.000960000000,  -0.02000,
,,,-00.000940000000,  -0.02000,
,,,-00.000920000000,   0.00000,
,,,-00.000900000000,   0.00000,
,,,-00.000880000000,   0.00000,
,,,-00.000860000000,   0.00000,
,,,-00.000840000000,   0.00000,
,,,-00.000820000000,  -0.02000,
,,,-00.000800000000,  -0.02000,
,,,-00.000780000000,  -0.02000,
,,,-00.000760000000,  -0.02000,
,,,-00.000740000000,   0.00000,
,,,-00.000720000000,   0.00000,
,,,-00.000700000000,  -0.02000,
,,,-00.000680000000,   0.00000,
,,,-00.000660000000,   0.00000,
,,,-00.000640000000,   0.00000,
,,,-00.000620000000,  -0.02000,
,,,-00.000600000000,   0.00000,
,,,-00.000580000000,  -0.02000,
,,,-00.000560000000,  -0.02000,
,,,-00.000540000000,  -0.02000,
,,,-00.000520000000,   0.00000,
,,,-00.000500000000,   0.00000,
,,,-00.000480000000,  -0.02000,
,,,-00.000460000000,   0.00000,
,,,-00.000440000000,   0.00000,
,,,-00.000420000000,   0.00000,
,,,-00.000400000000,  -0.02000,
,,,-00.000380000000,   0.00000,
,,,-00.000360000000,  -0.02000,
,,,-00.000340000000,  -0.02000,
,,,-00.000320000000,  -0.02000,
,,,-00.000300000000,   0.00000,
,,,-00.000280000000,   0.00000,
,,,-00.000260000000,  -0.02000,
,,,-00.000240000000,  -0.02000,
,,,-00.000220000000,  -0.02000,
,,,-00.000200000000,   0.00000,
,,,-00.000180000000,  -0.02000,
,,,-00.000160000000,  -0.02000,
,,,-00.000140000000,  -0.02000,
,,,-00.000120000000,  -0.02000,
,,,-00.000100000000,  -0.02000,
,,,-00.000080000000,  -0.02000,
,,,-00.000060000000,  -0.02000,
,,,-00.000040000000,   0.00000,
,,,-00.000020000000,   0.00000,
,,,-00.000000000000,   0.00000,
,,,00.000020000000,   0.00000,
,,,00.000040000000,  -0.14000,
,,,00.000060000000,  -0.16000,
,,,00.000080000000,  -0.16000,
,,,00.000100000000,  -0.16000,
,,,00.000120000000,  -0.16000,
,,,00.000140000000,  -0.14000,
,,,00.000160000000,  -0.14000,
,,,00.000180000000,  -0.12000,
,,,00.000200000000,  -0.14000,
,,,00.000220000000,  -0.12000,
,,,00.000240000000,  -0.12000,
,,,00.000260000000,  -0.12000,
,,,00.000280000000,  -0.10000,
,,,00.000300000000,  -0.10000,
,,,00.000320000000,  -0.10000,
,,,00.000340000000,  -0.08000,
,,,00.000360000000,  -0.08000,
,,,00.000380000000,  -0.08000,
,,,00.000400000000,  -0.08000,
,,,00.000420000000,  -0.06000,
,,,00.000440000000,  -0.06000,
,,,00.000460000000,  -0.06000,
,,,00.000480000000,  -0.06000,
,,,00.000500000000,  -0.06000,
,,,00.000520000000,  -0.04000,
,,,00.000540000000,  -0.04000,
,,,00.000560000000,  -0.04000,
,,,00.000580000000,  -0.04000,
,,,00.000600000000,  -0.04000,
,,,00.000620000000,  -0.04000,
,,,00.000640000000,  -0.02000,
,,,00.000660000000,  -0.02000,
,,,00.000680000000,  -0.02000,
,,,00.000700000000,  -0.02000,
,,,00.000720000000,  -0.02000,
,,,00.000740000000,  -0.02000,
,,,00.000760000000,  -0.04000,
,,,00.000780000000,  -0.02000,
,,,00.000800000000,  -0.04000,
,,,00.000820000000,  -0.04000,
,,,00.000840000000,  -0.02000,
,,,00.000860000000,  -0.04000,
,,,00.000880000000,  -0.02000,
,,,00.000900000000,  -0.04000,
,,,00.000920000000,  -0.02000,
,,,00.000940000000,  -0.02000,
,,,00.000960000000,  -0.04000,
,,,00.000980000000,  -0.04000,
,,,00.001000000000,  -0.02000,
,,,00.001020000000,  -0.04000,
,,,00.001040000000,  -0.04000,
,,,00.001060000000,  -0.02000,
,,,00.001080000000,  -0.04000,
,,,00.001100000000,  -0.02000,
,,,00.001120000000,  -0.02000,
,,,00.001140000000,  -0.02000,
,,,00.001160000000,  -0.02000,
,,,00.001180000000,  -0.04000,
,,,00.001200000000,  -0.02000,
,,,00.001220000000,  -0.02000,
,,,00.001240000000,  -0.02000,
,,,00.001260000000,  -0.02000,
,,,00.001280000000,  -0.02000,
,,,00.001300000000,  -0.02000,
,,,00.001320000000,   0.00000,
,,,00.001340000000,  -0.02000,
,,,00.001360000000,   0.00000,
,,,00.001380000000,   0.00000,
,,,00.001400000000,   0.00000,
,,,00.001420000000,  -0.02000,
,,,00.001440000000,  -0.02000,
,,,00.001460000000,  -0.02000,
,,,00.001480000000,  -0.02000,
,,,00.001500000000,  -0.02000,
,,,00.001520000000,  -0.02000,
,,,00.001540000000,  -0.02000,
,,,00.001560000000,  -0.02000,
,,,00.001580000000,   0.00000,
,,,00.001600000000,   0.00000,
,,,00.001620000000,   0.00000,
,,,00.001640000000,   0.00000,
,,,00.001660000000,   0.00000,
,,,00.001680000000,  -0.02000,
,,,00.001700000000,  -0.02000,
,,,00.001720000000,   0.00000,
,,,00.001740000000,   0.00000,
,,,00.001760000000,  -0.02000,
,,,00.001780000000,   0.00000,
,,,00.001800000000,   0.00000,
,,,00.001820000000,  -0.02000,
,,,00.001840000000,   0.00000,
,,,00.001860000000,   0.00000,
,,,00.001880000000,   0.00000,
,,,00.001900000000,   0.00000,
,,,00.001920000000,   0.00000,
,,,00.001940000000,  -0.02000,
,,,00.001960000000,   0.00000,
,,,00.001980000000,   0.00000,
,,,00.002000000000,   0.00000,
,,,00.002020000000,   0.00000,
,,,00.002040000000,   0.00000,
,,,00.002060000000,   0.00000,
,,,00.002080000000,   0.00000,
,,,00.002100000000,   0.00000,
,,,00.002120000000,  -0.02000,
,,,00.002140000000,  -0.02000,
,,,00.002160000000,  -0.02000,
,,,00.002180000000,   0.00000,
,,,00.002200000000,   0.00000,
,,,00.002220000000,   0.00000,
,,,00.002240000000,   0.00000,
,,,00.002260000000,   0.00000,
,,,00.002280000000,   0.00000,
,,,00.002300000000,   0.00000,
,,,00.002320000000,   0.00000,
,,,00.002340000000,   0.00000,
,,,00.002360000000,   0.00000,
,,,00.002380000000,   0.00000,
,,,00.002400000000,   0.00000,
,,,00.002420000000,  -0.02000,
,,,00.002440000000,  -0.02000,
,,,00.002460000000,  -0.02000,
,,,00.002480000000,   0.00000,
,,,00.002500000000,   0.00000,
,,,00.002520000000,   0.00000,
,,,00.002540000000,   0.00000,
,,,00.002560000000,   0.00000,
,,,00.002580000000,  -0.02000,
,,,00.002600000000,  -0.02000,
,,,00.002620000000,   0.00000,
,,,00.002640000000,   0.00000,
,,,00.002660000000,  -0.02000,
,,,00.002680000000,  -0.02000,
,,,00.002700000000,   0.00000,
,,,00.002720000000,  -0.02000,
,,,00.002740000000,  -0.02000,
,,,00.002760000000,  -0.02000,
,,,00.002780000000,  -0.02000,
,,,00.002800000000,  -0.02000,
,,,00.002820000000,   0.00000,
,,,00.002840000000,   0.00000,
,,,00.002860000000,  -0.02000,
,,,00.002880000000,   0.00000,
,,,00.002900000000,   0.00000,
,,,00.002920000000,  -0.02000,
,,,00.002940000000,   0.00000,
,,,00.002960000000,   0.00000,
,,,00.002980000000,  -0.02000,
,,,00.003000000000,   0.00000,
,,,00.003020000000,   0.00000,
,,,00.003040000000,   0.00000,
,,,00.003060000000,  -0.02000,
,,,00.003080000000,   0.00000,
,,,00.003100000000,   0.00000,
,,,00.003120000000,   0.00000,
,,,00.003140000000,  -0.02000,
,,,00.003160000000,  -0.02000,
,,,00.003180000000,  -0.02000,
,,,00.003200000000,   0.00000,
,,,00.003220000000,  -0.02000,
,,,00.003240000000,   0.00000,
,,,00.003260000000,   0.00000,
,,,00.003280000000,  -0.02000,
,,,00.003300000000,  -0.02000,
,,,00.003320000000,   0.00000,
,,,00.003340000000,   0.00000,
,,,00.003360000000,   0.00000,
,,,00.003380000000,  -0.02000,
,,,00.003400000000,  -0.02000,
,,,00.003420000000,  -0.02000,
,,,00.003440000000,  -0.02000,
,,,00.003460000000,  -0.02000,
,,,00.003480000000,   0.00000,
,,,00.003500000000,  -0.02000,
,,,00.003520000000,   0.00000,
,,,00.003540000000,  -0.02000,
,,,00.003560000000,  -0.02000,
,,,00.003580000000,   0.00000,
,,,00.003600000000,  -0.02000,
,,,00.003620000000,   0.00000,
,,,00.003640000000,  -0.02000,
,,,00.003660000000,  -0.02000,
,,,00.003680000000,  -0.02000,
,,,00.003700000000,   0.00000,
,,,00.003720000000,   0.00000,
,,,00.003740000000,   0.00000,
,,,00.003760000000,   0.00000,
,,,00.003780000000,   0.00000,
,,,00.003800000000,  -0.02000,
,,,00.003820000000,   0.00000,
,,,00.003840000000,   0.00000,
,,,00.003860000000,   0.00000,
,,,00.003880000000,   0.00000,
,,,00.003900000000,  -0.02000,
,,,00.003920000000,  -0.02000,
,,,00.003940000000,   0.00000,
,,,00.003960000000,   0.00000,
,,,00.003980000000,   0.00000,
,,,00.004000000000,   0.00000,
,,,00.004020000000,  -0.02000,
,,,00.004040000000,   0.00000,
,,,00.004060000000,   0.00000,
,,,00.004080000000,   0.00000,
,,,00.004100000000,  -0.02000,
,,,00.004120000000,   0.00000,
,,,00.004140000000,  -0.02000,
,,,00.004160000000,   0.00000,
,,,00.004180000000,  -0.02000,
,,,00.004200000000,   0.00000,
,,,00.004220000000,   0.00000,
,,,00.004240000000,   0.00000,
,,,00.004260000000,   0.00000,
,,,00.004280000000,  -0.02000,
,,,00.004300000000,   0.00000,
,,,00.004320000000,   0.00000,
,,,00.004340000000,   0.00000,
,,,00.004360000000,   0.00000,
,,,00.004380000000,   0.00000,
,,,00.004400000000,  -0.02000,
,,,00.004420000000,   0.00000,
,,,00.004440000000,  -0.02000,
,,,00.004460000000,  -0.02000,
,,,00.004480000000,  -0.02000,
,,,00.004500000000,  -0.02000,
,,,00.004520000000,  -0.02000,
,,,00.004540000000,  -0.02000,
,,,00.004560000000,  -0.02000,
,,,00.004580000000,  -0.02000,
,,,00.004600000000,  -0.02000,
,,,00.004620000000,   0.00000,
,,,00.004640000000,  -0.02000,
,,,00.004660000000,   0.00000,
,,,00.004680000000,   0.00000,
,,,00.004700000000,  -0.02000,
,,,00.004720000000,   0.00000,
,,,00.004740000000,   0.00000,
,,,00.004760000000,  -0.02000,
,,,00.004780000000,   0.00000,
,,,00.004800000000,   0.00000,
,,,00.004820000000,  -0.02000,
,,,00.004840000000,   0.00000,
,,,00.004860000000,   0.00000,
,,,00.004880000000,   0.00000,
,,,00.004900000000,  -0.02000,
,,,00.004920000000,   0.00000,
,,,00.004940000000,  -0.02000,
,,,00.004960000000,  -0.02000,
,,,00.004980000000,   0.00000,
,,,00.005000000000,  -0.02000,
,,,00.005020000000,   0.00000,
,,,00.005040000000,   0.00000,
,,,00.005060000000,  -0.02000,
,,,00.005080000000,  -0.02000,
,,,00.005100000000,   0.00000,
,,,00.005120000000,  -0.02000,
,,,00.005140000000,   0.00000,
,,,00.005160000000,  -0.02000,
,,,00.005180000000,   0.00000,
,,,00.005200000000,   0.00000,
,,,00.005220000000,  -0.02000,
,,,00.005240000000,  -0.02000,
,,,00.005260000000,   0.00000,
,,,00.005280000000,   0.00000,
,,,00.005300000000,  -0.02000,
,,,00.005320000000,  -0.02000,
,,,00.005340000000,   0.00000,
,,,00.005360000000,  -0.02000,
,,,00.005380000000,   0.00000,
,,,00.005400000000,   0.00000,
,,,00.005420000000,   0.00000,
,,,00.005440000000,  -0.02000,
,,,00.005460000000,   0.00000,
,,,00.005480000000,  -0.02000,
,,,00.005500000000,   0.02000,
,,,00.005520000000,   0.00000,
,,,00.005540000000,   0.00000,
,,,00.005560000000,  -0.02000,
,,,00.005580000000,  -0.02000,
,,,00.005600000000,   0.00000,
,,,00.005620000000,  -0.02000,
,,,00.005640000000,   0.00000,
,,,00.005660000000,   0.00000,
,,,00.005680000000,   0.00000,
,,,00.005700000000,  -0.02000,
,,,00.005720000000,   0.00000,
,,,00.005740000000,  -0.02000,
,,,00.005760000000,   0.00000,
,,,00.005780000000,   0.00000,
,,,00.005800000000,   0.00000,
,,,00.005820000000,   0.00000,
,,,00.005840000000,  -0.02000,
,,,00.005860000000,   0.00000,
,,,00.005880000000,  -0.02000,
,,,00.005900000000,   0.00000,
,,,00.005920000000,  -0.02000,
,,,00.005940000000,  -0.02000,
,,,00.005960000000,  -0.02000,
,,,00.005980000000,  -0.02000,
,,,00.006000000000,   0.00000,
,,,00.006020000000,  -0.02000,
,,,00.006040000000,   0.00000,
,,,00.006060000000,   0.00000,
,,,00.006080000000,  -0.02000,
,,,00.006100000000,  -0.02000,
,,,00.006120000000,   0.00000,
,,,00.006140000000,  -0.02000,
,,,00.006160000000,  -0.02000,
,,,00.006180000000,   0.00000,
,,,00.006200000000,  -0.02000,
,,,00.006220000000,  -0.02000,
,,,00.006240000000,   0.00000,
,,,00.006260000000,   0.00000,
,,,00.006280000000,  -0.02000,
,,,00.006300000000,  -0.02000,
,,,00.006320000000,   0.00000,
,,,00.006340000000,  -0.02000,
,,,00.006360000000,   0.00000,
,,,00.006380000000,  -0.02000,
,,,00.006400000000,   0.00000,
,,,00.006420000000,   0.00000,
,,,00.006440000000,  -0.02000,
,,,00.006460000000,   0.00000,
,,,00.006480000000,   0.00000,
,,,00.006500000000,   0.00000,
,,,00.006520000000,   0.00000,
,,,00.006540000000,   0.00000,
,,,00.006560000000,   0.00000,
,,,00.006580000000,  -0.02000,
,,,00.006600000000,  -0.02000,
,,,00.006620000000,   0.00000,
,,,00.006640000000,   0.00000,
,,,00.006660000000,  -0.02000,
,,,00.006680000000,  -0.02000,
,,,00.006700000000,   0.00000,
,,,00.006720000000,   0.00000,
,,,00.006740000000,   0.00000,
,,,00.006760000000,   0.00000,
,,,00.006780000000,  -0.02000,
,,,00.006800000000,  -0.02000,
,,,00.006820000000,   0.00000,
,,,00.006840000000,  -0.02000,
,,,00.006860000000,   0.00000,
,,,00.006880000000,   0.00000,
,,,00.006900000000,  -0.02000,
,,,00.006920000000,  -0.02000,
,,,00.006940000000,   0.00000,
,,,00.006960000000,  -0.02000,
,,,00.006980000000,  -0.02000,
,,,00.007000000000,   0.00000,
,,,00.007020000000,  -0.02000,
,,,00.007040000000,  -0.02000,
,,,00.007060000000,  -0.02000,
,,,00.007080000000,  -0.02000,
,,,00.007100000000,  -0.02000,
,,,00.007120000000,   0.00000,
,,,00.007140000000,   0.00000,
,,,00.007160000000,  -0.02000,
,,,00.007180000000,   0.00000,
,,,00.007200000000,  -0.02000,
,,,00.007220000000,  -0.02000,
,,,00.007240000000,  -0.02000,
,,,00.007260000000,  -0.02000,
,,,00.007280000000,  -0.02000,
,,,00.007300000000,  -0.02000,
,,,00.007320000000,   0.00000,
,,,00.007340000000,  -0.02000,
,,,00.007360000000,  -0.02000,
,,,00.007380000000,  -0.02000,
,,,00.007400000000,   0.00000,
,,,00.007420000000,  -0.02000,
,,,00.007440000000,  -0.02000,
,,,00.007460000000,   0.00000,
,,,00.007480000000,   0.00000,
,,,00.007500000000,  -0.02000,
,,,00.007520000000,   0.00000,
,,,00.007540000000,  -0.02000,
,,,00.007560000000,  -0.02000,
,,,00.007580000000,  -0.02000,
,,,00.007600000000,   0.00000,
,,,00.007620000000,   0.00000,
,,,00.007640000000,   0.00000,
,,,00.007660000000,   0.00000,
,,,00.007680000000,   0.00000,
,,,00.007700000000,   0.00000,
,,,00.007720000000,   0.00000,
,,,00.007740000000,   0.00000,
,,,00.007760000000,   0.00000,
,,,00.007780000000,  -0.02000,
,,,00.007800000000,   0.00000,
,,,00.007820000000,  -0.02000,
,,,00.007840000000,   0.00000,
,,,00.007860000000,   0.00000,
,,,00.007880000000,   0.00000,
,,,00.007900000000,   0.00000,
,,,00.007920000000,  -0.02000,
,,,00.007940000000,   0.00000,
,,,00.007960000000,  -0.02000,
,,,00.007980000000,   0.00000,
,,,00.008000000000,  -0.02000,
,,,00.008020000000,   0.00000,
,,,00.008040000000,   0.00000,
,,,00.008060000000,   0.00000,
,,,00.008080000000,   0.00000,
,,,00.008100000000,  -0.02000,
,,,00.008120000000,   0.00000,
,,,00.008140000000,   0.00000,
,,,00.008160000000,   0.00000,
,,,00.008180000000,   0.00000,
,,,00.008200000000,   0.00000,
,,,00.008220000000,  -0.02000,
,,,00.008240000000,  -0.02000,
,,,00.008260000000,   0.00000,
,,,00.008280000000,   0.00000,
,,,00.008300000000,   0.00000,
,,,00.008320000000,  -0.02000,
,,,00.008340000000,   0.00000,
,,,00.008360000000,  -0.02000,
,,,00.008380000000,   0.00000,
,,,00.008400000000,  -0.02000,
,,,00.008420000000,  -0.02000,
,,,00.008440000000,  -0.02000,
,,,00.008460000000,  -0.02000,
,,,00.008480000000,   0.00000,
,,,00.008500000000,  -0.02000,
,,,00.008520000000,  -0.02000,
,,,00.008540000000,  -0.02000,
,,,00.008560000000,  -0.02000,
,,,00.008580000000,   0.00000,
,,,00.008600000000,   0.00000,
,,,00.008620000000,  -0.02000,
,,,00.008640000000,  -0.02000,
,,,00.008660000000,  -0.02000,
,,,00.008680000000,  -0.02000,
,,,00.008700000000,   0.00000,
,,,00.008720000000,   0.00000,
,,,00.008740000000,  -0.02000,
,,,00.008760000000,   0.00000,
,,,00.008780000000,   0.00000,
,,,00.008800000000,   0.00000,
,,,00.008820000000,   0.00000,
,,,00.008840000000,  -0.02000,
,,,00.008860000000,   0.00000,
,,,00.008880000000,   0.00000,
,,,00.008900000000,  -0.02000,
,,,00.008920000000,  -0.02000,
,,,00.008940000000,   0.00000,
,,,00.008960000000,  -0.02000,
,,,00.008980000000,   0.00000,
,,,00.009000000000,  -0.02000,
,,,00.009020000000,  -0.02000,
,,,00.009040000000,   0.00000,
,,,00.009060000000,  -0.02000,
,,,00.009080000000,  -0.02000,
,,,00.009100000000,  -0.02000,
,,,00.009120000000,   0.00000,
,,,00.009140000000,  -0.02000,
,,,00.009160000000,   0.00000,
,,,00.009180000000,   0.00000,
,,,00.009200000000,   0.00000,
,,,00.009220000000,  -0.02000,
,,,00.009240000000,  -0.02000,
,,,00.009260000000,   0.00000,
,,,00.009280000000,   0.00000,
,,,00.009300000000,   0.00000,
,,,00.009320000000,  -0.02000,
,,,00.009340000000,  -0.02000,
,,,00.009360000000,   0.00000,
,,,00.009380000000,  -0.02000,
,,,00.009400000000,  -0.02000,
,,,00.009420000000,   0.00000,
,,,00.009440000000,  -0.02000,
,,,00.009460000000,   0.00000,
,,,00.009480000000,  -0.02000,
,,,00.009500000000,   0.00000,
,,,00.009520000000,  -0.02000,
,,,00.009540000000,  -0.02000,
,,,00.009560000000,   0.00000,
,,,00.009580000000,   0.00000,
,,,00.009600000000,   0.00000,
,,,00.009620000000,   0.00000,
,,,00.009640000000,   0.00000,
,,,00.009660000000,  -0.02000,
,,,00.009680000000,   0.00000,
,,,00.009700000000,  -0.02000,
,,,00.009720000000,  -0.02000,
,,,00.009740000000,  -0.02000,
,,,00.009760000000,  -0.02000,
,,,00.009780000000,  -0.02000,
,,,00.009800000000,  -0.02000,
,,,00.009820000000,  -0.02000,
,,,00.009840000000,  -0.02000,
,,,00.009860000000,  -0.02000,
,,,00.009880000000,   0.00000,
,,,00.009900000000,   0.00000,
,,,00.009920000000,  -0.02000,
,,,00.009940000000,   0.00000,
,,,00.009960000000,   0.00000,
,,,00.009980000000,   0.00000,
,,,00.010000000000,   0.00000,
,,,00.010020000000,   0.00000,
,,,00.010040000000,  -0.02000,
,,,00.010060000000,  -0.02000,
,,,00.010080000000,  -0.02000,
,,,00.010100000000,  -0.02000,
,,,00.010120000000,   0.00000,
,,,00.010140000000,   0.00000,
,,,00.010160000000,   0.00000,
,,,00.010180000000,   0.00000,
,,,00.010200000000,   0.00000,
,,,00.010220000000,   0.00000,
,,,00.010240000000,  -0.02000,
,,,00.010260000000,  -0.02000,
,,,00.010280000000,  -0.02000,
,,,00.010300000000,  -0.02000,
,,,00.010320000000,  -0.02000,
,,,00.010340000000,   0.00000,
,,,00.010360000000,   0.00000,
,,,00.010380000000,  -0.02000,
,,,00.010400000000,  -0.02000,
,,,00.010420000000,  -0.02000,
,,,00.010440000000,   0.00000,
,,,00.010460000000,  -0.02000,
,,,00.010480000000,   0.00000,
,,,00.010500000000,  -0.02000,
,,,00.010520000000,  -0.02000,
,,,00.010540000000,   0.00000,
,,,00.010560000000,   0.00000,
,,,00.010580000000,   0.00000,
,,,00.010600000000,   0.00000,
,,,00.010620000000,  -0.02000,
,,,00.010640000000,  -0.02000,
,,,00.010660000000,  -0.02000,
,,,00.010680000000,   0.00000,
,,,00.010700000000,  -0.02000,
,,,00.010720000000,  -0.02000,
,,,00.010740000000,   0.00000,
,,,00.010760000000,   0.00000,
,,,00.010780000000,   0.00000,
,,,00.010800000000,  -0.02000,
,,,00.010820000000,   0.00000,
,,,00.010840000000,   0.00000,
,,,00.010860000000,  -0.02000,
,,,00.010880000000,  -0.02000,
,,,00.010900000000,   0.00000,
,,,00.010920000000,   0.00000,
,,,00.010940000000,  -0.02000,
,,,00.010960000000,  -0.02000,
,,,00.010980000000,  -0.02000,
,,,00.011000000000,   0.00000,
,,,00.011020000000,  -0.02000,
,,,00.011040000000,   0.00000,
,,,00.011060000000,  -0.02000,
,,,00.011080000000,  -0.02000,
,,,00.011100000000,   0.00000,
,,,00.011120000000,   0.00000,
,,,00.011140000000,   0.00000,
,,,00.011160000000,  -0.02000,
,,,00.011180000000,  -0.02000,
,,,00.011200000000,   0.00000,
,,,00.011220000000,   0.00000,
,,,00.011240000000,   0.00000,
,,,00.011260000000,   0.00000,
,,,00.011280000000,  -0.02000,
,,,00.011300000000,  -0.02000,
,,,00.011320000000,   0.00000,
,,,00.011340000000,  -0.02000,
,,,00.011360000000,   0.00000,
,,,00.011380000000,  -0.02000,
,,,00.011400000000,  -0.02000,
,,,00.011420000000,   0.00000,
,,,00.011440000000,  -0.02000,
,,,00.011460000000,  -0.02000,
,,,00.011480000000,   0.00000,
,,,00.011500000000,  -0.02000,
,,,00.011520000000,   0.00000,
,,,00.011540000000,  -0.02000,
,,,00.011560000000,  -0.02000,
,,,00.011580000000,   0.00000,
,,,00.011600000000,   0.00000,
,,,00.011620000000,   0.00000,
,,,00.011640000000,   0.00000,
,,,00.011660000000,   0.00000,
,,,00.011680000000,   0.00000,
,,,00.011700000000,   0.00000,
,,,00.011720000000,   0.00000,
,,,00.011740000000,  -0.02000,
,,,00.011760000000,   0.00000,
,,,00.011780000000,   0.00000,
,,,00.011800000000,   0.00000,
,,,00.011820000000,  -0.02000,
,,,00.011840000000,   0.00000,
,,,00.011860000000,   0.00000,
,,,00.011880000000,   0.00000,
,,,00.011900000000,  -0.02000,
,,,00.011920000000,  -0.02000,
,,,00.011940000000,   0.00000,
,,,00.011960000000,   0.00000,
,,,00.011980000000,  -0.02000,
,,,00.012000000000,  -0.02000,
,,,00.012020000000,  -0.02000,
,,,00.012040000000,  -0.02000,
,,,00.012060000000,   0.00000,
,,,00.012080000000,   0.00000,
,,,00.012100000000,  -0.02000,
,,,00.012120000000,  -0.02000,
,,,00.012140000000,   0.00000,
,,,00.012160000000,   0.00000,
,,,00.012180000000,  -0.02000,
,,,00.012200000000,  -0.02000,
,,,00.012220000000,   0.00000,
,,,00.012240000000,   0.00000,
,,,00.012260000000,  -0.02000,
,,,00.012280000000,   0.00000,
,,,00.012300000000,   0.00000,
,,,00.012320000000,   0.00000,
,,,00.012340000000,  -0.02000,
,,,00.012360000000,  -0.02000,
,,,00.012380000000,  -0.02000,
,,,00.012400000000,  -0.02000,
,,,00.012420000000,  -0.02000,
,,,00.012440000000,   0.00000,
,,,00.012460000000,   0.00000,
,,,00.012480000000,  -0.02000,
,,,00.012500000000,  -0.02000,
,,,00.012520000000,   0.00000,
,,,00.012540000000,   0.00000,
,,,00.012560000000,   0.00000,
,,,00.012580000000,  -0.02000,
,,,00.012600000000,   0.00000,
,,,00.012620000000,  -0.02000,
,,,00.012640000000,   0.00000,
,,,00.012660000000,   0.00000,
,,,00.012680000000,   0.00000,
,,,00.012700000000,  -0.02000,
,,,00.012720000000,   0.00000,
,,,00.012740000000,   0.00000,
,,,00.012760000000,   0.00000,
,,,00.012780000000,   0.00000,
,,,00.012800000000,   0.00000,
,,,00.012820000000,   0.00000,
,,,00.012840000000,  -0.02000,
,,,00.012860000000,  -0.02000,
,,,00.012880000000,   0.00000,
,,,00.012900000000,   0.00000,
,,,00.012920000000,  -0.02000,
,,,00.012940000000,  -0.02000,
,,,00.012960000000,  -0.02000,
,,,00.012980000000,   0.00000,
,,,00.013000000000,   0.00000,
,,,00.013020000000,   0.00000,
,,,00.013040000000,  -0.02000,
,,,00.013060000000,   0.00000,
,,,00.013080000000,   0.00000,
,,,00.013100000000,   0.00000,
,,,00.013120000000,  -0.02000,
,,,00.013140000000,   0.00000,
,,,00.013160000000,   0.00000,
,,,00.013180000000,  -0.02000,
,,,00.013200000000,   0.00000,
,,,00.013220000000,   0.00000,
,,,00.013240000000,   0.00000,
,,,00.013260000000,  -0.02000,
,,,00.013280000000,   0.00000,
,,,00.013300000000,   0.00000,
,,,00.013320000000,  -0.02000,
,,,00.013340000000,  -0.02000,
,,,00.013360000000,   0.00000,
,,,00.013380000000,   0.00000,
,,,00.013400000000,  -0.02000,
,,,00.013420000000,   0.00000,
,,,00.013440000000,  -0.02000,
,,,00.013460000000,   0.00000,
,,,00.013480000000,   0.00000,
,,,00.013500000000,  -0.02000,
,,,00.013520000000,   0.00000,
,,,00.013540000000,  -0.02000,
,,,00.013560000000,  -0.02000,
,,,00.013580000000,   0.00000,
,,,00.013600000000,   0.00000,
,,,00.013620000000,  -0.02000,
,,,00.013640000000,  -0.02000,
,,,00.013660000000,   0.00000,
,,,00.013680000000,  -0.02000,
,,,00.013700000000,  -0.02000,
,,,00.013720000000,  -0.02000,
,,,00.013740000000,  -0.02000,
,,,00.013760000000,  -0.02000,
,,,00.013780000000,   0.00000,
,,,00.013800000000,   0.00000,
,,,00.013820000000,  -0.02000,
,,,00.013840000000,   0.00000,
,,,00.013860000000,  -0.02000,
,,,00.013880000000,  -0.02000,
,,,00.013900000000,  -0.02000,
,,,00.013920000000,   0.00000,
,,,00.013940000000,  -0.02000,
,,,00.013960000000,  -0.02000,
,,,00.013980000000,   0.00000,
,,,00.014000000000,  -0.02000,
,,,00.014020000000,  -0.02000,
,,,00.014040000000,   0.00000,
,,,00.014060000000,   0.00000,
,,,00.014080000000,   0.00000,
,,,00.014100000000,   0.00000,
,,,00.014120000000,   0.00000,
,,,00.014140000000,   0.00000,
,,,00.014160000000,   0.00000,
,,,00.014180000000,   0.00000,
,,,00.014200000000,   0.00000,
,,,00.014220000000,  -0.02000,
,,,00.014240000000,   0.00000,
,,,00.014260000000,   0.00000,
,,,00.014280000000,   0.00000,
,,,00.014300000000,  -0.02000,
,,,00.014320000000,  -0.02000,
,,,00.014340000000,   0.00000,
,,,00.014360000000,   0.00000,
,,,00.014380000000,   0.00000,
,,,00.014400000000,  -0.02000,
,,,00.014420000000,   0.00000,
,,,00.014440000000,  -0.02000,
,,,00.014460000000,   0.00000,
,,,00.014480000000,  -0.02000,
,,,00.014500000000,   0.00000,
,,,00.014520000000,   0.00000,
,,,00.014540000000,   0.00000,
,,,00.014560000000,   0.00000,
,,,00.014580000000,   0.00000,
,,,00.014600000000,  -0.02000,
,,,00.014620000000,  -0.02000,
,,,00.014640000000,   0.00000,
,,,00.014660000000,  -0.02000,
,,,00.014680000000,   0.00000,
,,,00.014700000000,   0.00000,
,,,00.014720000000,   0.00000,
,,,00.014740000000,  -0.02000,
,,,00.014760000000,  -0.02000,
,,,00.014780000000,   0.00000,
,,,00.014800000000,   0.00000,
,,,00.014820000000,  -0.02000,
,,,00.014840000000,  -0.02000,
,,,00.014860000000,  -0.02000,
,,,00.014880000000,   0.00000,
,,,00.014900000000,  -0.02000,
,,,00.014920000000,  -0.02000,
,,,00.014940000000,  -0.02000,
,,,00.014960000000,   0.00000,
,,,00.014980000000,   0.00000,
,,,00.015000000000,   0.00000,
,,,00.015020000000,  -0.02000,
,,,00.015040000000,   0.00000,
,,,00.015060000000,  -0.02000,
,,,00.015080000000,  -0.02000,
,,,00.015100000000,   0.00000,
,,,00.015120000000,   0.00000,
,,,00.015140000000,   0.00000,
,,,00.015160000000,   0.00000,
,,,00.015180000000,  -0.02000,
,,,00.015200000000,  -0.02000,
,,,00.015220000000,  -0.02000,
,,,00.015240000000,  -0.02000,
,,,00.015260000000,  -0.02000,
,,,00.015280000000,   0.00000,
,,,00.015300000000,   0.00000,
,,,00.015320000000,   0.00000,
,,,00.015340000000,  -0.02000,
,,,00.015360000000,  -0.02000,
,,,00.015380000000,  -0.02000,
,,,00.015400000000,  -0.02000,
,,,00.015420000000,   0.00000,
,,,00.015440000000,   0.00000,
,,,00.015460000000,   0.00000,
,,,00.015480000000,   0.00000,
,,,00.015500000000,   0.00000,
,,,00.015520000000,  -0.02000,
,,,00.015540000000,  -0.02000,
,,,00.015560000000,  -0.02000,
,,,00.015580000000,   0.00000,
,,,00.015600000000,   0.00000,
,,,00.015620000000,   0.00000,
,,,00.015640000000,   0.00000,
,,,00.015660000000,   0.00000,
,,,00.015680000000,  -0.02000,
,,,00.015700000000,   0.00000,
,,,00.015720000000,  -0.02000,
,,,00.015740000000,  -0.02000,
,,,00.015760000000,  -0.02000,
,,,00.015780000000,  -0.02000,
,,,00.015800000000,  -0.02000,
,,,00.015820000000,   0.00000,
,,,00.015840000000,   0.00000,
,,,00.015860000000,   0.00000,
,,,00.015880000000,   0.00000,
,,,00.015900000000,  -0.02000,
,,,00.015920000000,   0.00000,
,,,00.015940000000,  -0.02000,
,,,00.015960000000,  -0.02000,
,,,00.015980000000,  -0.02000,
,,,00.016000000000,   0.00000,
,,,00.016020000000,  -0.02000,
,,,00.016040000000,  -0.02000,
,,,00.016060000000,  -0.02000,
,,,00.016080000000,   0.00000,
,,,00.016100000000,   0.00000,
,,,00.016120000000,  -0.02000,
,,,00.016140000000,   0.00000,
,,,00.016160000000,  -0.02000,
,,,00.016180000000,   0.00000,
,,,00.016200000000,  -0.02000,
,,,00.016220000000,   0.00000,
,,,00.016240000000,   0.00000,
,,,00.016260000000,  -0.02000,
,,,00.016280000000,   0.00000,
,,,00.016300000000,  -0.02000,
,,,00.016320000000,  -0.02000,
,,,00.016340000000,  -0.02000,
,,,00.016360000000,  -0.02000,
,,,00.016380000000,  -0.02000,
,,,00.016400000000,   0.00000,
,,,00.016420000000,  -0.02000,
,,,00.016440000000,   0.00000,
,,,00.016460000000,  -0.02000,
,,,00.016480000000,  -0.02000,
,,,00.016500000000,  -0.02000,
,,,00.016520000000,  -0.02000,
,,,00.016540000000,   0.00000,
,,,00.016560000000,   0.00000,
,,,00.016580000000,   0.00000,
,,,00.016600000000,   0.00000,
,,,00.016620000000,   0.00000,
,,,00.016640000000,   0.00000,
,,,00.016660000000,   0.00000,
,,,00.016680000000,   0.00000,
,,,00.016700000000,   0.00000,
,,,00.016720000000,   0.00000,
,,,00.016740000000,  -0.02000,
,,,00.016760000000,  -0.02000,
,,,00.016780000000,   0.00000,
,,,00.016800000000,  -0.02000,
,,,00.016820000000,  -0.02000,
,,,00.016840000000,  -0.02000,
,,,00.016860000000,  -0.02000,
,,,00.016880000000,   0.00000,
,,,00.016900000000,  -0.02000,
,,,00.016920000000,   0.00000,
,,,00.016940000000,   0.00000,
,,,00.016960000000,   0.00000,
,,,00.016980000000,   0.00000,
,,,00.017000000000,  -0.02000,
,,,00.017020000000,   0.00000,
,,,00.017040000000,   0.00000,
,,,00.017060000000,   0.00000,
,,,00.017080000000,   0.00000,
,,,00.017100000000,   0.00000,
,,,00.017120000000,   0.00000,
,,,00.017140000000,   0.00000,
,,,00.017160000000,  -0.02000,
,,,00.017180000000,   0.00000,
,,,00.017200000000,  -0.02000,
,,,00.017220000000,  -0.02000,
,,,00.017240000000,  -0.02000,
,,,00.017260000000,   0.00000,
,,,00.017280000000,  -0.02000,
,,,00.017300000000,   0.00000,
,,,00.017320000000,   0.00000,
,,,00.017340000000,  -0.02000,
,,,00.017360000000,   0.00000,
,,,00.017380000000,   0.00000,
,,,00.017400000000,  -0.02000,
,,,00.017420000000,  -0.02000,
,,,00.017440000000,   0.00000,
,,,00.017460000000,   0.00000,
,,,00.017480000000,  -0.02000,
,,,00.017500000000,  -0.02000,
,,,00.017520000000,   0.00000,
,,,00.017540000000,   0.00000,
,,,00.017560000000,   0.00000,
,,,00.017580000000,   0.00000,
,,,00.017600000000,   0.00000,
,,,00.017620000000,  -0.02000,
,,,00.017640000000,  -0.02000,
,,,00.017660000000,  -0.02000,
,,,00.017680000000,   0.00000,
,,,00.017700000000,   0.00000,
,,,00.017720000000,  -0.02000,
,,,00.017740000000,  -0.02000,
,,,00.017760000000,  -0.02000,
,,,00.017780000000,  -0.02000,
,,,00.017800000000,  -0.02000,
,,,00.017820000000,  -0.02000,
,,,00.017840000000,   0.00000,
,,,00.017860000000,  -0.02000,
,,,00.017880000000,   0.00000,
,,,00.017900000000,  -0.02000,
,,,00.017920000000,   0.00000,
,,,00.017940000000,  -0.02000,
,,,00.017960000000,   0.00000,
,,,00.017980000000,   0.00000,
,,,00.018000000000,  -0.02000,
,,,00.018020000000,  -0.02000,
,,,00.018040000000,   0.00000,
,,,00.018060000000,   0.00000,
,,,00.018080000000,   0.00000,
,,,00.018100000000,   0.00000,
,,,00.018120000000,  -0.02000,
,,,00.018140000000,   0.00000,
,,,00.018160000000,  -0.02000,
,,,00.018180000000,  -0.02000,
,,,00.018200000000,   0.00000,
,,,00.018220000000,  -0.02000,
,,,00.018240000000,   0.00000,
,,,00.018260000000,  -0.02000,
,,,00.018280000000,  -0.02000,
,,,00.018300000000,   0.00000,
,,,00.018320000000,   0.00000,
,,,00.018340000000,  -0.02000,
,,,00.018360000000,  -0.02000,
,,,00.018380000000,  -0.02000,
,,,00.018400000000,   0.00000,
,,,00.018420000000,  -0.02000,
,,,00.018440000000,  -0.02000,
,,,00.018460000000,  -0.02000,
,,,00.018480000000,  -0.02000,
,,,00.018500000000,   0.00000,
,,,00.018520000000,   0.00000,
,,,00.018540000000,   0.00000,
,,,00.018560000000,  -0.02000,
,,,00.018580000000,  -0.02000,
,,,00.018600000000,  -0.02000,
,,,00.018620000000,  -0.02000,
,,,00.018640000000,   0.00000,
,,,00.018660000000,  -0.02000,
,,,00.018680000000,   0.00000,
,,,00.018700000000,   0.00000,
,,,00.018720000000,  -0.02000,
,,,00.018740000000,   0.00000,
,,,00.018760000000,   0.00000,
,,,00.018780000000,  -0.02000,
,,,00.018800000000,  -0.02000,
,,,00.018820000000,   0.00000,
,,,00.018840000000,   0.00000,
,,,00.018860000000,   0.00000,
,,,00.018880000000,   0.00000,
,,,00.018900000000,   0.00000,
,,,00.018920000000,  -0.02000,
,,,00.018940000000,  -0.02000,
,,,00.018960000000,   0.00000,
,,,00.018980000000,   0.00000,
,,,00.019000000000,   0.00000,
,,,00.019020000000,  -0.02000,
,,,00.019040000000,  -0.02000,
,,,00.019060000000,   0.00000,
,,,00.019080000000,  -0.02000,
,,,00.019100000000,   0.00000,
,,,00.019120000000,  -0.02000,
,,,00.019140000000,  -0.02000,
,,,00.019160000000,   0.00000,
,,,00.019180000000,   0.00000,
,,,00.019200000000,   0.00000,
,,,00.019220000000,  -0.02000,
,,,00.019240000000,  -0.02000,
,,,00.019260000000,  -0.02000,
,,,00.019280000000,  -0.02000,
,,,00.019300000000,   0.00000,
,,,00.019320000000,   0.00000,
,,,00.019340000000,  -0.02000,
,,,00.019360000000,  -0.02000,
,,,00.019380000000,   0.00000,
,,,00.019400000000,  -0.02000,
,,,00.019420000000,  -0.02000,
,,,00.019440000000,  -0.02000,
,,,00.019460000000,  -0.02000,
,,,00.019480000000,  -0.02000,
,,,00.019500000000,   0.00000,
,,,00.019520000000,   0.00000,
,,,00.019540000000,   0.00000,
,,,00.019560000000,  -0.02000,
,,,00.019580000000,   0.00000,
,,,00.019600000000,   0.00000,
,,,00.019620000000,  -0.02000,
,,,00.019640000000,   0.00000,
,,,00.019660000000,  -0.02000,
,,,00.019680000000,   0.00000,
,,,00.019700000000,   0.00000,
,,,00.019720000000,   0.00000,
,,,00.019740000000,   0.00000,
,,,00.019760000000,  -0.02000,
,,,00.019780000000,  -0.02000,
,,,00.019800000000,  -0.02000,
,,,00.019820000000,  -0.02000,
,,,00.019840000000,  -0.02000,
,,,00.019860000000,   0.00000,
,,,00.019880000000,   0.00000,
,,,00.019900000000,   0.00000,
,,,00.019920000000,   0.00000,
,,,00.019940000000,   0.00000,
,,,00.019960000000,   0.00000,
,,,00.019980000000,  -0.02000,
,,,00.020000000000,  -0.02000,
,,,00.020020000000,  -0.02000,
,,,00.020040000000,   0.00000,
,,,00.020060000000,   0.00000,
,,,00.020080000000,  -0.02000,
,,,00.020100000000,   0.00000,
,,,00.020120000000,  -0.02000,
,,,00.020140000000,  -0.02000,
,,,00.020160000000,  -0.02000,
,,,00.020180000000,   0.00000,
,,,00.020200000000,   0.00000,
,,,00.020220000000,  -0.02000,
,,,00.020240000000,  -0.02000,
,,,00.020260000000,  -0.02000,
,,,00.020280000000,  -0.02000,
,,,00.020300000000,  -0.02000,
,,,00.020320000000,  -0.02000,
,,,00.020340000000,   0.00000,
,,,00.020360000000,   0.00000,
,,,00.020380000000,   0.00000,
,,,00.020400000000,   0.00000,
,,,00.020420000000,   0.00000,
,,,00.020440000000,  -0.02000,
,,,00.020460000000,  -0.02000,
,,,00.020480000000,  -0.02000,
,,,00.020500000000,   0.00000,
,,,00.020520000000,   0.00000,
,,,00.020540000000,  -0.02000,
,,,00.020560000000,  -0.02000,
,,,00.020580000000,  -0.02000,
,,,00.020600000000,  -0.02000,
,,,00.020620000000,   0.00000,
,,,00.020640000000,   0.00000,
,,,00.020660000000,  -0.02000,
,,,00.020680000000,   0.00000,
,,,00.020700000000,   0.00000,
,,,00.020720000000,   0.00000,
,,,00.020740000000,  -0.02000,
,,,00.020760000000,   0.00000,
,,,00.020780000000,  -0.02000,
,,,00.020800000000,   0.00000,
,,,00.020820000000,  -0.02000,
,,,00.020840000000,  -0.02000,
,,,00.020860000000,  -0.02000,
,,,00.020880000000,  -0.02000,
,,,00.020900000000,  -0.02000,
,,,00.020920000000,  -0.02000,
,,,00.020940000000,   0.00000,
,,,00.020960000000,   0.00000,
,,,00.020980000000,   0.00000,
,,,00.021000000000,   0.00000,
,,,00.021020000000,  -0.02000,
,,,00.021040000000,  -0.02000,
,,,00.021060000000,   0.00000,
,,,00.021080000000,  -0.02000,
,,,00.021100000000,  -0.02000,
,,,00.021120000000,  -0.02000,
,,,00.021140000000,   0.00000,
,,,00.021160000000,   0.00000,
,,,00.021180000000,   0.00000,
,,,00.021200000000,   0.00000,
,,,00.021220000000,   0.00000,
,,,00.021240000000,   0.00000,
,,,00.021260000000,   0.00000,
,,,00.021280000000,  -0.02000,
,,,00.021300000000,   0.00000,
,,,00.021320000000,  -0.02000,
,,,00.021340000000,  -0.02000,
,,,00.021360000000,  -0.02000,
,,,00.021380000000,  -0.02000,
,,,00.021400000000,   0.00000,
,,,00.021420000000,  -0.02000,
,,,00.021440000000,  -0.02000,
,,,00.021460000000,  -0.02000,
,,,00.021480000000,  -0.02000,
,,,00.021500000000,   0.00000,
,,,00.021520000000,   0.00000,
,,,00.021540000000,  -0.02000,
,,,00.021560000000,   0.00000,
,,,00.021580000000,  -0.02000,
,,,00.021600000000,   0.00000,
,,,00.021620000000,  -0.02000,
,,,00.021640000000,  -0.02000,
,,,00.021660000000,   0.00000,
,,,00.021680000000,  -0.02000,
,,,00.021700000000,  -0.02000,
,,,00.021720000000,   0.00000,
,,,00.021740000000,   0.00000,
,,,00.021760000000,  -0.02000,
,,,00.021780000000,   0.00000,
,,,00.021800000000,  -0.02000,
,,,00.021820000000,  -0.02000,
,,,00.021840000000,   0.00000,
,,,00.021860000000,  -0.02000,
,,,00.021880000000,  -0.02000,
,,,00.021900000000,   0.00000,
,,,00.021920000000,   0.00000,
,,,00.021940000000,  -0.02000,
,,,00.021960000000,   0.00000,
,,,00.021980000000,  -0.02000,
,,,00.022000000000,   0.00000,
,,,00.022020000000,   0.00000,
,,,00.022040000000,   0.00000,
,,,00.022060000000,   0.00000,
,,,00.022080000000,  -0.02000,
,,,00.022100000000,  -0.02000,
,,,00.022120000000,  -0.02000,
,,,00.022140000000,  -0.02000,
,,,00.022160000000,   0.00000,
,,,00.022180000000,  -0.02000,
,,,00.022200000000,   0.00000,
,,,00.022220000000,   0.00000,
,,,00.022240000000,   0.00000,
,,,00.022260000000,  -0.02000,
,,,00.022280000000,  -0.02000,
,,,00.022300000000,  -0.02000,
,,,00.022320000000,   0.00000,
,,,00.022340000000,   0.00000,
,,,00.022360000000,  -0.02000,
,,,00.022380000000,   0.00000,
,,,00.022400000000,   0.00000,
,,,00.022420000000,   0.00000,
,,,00.022440000000,  -0.02000,
,,,00.022460000000,   0.00000,
,,,00.022480000000,  -0.02000,
,,,00.022500000000,  -0.02000,
,,,00.022520000000,   0.00000,
,,,00.022540000000,   0.00000,
,,,00.022560000000,   0.00000,
,,,00.022580000000,   0.00000,
,,,00.022600000000,  -0.02000,
,,,00.022620000000,   0.00000,
,,,00.022640000000,  -0.02000,
,,,00.022660000000,  -0.02000,
,,,00.022680000000,  -0.02000,
,,,00.022700000000,   0.00000,
,,,00.022720000000,   0.00000,
,,,00.022740000000,   0.00000,
,,,00.022760000000,   0.00000,
,,,00.022780000000,  -0.02000,
,,,00.022800000000,   0.00000,
,,,00.022820000000,  -0.02000,
,,,00.022840000000,  -0.02000,
,,,00.022860000000,   0.00000,
,,,00.022880000000,   0.00000,
,,,00.022900000000,   0.00000,
,,,00.022920000000,  -0.02000,
,,,00.022940000000,   0.00000,
,,,00.022960000000,   0.00000,
,,,00.022980000000,   0.00000,
,,,00.023000000000,  -0.02000,
,,,00.023020000000,   0.00000,
,,,00.023040000000,   0.00000,
,,,00.023060000000,  -0.02000,
,,,00.023080000000,   0.00000,
,,,00.023100000000,  -0.02000,
,,,00.023120000000,  -0.02000,
,,,00.023140000000,  -0.02000,
,,,00.023160000000,  -0.02000,
,,,00.023180000000,  -0.02000,
,,,00.023200000000,  -0.02000,
,,,00.023220000000,   0.00000,
,,,00.023240000000,  -0.02000,
,,,00.023260000000,   0.00000,
,,,00.023280000000,   0.00000,
,,,00.023300000000,  -0.02000,
,,,00.023320000000,   0.00000,
,,,00.023340000000,   0.00000,
,,,00.023360000000,  -0.02000,
,,,00.023380000000,  -0.02000,
,,,00.023400000000,   0.00000,
,,,00.023420000000,  -0.02000,
,,,00.023440000000,  -0.02000,
,,,00.023460000000,   0.00000,
,,,00.023480000000,   0.00000,
,,,00.023500000000,  -0.02000,
,,,00.023520000000,   0.00000,
,,,00.023540000000,   0.00000,
,,,00.023560000000,   0.00000,
,,,00.023580000000,   0.00000,
,,,00.023600000000,  -0.02000,
,,,00.023620000000,  -0.02000,
,,,00.023640000000,   0.00000,
,,,00.023660000000,  -0.02000,
,,,00.023680000000,   0.00000,
,,,00.023700000000,  -0.02000,
,,,00.023720000000,  -0.02000,
,,,00.023740000000,   0.00000,
,,,00.023760000000,  -0.02000,
,,,00.023780000000,  -0.02000,
,,,00.023800000000,  -0.02000,
,,,00.023820000000,   0.00000,
,,,00.023840000000,   0.00000,
,,,00.023860000000,  -0.02000,
,,,00.023880000000,  -0.02000,
,,,00.023900000000,  -0.02000,
,,,00.023920000000,   0.00000,
,,,00.023940000000,  -0.02000,
,,,00.023960000000,   0.00000,
,,,00.023980000000,   0.00000,
,,,00.024000000000,  -0.02000,
,,,00.024020000000,   0.00000,
,,,00.024040000000,   0.00000,
,,,00.024060000000,   0.00000,
,,,00.024080000000,   0.00000,
,,,00.024100000000,   0.00000,
,,,00.024120000000,  -0.02000,
,,,00.024140000000,  -0.02000,
,,,00.024160000000,   0.00000,
,,,00.024180000000,  -0.02000,
,,,00.024200000000,   0.00000,
,,,00.024220000000,   0.00000,
,,,00.024240000000,  -0.02000,
,,,00.024260000000,  -0.02000,
,,,00.024280000000,  -0.02000,
,,,00.024300000000,   0.00000,
,,,00.024320000000,   0.00000,
,,,00.024340000000,   0.00000,
,,,00.024360000000,   0.00000,
,,,00.024380000000,   0.00000,
,,,00.024400000000,  -0.02000,
,,,00.024420000000,  -0.02000,
,,,00.024440000000,  -0.02000,
,,,00.024460000000,   0.00000,
,,,00.024480000000,  -0.02000,
,,,00.024500000000,  -0.02000,
,,,00.024520000000,   0.00000,
,,,00.024540000000,   0.00000,
,,,00.024560000000,  -0.02000,
,,,00.024580000000,   0.00000,
,,,00.024600000000,   0.00000,
,,,00.024620000000,  -0.02000,
,,,00.024640000000,   0.00000,
,,,00.024660000000,  -0.02000,
,,,00.024680000000,  -0.02000,
,,,00.024700000000,   0.00000,
,,,00.024720000000,   0.00000,
,,,00.024740000000,   0.00000,
,,,00.024760000000,  -0.02000,
,,,00.024780000000,  -0.02000,
,,,00.024800000000,   0.00000,
,,,00.024820000000,   0.00000,
,,,00.024840000000,  -0.02000,
,,,00.024860000000,   0.00000,
,,,00.024880000000,  -0.02000,
,,,00.024900000000,   0.00000,
,,,00.024920000000,   0.00000,
,,,00.024940000000,   0.00000,
,,,00.024960000000,  -0.02000,
,,,00.024980000000,  -0.02000,
,,,00.025000000000,   0.00000,
,,,00.025020000000,   0.00000,
,,,00.025040000000,  -0.02000,
,,,00.025060000000,   0.00000,
,,,00.025080000000,  -0.02000,
,,,00.025100000000,  -0.02000,
,,,00.025120000000,  -0.02000,
,,,00.025140000000,   0.00000,
,,,00.025160000000,  -0.02000,
,,,00.025180000000,  -0.02000,
,,,00.025200000000,  -0.02000,
,,,00.025220000000,  -0.02000,
,,,00.025240000000,  -0.02000,
,,,00.025260000000,  -0.02000,
,,,00.025280000000,  -0.02000,
,,,00.025300000000,  -0.02000,
,,,00.025320000000,   0.00000,
,,,00.025340000000,  -0.02000,
,,,00.025360000000,   0.00000,
,,,00.025380000000,   0.00000,
,,,00.025400000000,  -0.02000,
,,,00.025420000000,  -0.02000,
,,,00.025440000000,   0.00000,
,,,00.025460000000,  -0.02000,
,,,00.025480000000,  -0.02000,
,,,00.025500000000,  -0.02000,
,,,00.025520000000,   0.00000,
,,,00.025540000000,   0.00000,
,,,00.025560000000,  -0.02000,
,,,00.025580000000,   0.00000,
,,,00.025600000000,   0.00000,
,,,00.025620000000,   0.00000,
,,,00.025640000000,  -0.02000,
,,,00.025660000000,  -0.02000,
,,,00.025680000000,  -0.02000,
,,,00.025700000000,   0.00000,
,,,00.025720000000,  -0.02000,
,,,00.025740000000,  -0.02000,
,,,00.025760000000,   0.00000,
,,,00.025780000000,  -0.02000,
,,,00.025800000000,   0.00000,
,,,00.025820000000,   0.00000,
,,,00.025840000000,   0.00000,
,,,00.025860000000,   0.00000,
,,,00.025880000000,   0.00000,
,,,00.025900000000,   0.00000,
,,,00.025920000000,  -0.02000,
,,,00.025940000000,   0.00000,
,,,00.025960000000,   0.00000,
,,,00.025980000000,  -0.02000,
,,,00.026000000000,  -0.02000,
,,,00.026020000000,   0.00000,
,,,00.026040000000,  -0.02000,
,,,00.026060000000,  -0.02000,
,,,00.026080000000,   0.00000,
,,,00.026100000000,   0.00000,
,,,00.026120000000,   0.00000,
,,,00.026140000000,   0.00000,
,,,00.026160000000,  -0.02000,
,,,00.026180000000,  -0.02000,
,,,00.026200000000,  -0.02000,
,,,00.026220000000,   0.00000,
,,,00.026240000000,   0.00000,
,,,00.026260000000,   0.00000,
,,,00.026280000000,   0.00000,
,,,00.026300000000,   0.00000,
,,,00.026320000000,  -0.02000,
,,,00.026340000000,   0.00000,
,,,00.026360000000,   0.00000,
,,,00.026380000000,   0.00000,
,,,00.026400000000,  -0.02000,
,,,00.026420000000,   0.00000,
,,,00.026440000000,   0.00000,
,,,00.026460000000,   0.00000,
,,,00.026480000000,  -0.02000,
,,,00.026500000000,  -0.02000,
,,,00.026520000000,  -0.02000,
,,,00.026540000000,   0.00000,
,,,00.026560000000,   0.00000,
,,,00.026580000000,  -0.02000,
,,,00.026600000000,   0.00000,
,,,00.026620000000,   0.00000,
,,,00.026640000000,  -0.02000,
,,,00.026660000000,   0.00000,
,,,00.026680000000,   0.00000,
,,,00.026700000000,  -0.02000,
,,,00.026720000000,  -0.02000,
,,,00.026740000000,   0.00000,
,,,00.026760000000,   0.00000,
,,,00.026780000000,  -0.02000,
,,,00.026800000000,   0.00000,
,,,00.026820000000,   0.00000,
,,,00.026840000000,   0.00000,
,,,00.026860000000,   0.00000,
,,,00.026880000000,  -0.02000,
,,,00.026900000000,  -0.02000,
,,,00.026920000000,   0.00000,
,,,00.026940000000,  -0.02000,
,,,00.026960000000,   0.00000,
,,,00.026980000000,   0.00000,
,,,00.027000000000,  -0.02000,
,,,00.027020000000,   0.00000,
,,,00.027040000000,  -0.02000,
,,,00.027060000000,   0.00000,
,,,00.027080000000,  -0.02000,
,,,00.027100000000,   0.00000,
,,,00.027120000000,  -0.02000,
,,,00.027140000000,   0.00000,
,,,00.027160000000,   0.00000,
,,,00.027180000000,   0.00000,
,,,00.027200000000,   0.00000,
,,,00.027220000000,   0.00000,
,,,00.027240000000,  -0.02000,
,,,00.027260000000,  -0.02000,
,,,00.027280000000,   0.00000,
,,,00.027300000000,  -0.02000,
,,,00.027320000000,   0.00000,
,,,00.027340000000,   0.00000,
,,,00.027360000000,  -0.02000,
,,,00.027380000000,   0.00000,
,,,00.027400000000,   0.00000,
,,,00.027420000000,  -0.02000,
,,,00.027440000000,   0.00000,
,,,00.027460000000,   0.00000,
,,,00.027480000000,   0.00000,
,,,00.027500000000,  -0.02000,
,,,00.027520000000,  -0.02000,
,,,00.027540000000,   0.00000,
,,,00.027560000000,   0.00000,
,,,00.027580000000,  -0.02000,
,,,00.027600000000,   0.00000,
,,,00.027620000000,   0.00000,
,,,00.027640000000,  -0.02000,
,,,00.027660000000,  -0.02000,
,,,00.027680000000,   0.00000,
,,,00.027700000000,  -0.02000,
,,,00.027720000000,  -0.02000,
,,,00.027740000000,   0.00000,
,,,00.027760000000,   0.00000,
,,,00.027780000000,  -0.02000,
,,,00.027800000000,   0.00000,
,,,00.027820000000,  -0.02000,
,,,00.027840000000,   0.00000,
,,,00.027860000000,  -0.02000,
,,,00.027880000000,  -0.02000,
,,,00.027900000000,   0.00000,
,,,00.027920000000,  -0.02000,
,,,00.027940000000,  -0.02000,
,,,00.027960000000,   0.00000,
,,,00.027980000000,  -0.02000,
,,,00.028000000000,   0.00000,
,,,00.028020000000,   0.00000,
,,,00.028040000000,  -0.26000,
,,,00.028060000000,  -0.30000,
,,,00.028080000000,  -0.28000,
,,,00.028100000000,  -0.28000,
,,,00.028120000000,  -0.28000,
,,,00.028140000000,  -0.26000,
,,,00.028160000000,  -0.26000,
,,,00.028180000000,  -0.24000,
,,,00.028200000000,  -0.26000,
,,,00.028220000000,  -0.22000,
,,,00.028240000000,  -0.22000,
,,,00.028260000000,  -0.20000,
,,,00.028280000000,  -0.20000,
,,,00.028300000000,  -0.18000,
,,,00.028320000000,  -0.16000,
,,,00.028340000000,  -0.16000,
,,,00.028360000000,  -0.14000,
,,,00.028380000000,  -0.14000,
,,,00.028400000000,  -0.12000,
,,,00.028420000000,  -0.10000,
,,,00.028440000000,  -0.10000,
,,,00.028460000000,  -0.10000,
,,,00.028480000000,  -0.10000,
,,,00.028500000000,  -0.08000,
,,,00.028520000000,  -0.06000,
,,,00.028540000000,  -0.06000,
,,,00.028560000000,  -0.06000,
,,,00.028580000000,  -0.04000,
,,,00.028600000000,  -0.06000,
,,,00.028620000000,  -0.04000,
,,,00.028640000000,  -0.04000,
,,,00.028660000000,  -0.02000,
,,,00.028680000000,  -0.02000,
,,,00.028700000000,   0.00000,
,,,00.028720000000,  -0.02000,
,,,00.028740000000,  -0.02000,
,,,00.028760000000,  -0.02000,
,,,00.028780000000,   0.00000,
,,,00.028800000000,   0.00000,
,,,00.028820000000,   0.00000,
,,,00.028840000000,   0.00000,
,,,00.028860000000,  -0.02000,
,,,00.028880000000,   0.00000,
,,,00.028900000000,   0.00000,
,,,00.028920000000,   0.00000,
,,,00.028940000000,  -0.02000,
,,,00.028960000000,   0.00000,
,,,00.028980000000,   0.00000,
,,,00.029000000000,   0.00000,
,,,00.029020000000,   0.00000,
,,,00.029040000000,  -0.02000,
,,,00.029060000000,   0.00000,
,,,00.029080000000,   0.00000,
,,,00.029100000000,   0.00000,
,,,00.029120000000,   0.00000,
,,,00.029140000000,   0.00000,
,,,00.029160000000,   0.00000,
,,,00.029180000000,   0.00000,
,,,00.029200000000,   0.00000,
,,,00.029220000000,   0.00000,
,,,00.029240000000,   0.00000,
,,,00.029260000000,   0.00000,
,,,00.029280000000,   0.00000,
,,,00.029300000000,   0.00000,
,,,00.029320000000,   0.00000,
,,,00.029340000000,   0.00000,
,,,00.029360000000,   0.00000,
,,,00.029380000000,   0.00000,
,,,00.029400000000,   0.00000,
,,,00.029420000000,   0.00000,
,,,00.029440000000,   0.00000,
,,,00.029460000000,   0.02000,
,,,00.029480000000,   0.00000,
,,,00.029500000000,   0.00000,
,,,00.029520000000,   0.00000,
,,,00.029540000000,   0.00000,
,,,00.029560000000,   0.00000,
,,,00.029580000000,   0.00000,
,,,00.029600000000,   0.00000,
,,,00.029620000000,   0.00000,
,,,00.029640000000,   0.00000,
,,,00.029660000000,   0.00000,
,,,00.029680000000,  -0.02000,
,,,00.029700000000,   0.00000,
,,,00.029720000000,   0.00000,
,,,00.029740000000,   0.00000,
,,,00.029760000000,   0.00000,
,,,00.029780000000,  -0.02000,
,,,00.029800000000,  -0.02000,
,,,00.029820000000,   0.00000,
,,,00.029840000000,  -0.02000,
,,,00.029860000000,   0.00000,
,,,00.029880000000,   0.00000,
,,,00.029900000000,  -0.02000,
,,,00.029920000000,   0.00000,
,,,00.029940000000,   0.00000,
,,,00.029960000000,   0.00000,
,,,00.029980000000,   0.00000,
,,,00.030000000000,   0.00000,
,,,00.030020000000,   0.00000,
,,,00.030040000000,  -0.02000,
,,,00.030060000000,   0.00000,
,,,00.030080000000,  -0.02000,
,,,00.030100000000,  -0.02000,
,,,00.030120000000,   0.00000,
,,,00.030140000000,   0.00000,
,,,00.030160000000,  -0.02000,
,,,00.030180000000,  -0.02000,
,,,00.030200000000,   0.00000,
,,,00.030220000000,  -0.02000,
,,,00.030240000000,  -0.02000,
,,,00.030260000000,  -0.02000,
,,,00.030280000000,  -0.02000,
,,,00.030300000000,  -0.02000,
,,,00.030320000000,  -0.02000,
,,,00.030340000000,  -0.02000,
,,,00.030360000000,  -0.02000,
,,,00.030380000000,   0.00000,
,,,00.030400000000,   0.00000,
,,,00.030420000000,   0.00000,
,,,00.030440000000,  -0.02000,
,,,00.030460000000,  -0.02000,
,,,00.030480000000,  -0.02000,
,,,00.030500000000,  -0.02000,
,,,00.030520000000,  -0.02000,
,,,00.030540000000,  -0.02000,
,,,00.030560000000,  -0.02000,
,,,00.030580000000,   0.00000,
,,,00.030600000000,   0.00000,
,,,00.030620000000,  -0.02000,
,,,00.030640000000,   0.00000,
,,,00.030660000000,   0.00000,
,,,00.030680000000,  -0.02000,
,,,00.030700000000,  -0.02000,
,,,00.030720000000,  -0.02000,
,,,00.030740000000,  -0.02000,
,,,00.030760000000,   0.00000,
,,,00.030780000000,   0.00000,
,,,00.030800000000,  -0.02000,
,,,00.030820000000,  -0.02000,
,,,00.030840000000,  -0.02000,
,,,00.030860000000,  -0.02000,
,,,00.030880000000,  -0.02000,
,,,00.030900000000,   0.00000,
,,,00.030920000000,  -0.02000,
,,,00.030940000000,  -0.02000,
,,,00.030960000000,   0.00000,
,,,00.030980000000,   0.00000,
,,,00.031000000000,   0.00000,
,,,00.031020000000,  -0.02000,
,,,00.031040000000,  -0.02000,
,,,00.031060000000,   0.00000,
,,,00.031080000000,  -0.02000,
,,,00.031100000000,  -0.02000,
,,,00.031120000000,  -0.02000,
,,,00.031140000000,  -0.02000,
,,,00.031160000000,  -0.02000,
,,,00.031180000000,   0.00000,
,,,00.031200000000,   0.00000,
,,,00.031220000000,   0.00000,
,,,00.031240000000,   0.00000,
,,,00.031260000000,  -0.02000,
,,,00.031280000000,  -0.02000,
,,,00.031300000000,  -0.02000,
,,,00.031320000000,  -0.02000,
,,,00.031340000000,   0.00000,
,,,00.031360000000,   0.00000,
,,,00.031380000000,   0.00000,
,,,00.031400000000,  -0.02000,
,,,00.031420000000,  -0.02000,
,,,00.031440000000,  -0.02000,
,,,00.031460000000,  -0.02000,
,,,00.031480000000,  -0.02000,
,,,00.031500000000,   0.00000,
,,,00.031520000000,   0.00000,
,,,00.031540000000,  -0.02000,
,,,00.031560000000,  -0.02000,
,,,00.031580000000,   0.00000,
,,,00.031600000000,  -0.02000,
,,,00.031620000000,  -0.02000,
,,,00.031640000000,   0.00000,
,,,00.031660000000,   0.00000,
,,,00.031680000000,  -0.02000,
,,,00.031700000000,  -0.02000,
,,,00.031720000000,  -0.02000,
,,,00.031740000000,  -0.02000,
,,,00.031760000000,   0.00000,
,,,00.031780000000,  -0.02000,
,,,00.031800000000,  -0.02000,
,,,00.031820000000,   0.00000,
,,,00.031840000000,   0.00000,
,,,00.031860000000,   0.00000,
,,,00.031880000000,   0.00000,
,,,00.031900000000,   0.00000,
,,,00.031920000000,  -0.02000,
,,,00.031940000000,  -0.02000,
,,,00.031960000000,   0.00000,
,,,00.031980000000,   0.00000,
,,,00.032000000000,   0.00000,
,,,00.032020000000,  -0.02000,
,,,00.032040000000,   0.00000,
,,,00.032060000000,   0.00000,
,,,00.032080000000,   0.00000,
,,,00.032100000000,  -0.02000,
,,,00.032120000000,   0.00000,
,,,00.032140000000,   0.00000,
,,,00.032160000000,   0.00000,
,,,00.032180000000,  -0.02000,
,,,00.032200000000,  -0.02000,
,,,00.032220000000,   0.00000,
,,,00.032240000000,  -0.02000,
,,,00.032260000000,   0.00000,
,,,00.032280000000,  -0.02000,
,,,00.032300000000,   0.00000,
,,,00.032320000000,   0.00000,
,,,00.032340000000,  -0.02000,
,,,00.032360000000,   0.00000,
,,,00.032380000000,  -0.02000,
,,,00.032400000000,  -0.02000,
,,,00.032420000000,   0.00000,
,,,00.032440000000,   0.00000,
,,,00.032460000000,   0.00000,
,,,00.032480000000,  -0.02000,
,,,00.032500000000,  -0.02000,
,,,00.032520000000,   0.00000,
,,,00.032540000000,   0.00000,
,,,00.032560000000,  -0.02000,
,,,00.032580000000,  -0.02000,
,,,00.032600000000,  -0.02000,
,,,00.032620000000,  -0.02000,
,,,00.032640000000,   0.00000,
,,,00.032660000000,  -0.02000,
,,,00.032680000000,   0.00000,
,,,00.032700000000,  -0.02000,
,,,00.032720000000,   0.00000,
,,,00.032740000000,  -0.02000,
,,,00.032760000000,   0.00000,
,,,00.032780000000,   0.00000,
,,,00.032800000000,   0.00000,
,,,00.032820000000,   0.00000,
,,,00.032840000000,  -0.02000,
,,,00.032860000000,   0.00000,
,,,00.032880000000,   0.00000,
,,,00.032900000000,   0.00000,
,,,00.032920000000,  -0.02000,
,,,00.032940000000,  -0.02000,
,,,00.032960000000,   0.00000,
,,,00.032980000000,   0.00000,
,,,00.033000000000,  -0.02000,
,,,00.033020000000,   0.00000,
,,,00.033040000000,   0.00000,
,,,00.033060000000,  -0.02000,
,,,00.033080000000,   0.00000,
,,,00.033100000000,  -0.02000,
,,,00.033120000000,  -0.02000,
,,,00.033140000000,   0.00000,
,,,00.033160000000,   0.00000,
,,,00.033180000000,   0.00000,
,,,00.033200000000,  -0.02000,
,,,00.033220000000,  -0.02000,
,,,00.033240000000,  -0.02000,
,,,00.033260000000,  -0.02000,
,,,00.033280000000,   0.00000,
,,,00.033300000000,  -0.02000,
,,,00.033320000000,  -0.02000,
,,,00.033340000000,   0.00000,
,,,00.033360000000,   0.00000,
,,,00.033380000000,  -0.02000,
,,,00.033400000000,   0.00000,
,,,00.033420000000,   0.00000,
,,,00.033440000000,  -0.02000,
,,,00.033460000000,  -0.02000,
,,,00.033480000000,  -0.02000,
,,,00.033500000000,  -0.02000,
,,,00.033520000000,  -0.02000,
,,,00.033540000000,   0.00000,
,,,00.033560000000,  -0.02000,
,,,00.033580000000,   0.00000,
,,,00.033600000000,  -0.02000,
,,,00.033620000000,  -0.02000,
,,,00.033640000000,  -0.02000,
,,,00.033660000000,  -0.02000,
,,,00.033680000000,  -0.02000,
,,,00.033700000000,  -0.02000,
,,,00.033720000000,  -0.02000,
,,,00.033740000000,   0.00000,
,,,00.033760000000,   0.00000,
,,,00.033780000000,   0.00000,
,,,00.033800000000,  -0.02000,
,,,00.033820000000,  -0.02000,
,,,00.033840000000,   0.00000,
,,,00.033860000000,  -0.02000,
,,,00.033880000000,  -0.02000,
,,,00.033900000000,   0.00000,
,,,00.033920000000,  -0.02000,
,,,00.033940000000,   0.00000,
,,,00.033960000000,   0.00000,
,,,00.033980000000,   0.00000,
,,,00.034000000000,  -0.02000,
,,,00.034020000000,  -0.02000,
,,,00.034040000000,   0.00000,
,,,00.034060000000,   0.00000,
,,,00.034080000000,  -0.02000,
,,,00.034100000000,  -0.02000,
,,,00.034120000000,   0.00000,
,,,00.034140000000,   0.00000,
,,,00.034160000000,   0.00000,
,,,00.034180000000,  -0.02000,
,,,00.034200000000,  -0.02000,
,,,00.034220000000,  -0.02000,
,,,00.034240000000,  -0.02000,
,,,00.034260000000,   0.00000,
,,,00.034280000000,  -0.02000,
,,,00.034300000000,  -0.02000,
,,,00.034320000000,  -0.02000,
,,,00.034340000000,   0.00000,
,,,00.034360000000,  -0.02000,
,,,00.034380000000,   0.00000,
,,,00.034400000000,   0.00000,
,,,00.034420000000,   0.00000,
,,,00.034440000000,   0.00000,
,,,00.034460000000,   0.00000,
,,,00.034480000000,   0.00000,
,,,00.034500000000,  -0.02000,
,,,00.034520000000,   0.00000,
,,,00.034540000000,   0.00000,
,,,00.034560000000,  -0.02000,
,,,00.034580000000,  -0.02000,
,,,00.034600000000,  -0.02000,
,,,00.034620000000,   0.00000,
,,,00.034640000000,   0.00000,
,,,00.034660000000,  -0.02000,
,,,00.034680000000,  -0.02000,
,,,00.034700000000,  -0.02000,
,,,00.034720000000,   0.00000,
,,,00.034740000000,  -0.02000,
,,,00.034760000000,   0.00000,
,,,00.034780000000,   0.00000,
,,,00.034800000000,   0.00000,
,,,00.034820000000,  -0.02000,
,,,00.034840000000,   0.00000,
,,,00.034860000000,  -0.02000,
,,,00.034880000000,   0.00000,
,,,00.034900000000,  -0.02000,
,,,00.034920000000,  -0.02000,
,,,00.034940000000,   0.00000,
,,,00.034960000000,  -0.02000,
,,,00.034980000000,   0.00000,
,,,00.035000000000,  -0.02000,
,,,00.035020000000,   0.00000,
,,,00.035040000000,   0.00000,
,,,00.035060000000,   0.00000,
,,,00.035080000000,  -0.02000,
,,,00.035100000000,  -0.02000,
,,,00.035120000000,   0.00000,
,,,00.035140000000,   0.00000,
,,,00.035160000000,  -0.02000,
,,,00.035180000000,   0.00000,
,,,00.035200000000,   0.00000,
,,,00.035220000000,   0.00000,
,,,00.035240000000,   0.00000,
,,,00.035260000000,  -0.02000,
,,,00.035280000000,  -0.02000,
,,,00.035300000000,  -0.02000,
,,,00.035320000000,  -0.02000,
,,,00.035340000000,  -0.02000,
,,,00.035360000000,   0.00000,
,,,00.035380000000,   0.00000,
,,,00.035400000000,  -0.02000,
,,,00.035420000000,   0.00000,
,,,00.035440000000,   0.00000,
,,,00.035460000000,  -0.02000,
,,,00.035480000000,   0.00000,
,,,00.035500000000,   0.00000,
,,,00.035520000000,   0.00000,
,,,00.035540000000,   0.00000,
,,,00.035560000000,   0.00000,
,,,00.035580000000,   0.00000,
,,,00.035600000000,   0.00000,
,,,00.035620000000,   0.00000,
,,,00.035640000000,  -0.02000,
,,,00.035660000000,   0.00000,
,,,00.035680000000,  -0.02000,
,,,00.035700000000,   0.00000,
,,,00.035720000000,  -0.02000,
,,,00.035740000000,   0.00000,
,,,00.035760000000,  -0.02000,
,,,00.035780000000,  -0.02000,
,,,00.035800000000,  -0.02000,
,,,00.035820000000,   0.00000,
,,,00.035840000000,   0.00000,
,,,00.035860000000,  -0.02000,
,,,00.035880000000,   0.00000,
,,,00.035900000000,  -0.02000,
,,,00.035920000000,  -0.02000,
,,,00.035940000000,  -0.02000,
,,,00.035960000000,  -0.02000,
,,,00.035980000000,   0.00000,
,,,00.036000000000,   0.00000,
,,,00.036020000000,  -0.02000,
,,,00.036040000000,  -0.02000,
,,,00.036060000000,  -0.02000,
,,,00.036080000000,   0.00000,
,,,00.036100000000,  -0.02000,
,,,00.036120000000,   0.00000,
,,,00.036140000000,   0.00000,
,,,00.036160000000,   0.00000,
,,,00.036180000000,  -0.02000,
,,,00.036200000000,  -0.02000,
,,,00.036220000000,   0.00000,
,,,00.036240000000,  -0.02000,
,,,00.036260000000,  -0.02000,
,,,00.036280000000,   0.00000,
,,,00.036300000000,   0.00000,
,,,00.036320000000,  -0.02000,
,,,00.036340000000,  -0.02000,
,,,00.036360000000,  -0.02000,
,,,00.036380000000,   0.00000,
,,,00.036400000000,   0.00000,
,,,00.036420000000,   0.00000,
,,,00.036440000000,  -0.02000,
,,,00.036460000000,  -0.02000,
,,,00.036480000000,  -0.02000,
,,,00.036500000000,   0.00000,
,,,00.036520000000,   0.00000,
,,,00.036540000000,  -0.02000,
,,,00.036560000000,  -0.02000,
,,,00.036580000000,  -0.02000,
,,,00.036600000000,   0.00000,
,,,00.036620000000,   0.00000,
,,,00.036640000000,   0.00000,
,,,00.036660000000,   0.00000,
,,,00.036680000000,   0.00000,
,,,00.036700000000,  -0.02000,
,,,00.036720000000,   0.00000,
,,,00.036740000000,   0.00000,
,,,00.036760000000,  -0.02000,
,,,00.036780000000,  -0.02000,
,,,00.036800000000,  -0.02000,
,,,00.036820000000,  -0.02000,
,,,00.036840000000,  -0.02000,
,,,00.036860000000,  -0.02000,
,,,00.036880000000,  -0.02000,
,,,00.036900000000,   0.00000,
,,,00.036920000000,  -0.02000,
,,,00.036940000000,   0.00000,
,,,00.036960000000,  -0.02000,
,,,00.036980000000,   0.00000,
,,,00.037000000000,   0.00000,
,,,00.037020000000,   0.00000,
,,,00.037040000000,  -0.02000,
,,,00.037060000000,  -0.02000,
,,,00.037080000000,   0.00000,
,,,00.037100000000,   0.00000,
,,,00.037120000000,  -0.02000,
,,,00.037140000000,  -0.02000,
,,,00.037160000000,  -0.02000,
,,,00.037180000000,  -0.02000,
,,,00.037200000000,   0.00000,
,,,00.037220000000,   0.00000,
,,,00.037240000000,   0.00000,
,,,00.037260000000,  -0.02000,
,,,00.037280000000,   0.00000,
,,,00.037300000000,  -0.02000,
,,,00.037320000000,   0.00000,
,,,00.037340000000,  -0.02000,
,,,00.037360000000,  -0.02000,
,,,00.037380000000,  -0.02000,
,,,00.037400000000,  -0.02000,
,,,00.037420000000,  -0.02000,
,,,00.037440000000,   0.00000,
,,,00.037460000000,  -0.02000,
,,,00.037480000000,   0.00000,
,,,00.037500000000,  -0.02000,
,,,00.037520000000,   0.00000,
,,,00.037540000000,  -0.02000,
,,,00.037560000000,  -0.02000,
,,,00.037580000000,   0.00000,
,,,00.037600000000,   0.00000,
,,,00.037620000000,  -0.02000,
,,,00.037640000000,   0.00000,
,,,00.037660000000,   0.00000,
,,,00.037680000000,  -0.02000,
,,,00.037700000000,  -0.02000,
,,,00.037720000000,  -0.02000,
,,,00.037740000000,  -0.02000,
,,,00.037760000000,   0.00000,
,,,00.037780000000,  -0.02000,
,,,00.037800000000,   0.00000,
,,,00.037820000000,   0.00000,
,,,00.037840000000,   0.00000,
,,,00.037860000000,   0.00000,
,,,00.037880000000,   0.00000,
,,,00.037900000000,   0.00000,
,,,00.037920000000,   0.00000,
,,,00.037940000000,  -0.02000,
,,,00.037960000000,   0.00000,
,,,00.037980000000,  -0.02000,
,,,00.038000000000,   0.00000,
,,,00.038020000000,   0.00000,
,,,00.038040000000,   0.00000,
,,,00.038060000000,   0.00000,
,,,00.038080000000,  -0.02000,
,,,00.038100000000,  -0.02000,
,,,00.038120000000,  -0.02000,
,,,00.038140000000,  -0.02000,
,,,00.038160000000,   0.00000,
,,,00.038180000000,  -0.02000,
,,,00.038200000000,  -0.02000,
,,,00.038220000000,   0.00000,
,,,00.038240000000,   0.00000,
,,,00.038260000000,  -0.02000,
,,,00.038280000000,   0.00000,
,,,00.038300000000,   0.00000,
,,,00.038320000000,   0.00000,
,,,00.038340000000,   0.00000,
,,,00.038360000000,   0.00000,
,,,00.038380000000,  -0.02000,
,,,00.038400000000,  -0.02000,
,,,00.038420000000,  -0.02000,
,,,00.038440000000,  -0.02000,
,,,00.038460000000,  -0.02000,
,,,00.038480000000,   0.00000,
,,,00.038500000000,   0.00000,
,,,00.038520000000,   0.00000,
,,,00.038540000000,   0.00000,
,,,00.038560000000,   0.00000,
,,,00.038580000000,  -0.02000,
,,,00.038600000000,   0.00000,
,,,00.038620000000,  -0.02000,
,,,00.038640000000,  -0.02000,
,,,00.038660000000,  -0.02000,
,,,00.038680000000,   0.00000,
,,,00.038700000000,  -0.02000,
,,,00.038720000000,   0.00000,
,,,00.038740000000,   0.00000,
,,,00.038760000000,   0.00000,
,,,00.038780000000,  -0.02000,
,,,00.038800000000,  -0.02000,
,,,00.038820000000,   0.00000,
,,,00.038840000000,   0.00000,
,,,00.038860000000,  -0.02000,
,,,00.038880000000,  -0.02000,
,,,00.038900000000,  -0.02000,
,,,00.038920000000,   0.00000,
,,,00.038940000000,  -0.02000,
,,,00.038960000000,   0.00000,
,,,00.038980000000,  -0.02000,
,,,00.039000000000,  -0.02000,
,,,00.039020000000,  -0.02000,
,,,00.039040000000,   0.00000,
,,,00.039060000000,   0.00000,
,,,00.039080000000,  -0.02000,
,,,00.039100000000,  -0.02000,
,,,00.039120000000,  -0.02000,
,,,00.039140000000,   0.00000,
,,,00.039160000000,  -0.02000,
,,,00.039180000000,  -0.02000,
,,,00.039200000000,  -0.02000,
,,,00.039220000000,  -0.02000,
,,,00.039240000000,   0.00000,
,,,00.039260000000,   0.00000,
,,,00.039280000000,   0.00000,
,,,00.039300000000,  -0.02000,
,,,00.039320000000,  -0.02000,
,,,00.039340000000,   0.00000,
,,,00.039360000000,   0.00000,
,,,00.039380000000,  -0.02000,
,,,00.039400000000,  -0.02000,
,,,00.039420000000,  -0.02000,
,,,00.039440000000,  -0.02000,
,,,00.039460000000,   0.00000,
,,,00.039480000000,  -0.02000,
,,,00.039500000000,  -0.02000,
,,,00.039520000000,  -0.02000,
,,,00.039540000000,  -0.02000,
,,,00.039560000000,  -0.02000,
,,,00.039580000000,   0.00000,
,,,00.039600000000,   0.00000,
,,,00.039620000000,   0.00000,
,,,00.039640000000,  -0.02000,
,,,00.039660000000,   0.00000,
,,,00.039680000000,   0.00000,
,,,00.039700000000,  -0.02000,
,,,00.039720000000,  -0.02000,
,,,00.039740000000,  -0.02000,
,,,00.039760000000,  -0.02000,
,,,00.039780000000,   0.00000,
,,,00.039800000000,   0.00000,
,,,00.039820000000,   0.00000,
,,,00.039840000000,   0.00000,
,,,00.039860000000,   0.00000,
,,,00.039880000000,  -0.02000,
,,,00.039900000000,   0.00000,
,,,00.039920000000,  -0.02000,
,,,00.039940000000,   0.00000,
,,,00.039960000000,  -0.02000,
,,,00.039980000000,  -0.02000,
,,,00.040000000000,   0.00000,
,,,00.040020000000,   0.00000,
,,,00.040040000000,  -0.02000,
,,,00.040060000000,  -0.02000,
,,,00.040080000000,  -0.02000,
,,,00.040100000000,   0.00000,
,,,00.040120000000,  -0.02000,
,,,00.040140000000,  -0.02000,
,,,00.040160000000,  -0.02000,
,,,00.040180000000,   0.00000,
,,,00.040200000000,  -0.02000,
,,,00.040220000000,   0.00000,
,,,00.040240000000,  -0.02000,
,,,00.040260000000,  -0.02000,
,,,00.040280000000,  -0.02000,
,,,00.040300000000,  -0.02000,
,,,00.040320000000,  -0.02000,
,,,00.040340000000,   0.00000,
,,,00.040360000000,  -0.02000,
,,,00.040380000000,   0.00000,
,,,00.040400000000,  -0.02000,
,,,00.040420000000,  -0.02000,
,,,00.040440000000,  -0.02000,
,,,00.040460000000,  -0.02000,
,,,00.040480000000,   0.00000,
,,,00.040500000000,   0.00000,
,,,00.040520000000,  -0.02000,
,,,00.040540000000,  -0.02000,
,,,00.040560000000,  -0.02000,
,,,00.040580000000,   0.00000,
,,,00.040600000000,  -0.02000,
,,,00.040620000000,  -0.02000,
,,,00.040640000000,   0.00000,
,,,00.040660000000,  -0.02000,
,,,00.040680000000,   0.00000,
,,,00.040700000000,  -0.02000,
,,,00.040720000000,  -0.02000,
,,,00.040740000000,   0.00000,
,,,00.040760000000,   0.00000,
,,,00.040780000000,   0.00000,
,,,00.040800000000,  -0.02000,
,,,00.040820000000,  -0.02000,
,,,00.040840000000,   0.00000,
,,,00.040860000000,   0.00000,
,,,00.040880000000,   0.00000,
,,,00.040900000000,   0.00000,
,,,00.040920000000,  -0.02000,
,,,00.040940000000,  -0.02000,
,,,00.040960000000,   0.00000,
,,,00.040980000000,   0.00000,
,,,00.041000000000,  -0.02000,
,,,00.041020000000,  -0.02000,
,,,00.041040000000,   0.00000,
,,,00.041060000000,   0.00000,
,,,00.041080000000,  -0.02000,
,,,00.041100000000,  -0.02000,
,,,00.041120000000,  -0.02000,
,,,00.041140000000,  -0.02000,
,,,00.041160000000,   0.00000,
,,,00.041180000000,  -0.02000,
,,,00.041200000000,  -0.02000,
,,,00.041220000000,  -0.02000,
,,,00.041240000000,   0.00000,
,,,00.041260000000,   0.00000,
,,,00.041280000000,   0.00000,
,,,00.041300000000,  -0.02000,
,,,00.041320000000,  -0.02000,
,,,00.041340000000,  -0.02000,
,,,00.041360000000,   0.00000,
,,,00.041380000000,  -0.02000,
,,,00.041400000000,  -0.02000,
,,,00.041420000000,   0.00000,
,,,00.041440000000,  -0.02000,
,,,00.041460000000,   0.00000,
,,,00.041480000000,   0.00000,
,,,00.041500000000,   0.00000,
,,,00.041520000000,   0.00000,
,,,00.041540000000,   0.00000,
,,,00.041560000000,   0.00000,
,,,00.041580000000,   0.00000,
,,,00.041600000000,   0.00000,
,,,00.041620000000,  -0.02000,
,,,00.041640000000,  -0.02000,
,,,00.041660000000,   0.00000,
,,,00.041680000000,   0.00000,
,,,00.041700000000,   0.00000,
,,,00.041720000000,  -0.02000,
,,,00.041740000000,  -0.02000,
,,,00.041760000000,   0.00000,
,,,00.041780000000,  -0.02000,
,,,00.041800000000,  -0.02000,
,,,00.041820000000,  -0.02000,
,,,00.041840000000,  -0.02000,
,,,00.041860000000,   0.00000,
,,,00.041880000000,  -0.02000,
,,,00.041900000000,   0.00000,
,,,00.041920000000,   0.00000,
,,,00.041940000000,  -0.02000,
,,,00.041960000000,   0.00000,
,,,00.041980000000,  -0.02000,
,,,00.042000000000,  -0.02000,
,,,00.042020000000,   0.00000,
,,,00.042040000000,   0.00000,
,,,00.042060000000,  -0.02000,
,,,00.042080000000,  -0.02000,
,,,00.042100000000,   0.00000,
,,,00.042120000000,   0.00000,
,,,00.042140000000,  -0.02000,
,,,00.042160000000,  -0.02000,
,,,00.042180000000,   0.00000,
,,,00.042200000000,   0.00000,
,,,00.042220000000,   0.00000,
,,,00.042240000000,   0.00000,
,,,00.042260000000,  -0.02000,
,,,00.042280000000,  -0.02000,
,,,00.042300000000,   0.00000,
,,,00.042320000000,  -0.02000,
,,,00.042340000000,   0.00000,
,,,00.042360000000,  -0.02000,
,,,00.042380000000,  -0.02000,
,,,00.042400000000,   0.00000,
,,,00.042420000000,   0.00000,
,,,00.042440000000,  -0.02000,
,,,00.042460000000,  -0.02000,
,,,00.042480000000,   0.00000,
,,,00.042500000000,  -0.02000,
,,,00.042520000000,  -0.02000,
,,,00.042540000000,  -0.02000,
,,,00.042560000000,  -0.02000,
,,,00.042580000000,  -0.02000,
,,,00.042600000000,   0.00000,
,,,00.042620000000,  -0.02000,
,,,00.042640000000,   0.00000,
,,,00.042660000000,   0.00000,
,,,00.042680000000,   0.00000,
,,,00.042700000000,   0.00000,
,,,00.042720000000,  -0.02000,
,,,00.042740000000,  -0.02000,
,,,00.042760000000,   0.00000,
,,,00.042780000000,  -0.02000,
,,,00.042800000000,  -0.02000,
,,,00.042820000000,   0.00000,
,,,00.042840000000,  -0.02000,
,,,00.042860000000,   0.00000,
,,,00.042880000000,   0.00000,
,,,00.042900000000,   0.00000,
,,,00.042920000000,   0.00000,
,,,00.042940000000,   0.00000,
,,,00.042960000000,   0.00000,
,,,00.042980000000,  -0.02000,
,,,00.043000000000,   0.00000,
,,,00.043020000000,   0.00000,
,,,00.043040000000,  -0.02000,
,,,00.043060000000,  -0.02000,
,,,00.043080000000,   0.00000,
,,,00.043100000000,   0.00000,
,,,00.043120000000,   0.00000,
,,,00.043140000000,   0.00000,
,,,00.043160000000,   0.00000,
,,,00.043180000000,  -0.02000,
,,,00.043200000000,   0.00000,
,,,00.043220000000,   0.00000,
,,,00.043240000000,   0.00000,
,,,00.043260000000,  -0.02000,
,,,00.043280000000,   0.00000,
,,,00.043300000000,   0.00000,
,,,00.043320000000,   0.00000,
,,,00.043340000000,   0.00000,
,,,00.043360000000,  -0.02000,
,,,00.043380000000,   0.00000,
,,,00.043400000000,   0.00000,
,,,00.043420000000,   0.00000,
,,,00.043440000000,   0.00000,
,,,00.043460000000,  -0.02000,
,,,00.043480000000,   0.00000,
,,,00.043500000000,  -0.02000,
,,,00.043520000000,   0.00000,
,,,00.043540000000,  -0.02000,
,,,00.043560000000,   0.00000,
,,,00.043580000000,  -0.02000,
,,,00.043600000000,   0.00000,
,,,00.043620000000,  -0.02000,
,,,00.043640000000,  -0.02000,
,,,00.043660000000,  -0.02000,
,,,00.043680000000,   0.00000,
,,,00.043700000000,   0.00000,
,,,00.043720000000,   0.00000,
,,,00.043740000000,  -0.02000,
,,,00.043760000000,  -0.02000,
,,,00.043780000000,   0.00000,
,,,00.043800000000,  -0.02000,
,,,00.043820000000,  -0.02000,
,,,00.043840000000,  -0.02000,
,,,00.043860000000,   0.00000,
,,,00.043880000000,   0.00000,
,,,00.043900000000,   0.00000,
,,,00.043920000000,  -0.02000,
,,,00.043940000000,  -0.02000,
,,,00.043960000000,   0.00000,
,,,00.043980000000,  -0.02000,
,,,00.044000000000,  -0.02000,
,,,00.044020000000,   0.00000,
,,,00.044040000000,  -0.02000,
,,,00.044060000000,   0.00000,
,,,00.044080000000,  -0.02000,
,,,00.044100000000,   0.00000,
,,,00.044120000000,  -0.02000,
,,,00.044140000000,   0.00000,
,,,00.044160000000,  -0.02000,
,,,00.044180000000,   0.00000,
,,,00.044200000000,  -0.02000,
,,,00.044220000000,   0.00000,
,,,00.044240000000,  -0.02000,
,,,00.044260000000,   0.00000,
,,,00.044280000000,   0.00000,
,,,00.044300000000,  -0.02000,
,,,00.044320000000,  -0.02000,
,,,00.044340000000,  -0.02000,
,,,00.044360000000,  -0.02000,
,,,00.044380000000,   0.00000,
,,,00.044400000000,  -0.02000,
,,,00.044420000000,   0.00000,
,,,00.044440000000,   0.00000,
,,,00.044460000000,  -0.02000,
,,,00.044480000000,   0.00000,
,,,00.044500000000,   0.00000,
,,,00.044520000000,   0.00000,
,,,00.044540000000,   0.00000,
,,,00.044560000000,   0.00000,
,,,00.044580000000,  -0.02000,
,,,00.044600000000,   0.00000,
,,,00.044620000000,  -0.02000,
,,,00.044640000000,   0.00000,
,,,00.044660000000,  -0.02000,
,,,00.044680000000,   0.00000,
,,,00.044700000000,  -0.02000,
,,,00.044720000000,   0.00000,
,,,00.044740000000,   0.00000,
,,,00.044760000000,  -0.02000,
,,,00.044780000000,  -0.02000,
,,,00.044800000000,   0.00000,
,,,00.044820000000,  -0.02000,
,,,00.044840000000,   0.00000,
,,,00.044860000000,  -0.02000,
,,,00.044880000000,  -0.02000,
,,,00.044900000000,   0.00000,
,,,00.044920000000,  -0.02000,
,,,00.044940000000,  -0.02000,
,,,00.044960000000,  -0.02000,
,,,00.044980000000,  -0.02000,
,,,00.045000000000,   0.00000,
,,,00.045020000000,  -0.02000,
,,,00.045040000000,  -0.02000,
,,,00.045060000000,   0.00000,
,,,00.045080000000,  -0.02000,
,,,00.045100000000,   0.00000,
,,,00.045120000000,   0.00000,
,,,00.045140000000,  -0.02000,
,,,00.045160000000,  -0.02000,
,,,00.045180000000,   0.00000,
,,,00.045200000000,   0.00000,
,,,00.045220000000,  -0.02000,
,,,00.045240000000,   0.00000,
,,,00.045260000000,   0.00000,
,,,00.045280000000,   0.00000,
,,,00.045300000000,   0.00000,
,,,00.045320000000,   0.00000,
,,,00.045340000000,  -0.02000,
,,,00.045360000000,  -0.02000,
,,,00.045380000000,   0.00000,
,,,00.045400000000,   0.00000,
,,,00.045420000000,   0.00000,
,,,00.045440000000,  -0.02000,
,,,00.045460000000,   0.00000,
,,,00.045480000000,  -0.02000,
,,,00.045500000000,  -0.02000,
,,,00.045520000000,   0.00000,
,,,00.045540000000,  -0.02000,
,,,00.045560000000,   0.00000,
,,,00.045580000000,   0.00000,
,,,00.045600000000,   0.00000,
,,,00.045620000000,  -0.02000,
,,,00.045640000000,   0.00000,
,,,00.045660000000,  -0.02000,
,,,00.045680000000,   0.00000,
,,,00.045700000000,   0.00000,
,,,00.045720000000,  -0.02000,
,,,00.045740000000,   0.00000,
,,,00.045760000000,  -0.02000,
,,,00.045780000000,   0.00000,
,,,00.045800000000,  -0.02000,
,,,00.045820000000,  -0.02000,
,,,00.045840000000,   0.00000,
,,,00.045860000000,   0.00000,
,,,00.045880000000,  -0.02000,
,,,00.045900000000,   0.00000,
,,,00.045920000000,   0.00000,
,,,00.045940000000,  -0.02000,
,,,00.045960000000,  -0.02000,
,,,00.045980000000,  -0.02000,
,,,00.046000000000,  -0.02000,
,,,00.046020000000,  -0.02000,
,,,00.046040000000,  -0.02000,
,,,00.046060000000,  -0.02000,
,,,00.046080000000,  -0.02000,
,,,00.046100000000,  -0.02000,
,,,00.046120000000,  -0.02000,
,,,00.046140000000,  -0.02000,
,,,00.046160000000,   0.00000,
,,,00.046180000000,   0.00000,
,,,00.046200000000,  -0.02000,
,,,00.046220000000,   0.00000,
,,,00.046240000000,  -0.02000,
,,,00.046260000000,  -0.02000,
,,,00.046280000000,  -0.02000,
,,,00.046300000000,  -0.02000,
,,,00.046320000000,  -0.02000,
,,,00.046340000000,  -0.02000,
,,,00.046360000000,   0.00000,
,,,00.046380000000,  -0.02000,
,,,00.046400000000,  -0.02000,
,,,00.046420000000,  -0.02000,
,,,00.046440000000,   0.00000,
,,,00.046460000000,  -0.02000,
,,,00.046480000000,   0.00000,
,,,00.046500000000,   0.00000,
,,,00.046520000000,  -0.02000,
,,,00.046540000000,  -0.02000,
,,,00.046560000000,   0.00000,
,,,00.046580000000,  -0.02000,
,,,00.046600000000,  -0.02000,
,,,00.046620000000,  -0.02000,
,,,00.046640000000,   0.00000,
,,,00.046660000000,  -0.02000,
,,,00.046680000000,  -0.02000,
,,,00.046700000000,   0.00000,
,,,00.046720000000,  -0.02000,
,,,00.046740000000,  -0.02000,
,,,00.046760000000,   0.00000,
,,,00.046780000000,  -0.02000,
,,,00.046800000000,   0.00000,
,,,00.046820000000,  -0.02000,
,,,00.046840000000,   0.00000,
,,,00.046860000000,   0.00000,
,,,00.046880000000,  -0.02000,
,,,00.046900000000,   0.00000,
,,,00.046920000000,   0.00000,
,,,00.046940000000,  -0.02000,
,,,00.046960000000,  -0.02000,
,,,00.046980000000,  -0.02000,
,,,00.047000000000,   0.00000,
,,,00.047020000000,   0.00000,
,,,00.047040000000,   0.00000,
,,,00.047060000000,  -0.02000,
,,,00.047080000000,  -0.02000,
,,,00.047100000000,  -0.02000,
,,,00.047120000000,  -0.02000,
,,,00.047140000000,  -0.02000,
,,,00.047160000000,  -0.02000,
,,,00.047180000000,   0.00000,
,,,00.047200000000,   0.00000,
,,,00.047220000000,   0.00000,
,,,00.047240000000,   0.00000,
,,,00.047260000000,  -0.02000,
,,,00.047280000000,   0.00000,
,,,00.047300000000,  -0.02000,
,,,00.047320000000,  -0.02000,
,,,00.047340000000,  -0.02000,
,,,00.047360000000,   0.00000,
,,,00.047380000000,  -0.02000,
,,,00.047400000000,  -0.02000,
,,,00.047420000000,  -0.02000,
,,,00.047440000000,   0.00000,
,,,00.047460000000,   0.00000,
,,,00.047480000000,  -0.02000,
,,,00.047500000000,   0.00000,
,,,00.047520000000,  -0.02000,
,,,00.047540000000,  -0.02000,
,,,00.047560000000,   0.00000,
,,,00.047580000000,  -0.02000,
,,,00.047600000000,   0.00000,
,,,00.047620000000,   0.00000,
,,,00.047640000000,  -0.02000,
,,,00.047660000000,   0.00000,
,,,00.047680000000,   0.00000,
,,,00.047700000000,   0.00000,
,,,00.047720000000,  -0.02000,
,,,00.047740000000,  -0.02000,
,,,00.047760000000,   0.00000,
,,,00.047780000000,   0.00000,
